{
  "description": "Funções uteis",
  "extensionNamespace": "",
  "fullName": "Funções para diversas utilidades",
  "name": "Util",
  "version": "1",
  "eventsFunctions": [
    {
      "description": "Create piece with random number 1-7",
      "fullName": "Create piece",
      "functionType": "Action",
      "name": "create_piece",
      "sentence": "Create piece with random number 1-7",
      "events": [
        {
          "disabled": false,
          "folded": false,
          "type": "BuiltinCommonInstructions::Standard",
          "conditions": [],
          "actions": [
            {
              "type": {
                "inverted": false,
                "value": "ModVarScene"
              },
              "parameters": [
                "p",
                "=",
                "RandomInRange(1, 7)"
              ],
              "subInstructions": []
            },
            {
              "type": {
                "inverted": false,
                "value": "CreateByName"
              },
              "parameters": [
                "",
                "pieces",
                "\"piece1\"",
                "480",
                "200",
                "\"peaces\""
              ],
              "subInstructions": []
            },
            {
              "type": {
                "inverted": false,
                "value": "Create"
              },
              "parameters": [
                "",
                "piece2",
                "50",
                "300\n",
                "pieces"
              ],
              "subInstructions": []
            }
          ],
          "events": [
            {
              "disabled": false,
              "folded": false,
              "type": "BuiltinCommonInstructions::Standard",
              "conditions": [
                {
                  "type": {
                    "inverted": false,
                    "value": "VarScene"
                  },
                  "parameters": [
                    "p",
                    "=",
                    "1"
                  ],
                  "subInstructions": []
                }
              ],
              "actions": [],
              "events": []
            },
            {
              "disabled": false,
              "folded": false,
              "type": "BuiltinCommonInstructions::Standard",
              "conditions": [
                {
                  "type": {
                    "inverted": false,
                    "value": "VarScene"
                  },
                  "parameters": [
                    "p",
                    "=",
                    "2"
                  ],
                  "subInstructions": []
                }
              ],
              "actions": [
                {
                  "type": {
                    "inverted": false,
                    "value": "Create"
                  },
                  "parameters": [
                    "",
                    "piece2",
                    "480",
                    "-96",
                    "pieces"
                  ],
                  "subInstructions": []
                }
              ],
              "events": []
            },
            {
              "disabled": false,
              "folded": false,
              "type": "BuiltinCommonInstructions::Standard",
              "conditions": [
                {
                  "type": {
                    "inverted": false,
                    "value": "VarScene"
                  },
                  "parameters": [
                    "p",
                    "=",
                    "3"
                  ],
                  "subInstructions": []
                }
              ],
              "actions": [
                {
                  "type": {
                    "inverted": false,
                    "value": "Create"
                  },
                  "parameters": [
                    "",
                    "piece3",
                    "480",
                    "-96",
                    "pieces"
                  ],
                  "subInstructions": []
                }
              ],
              "events": []
            },
            {
              "disabled": false,
              "folded": false,
              "type": "BuiltinCommonInstructions::Standard",
              "conditions": [
                {
                  "type": {
                    "inverted": false,
                    "value": "VarScene"
                  },
                  "parameters": [
                    "p",
                    "=",
                    "4"
                  ],
                  "subInstructions": []
                }
              ],
              "actions": [
                {
                  "type": {
                    "inverted": false,
                    "value": "Create"
                  },
                  "parameters": [
                    "",
                    "piece4",
                    "480",
                    "-96",
                    "pieces"
                  ],
                  "subInstructions": []
                }
              ],
              "events": []
            },
            {
              "disabled": false,
              "folded": false,
              "type": "BuiltinCommonInstructions::Standard",
              "conditions": [
                {
                  "type": {
                    "inverted": false,
                    "value": "VarScene"
                  },
                  "parameters": [
                    "p",
                    "=",
                    "5"
                  ],
                  "subInstructions": []
                }
              ],
              "actions": [
                {
                  "type": {
                    "inverted": false,
                    "value": "Create"
                  },
                  "parameters": [
                    "",
                    "piece5",
                    "480",
                    "-96",
                    "pieces"
                  ],
                  "subInstructions": []
                }
              ],
              "events": []
            },
            {
              "disabled": false,
              "folded": false,
              "type": "BuiltinCommonInstructions::Standard",
              "conditions": [
                {
                  "type": {
                    "inverted": false,
                    "value": "VarScene"
                  },
                  "parameters": [
                    "p",
                    "=",
                    "6"
                  ],
                  "subInstructions": []
                }
              ],
              "actions": [
                {
                  "type": {
                    "inverted": false,
                    "value": "Create"
                  },
                  "parameters": [
                    "",
                    "piece6",
                    "480",
                    "-96",
                    "pieces"
                  ],
                  "subInstructions": []
                }
              ],
              "events": []
            },
            {
              "disabled": false,
              "folded": false,
              "type": "BuiltinCommonInstructions::Standard",
              "conditions": [
                {
                  "type": {
                    "inverted": false,
                    "value": "VarScene"
                  },
                  "parameters": [
                    "p",
                    "=",
                    "7"
                  ],
                  "subInstructions": []
                }
              ],
              "actions": [
                {
                  "type": {
                    "inverted": false,
                    "value": "Create"
                  },
                  "parameters": [
                    "",
                    "piece7",
                    "480",
                    "-96",
                    "pieces"
                  ],
                  "subInstructions": []
                }
              ],
              "events": []
            }
          ]
        }
      ],
      "parameters": [],
      "objectGroups": []
    }
  ]
}