*********************************************************
You can use any image from this pack (2D image Pack Alien Patrol) in any project,
The only condicion is that you thanks me in your project.

If you use any of the images from this pack, please send me a email
with a link to your project.

Thanks

kalface@gmail.com
 
blog: http://carlosalface.blogspot.pt/

Carlos Alface 2018
*********************************************************
