<?xml version="1.0" encoding="UTF-8" standalone="no"?>
<!-- Created with Inkscape (http://www.inkscape.org/) -->

<svg
   xmlns:dc="http://purl.org/dc/elements/1.1/"
   xmlns:cc="http://creativecommons.org/ns#"
   xmlns:rdf="http://www.w3.org/1999/02/22-rdf-syntax-ns#"
   xmlns:svg="http://www.w3.org/2000/svg"
   xmlns="http://www.w3.org/2000/svg"
   xmlns:sodipodi="http://sodipodi.sourceforge.net/DTD/sodipodi-0.dtd"
   xmlns:inkscape="http://www.inkscape.org/namespaces/inkscape"
   id="svg2"
   viewBox="0 0 720 720"
   version="1.1"
   inkscape:version="0.92.1 r15371"
   sodipodi:docname="estrela.svg">
  <defs
     id="defs15" />
  <sodipodi:namedview
     pagecolor="#ffffff"
     bordercolor="#666666"
     borderopacity="1"
     objecttolerance="10"
     gridtolerance="10"
     guidetolerance="10"
     inkscape:pageopacity="0"
     inkscape:pageshadow="2"
     inkscape:window-width="1920"
     inkscape:window-height="1017"
     id="namedview13"
     showgrid="false"
     inkscape:zoom="0.32777778"
     inkscape:cx="-100.03864"
     inkscape:cy="-258.45663"
     inkscape:window-x="-8"
     inkscape:window-y="-8"
     inkscape:window-maximized="1"
     inkscape:current-layer="svg2" />
  <path
     id="path2983"
     style="stroke:#ff0000;stroke-width:2;display:none;fill:none"
     d="m329.69 144.95s-9.3692-18.562-37.653-6.364" />
  <path
     id="path2983-8"
     style="stroke:#ff0000;stroke-width:2;display:none;fill:none"
     d="m326.89 144.95s-9.3692-18.562-37.653-6.364" />
  <path
     id="path2860"
     style="fill:#ffffff;stroke:#000000"
     d="m 321.81178,-166.41294 c -54.35,31.45 -90.969,90.220997 -90.969,157.5299972 0,67.3099998 36.619,126.0200028 90.969,157.4700028 0.0616,-62.793003 32.614,-123.850003 90.906,-157.5000028 -0.0113,-67.2950002 -36.567,-126.0499972 -90.906,-157.4999972 z"
     inkscape:connector-curvature="0" />
  <path
     id="path3119"
     style="fill:#ffffff;stroke:#000000"
     d="m 795.23834,193.8709 c -54.412,-31.343 -123.62,-33.671 -181.91,-0.0156 -58.292,33.655 -90.826,94.722 -90.888,157.52 54.412,-31.343 123.56,-33.678 181.85,-0.0229 58.273,-33.657 90.882,-94.695 90.946,-157.48 z"
     inkscape:connector-curvature="0" />
  <path
     id="path3121"
     style="fill:#ffffff;stroke:#000000"
     d="m 907.41664,623.20647 c -0.0616,-62.793 -32.65,-123.89 -90.942,-157.55 -58.292,-33.655 -127.44,-31.296 -181.86,0.0469 54.35,31.45 90.946,90.167 90.946,157.48 58.285,33.638 127.45,31.359 181.85,0.0229 z"
     inkscape:connector-curvature="0" />
  <path
     id="path3123"
     style="fill:#ffffff;stroke:#000000"
     d="m 388.6873,884.25567 c 54.35,-31.45 90.969,-90.221 90.969,-157.53 0,-67.31 -36.619,-126.02 -90.969,-157.47 -0.06,62.79 -32.62,123.85 -90.91,157.5 0.0113,67.295 36.567,126.05 90.906,157.5 z"
     inkscape:connector-curvature="0" />
  <path
     id="path3125"
     style="fill:#ffffff;stroke:#000000"
     d="m -67.48107,646.9365 c 54.412,31.343 123.62,33.671 181.91,0.0156 58.292,-33.655 90.826,-94.722 90.888,-157.52 -54.412,31.343 -123.56,33.678 -181.85,0.0229 -58.273,33.657 -90.882,94.695 -90.946,157.48 z"
     inkscape:connector-curvature="0" />
  <path
     id="path3127"
     style="fill:#ffffff;stroke:#000000"
     d="m -190.44574,131.30993 c 0.0616,62.793 32.65,123.89 90.942,157.55 58.292,33.655 127.44,31.296 181.86,-0.0469 -54.35,-31.45 -90.9500004,-90.17 -90.9500004,-157.48 C -66.87374,97.703054 -136.04374,99.973054 -190.44374,131.31305 Z"
     inkscape:connector-curvature="0" />
  <metadata
     id="metadata10">
    <rdf:RDF>
      <cc:Work>
        <dc:format>image/svg+xml</dc:format>
        <dc:type
           rdf:resource="http://purl.org/dc/dcmitype/StillImage" />
        <cc:license
           rdf:resource="http://creativecommons.org/licenses/publicdomain/" />
        <dc:publisher>
          <cc:Agent
             rdf:about="http://openclipart.org/">
            <dc:title>Openclipart</dc:title>
          </cc:Agent>
        </dc:publisher>
        <dc:title></dc:title>
        <dc:date>2011-07-10T21:25:58</dc:date>
        <dc:description>this doesn't look any different from the last remix but it uses only 6 objects instead of an extra red one because I'm smarter now about how I make these things.\n\nSo this one should be easier to edit.</dc:description>
        <dc:source>https://openclipart.org/detail/148903/6-color-football-flower-remix-by-10binary</dc:source>
        <dc:creator>
          <cc:Agent>
            <dc:title>10binary</dc:title>
          </cc:Agent>
        </dc:creator>
        <dc:subject>
          <rdf:Bag>
            <rdf:li>6</rdf:li>
            <rdf:li>color</rdf:li>
            <rdf:li>flower</rdf:li>
            <rdf:li>football</rdf:li>
            <rdf:li>remix</rdf:li>
          </rdf:Bag>
        </dc:subject>
      </cc:Work>
      <cc:License
         rdf:about="http://creativecommons.org/licenses/publicdomain/">
        <cc:permits
           rdf:resource="http://creativecommons.org/ns#Reproduction" />
        <cc:permits
           rdf:resource="http://creativecommons.org/ns#Distribution" />
        <cc:permits
           rdf:resource="http://creativecommons.org/ns#DerivativeWorks" />
      </cc:License>
    </rdf:RDF>
  </metadata>
</svg>
