<?xml version="1.0" encoding="UTF-8" standalone="no"?>
<!-- Created with Inkscape (http://www.inkscape.org/) -->

<svg
   xmlns:dc="http://purl.org/dc/elements/1.1/"
   xmlns:cc="http://creativecommons.org/ns#"
   xmlns:rdf="http://www.w3.org/1999/02/22-rdf-syntax-ns#"
   xmlns:svg="http://www.w3.org/2000/svg"
   xmlns="http://www.w3.org/2000/svg"
   xmlns:xlink="http://www.w3.org/1999/xlink"
   xmlns:sodipodi="http://sodipodi.sourceforge.net/DTD/sodipodi-0.dtd"
   xmlns:inkscape="http://www.inkscape.org/namespaces/inkscape"
   width="1600px"
   height="1200px"
   id="svg2985"
   version="1.1"
   inkscape:version="0.48.4 r9939"
   sodipodi:docname="paisaje.svg">
  <defs
     id="defs2987">
    <linearGradient
       inkscape:collect="always"
       id="linearGradient4349">
      <stop
         style="stop-color:#ff6600;stop-opacity:1;"
         offset="0"
         id="stop4351" />
      <stop
         style="stop-color:#ff6600;stop-opacity:0;"
         offset="1"
         id="stop4353" />
    </linearGradient>
    <linearGradient
       id="linearGradient3991">
      <stop
         style="stop-color:#ffffff;stop-opacity:0.27083334;"
         offset="0"
         id="stop3993" />
      <stop
         style="stop-color:#ffffff;stop-opacity:0.19607843;"
         offset="1"
         id="stop3995" />
    </linearGradient>
    <linearGradient
       id="linearGradient3783">
      <stop
         style="stop-color:#37abc8;stop-opacity:1;"
         offset="0"
         id="stop3785" />
      <stop
         style="stop-color:#37abc8;stop-opacity:0;"
         offset="1"
         id="stop3787" />
    </linearGradient>
    <linearGradient
       inkscape:collect="always"
       xlink:href="#linearGradient3803-3"
       id="linearGradient3809-7"
       x1="756.66669"
       y1="-1.6667074"
       x2="769.99994"
       y2="1201.6666"
       gradientUnits="userSpaceOnUse"
       gradientTransform="translate(63.333333,-16.666667)" />
    <linearGradient
       inkscape:collect="always"
       id="linearGradient3803-3">
      <stop
         style="stop-color:#37abc8;stop-opacity:1;"
         offset="0"
         id="stop3805-6" />
      <stop
         style="stop-color:#37abc8;stop-opacity:0;"
         offset="1"
         id="stop3807-5" />
    </linearGradient>
    <linearGradient
       inkscape:collect="always"
       xlink:href="#linearGradient3850-8"
       id="linearGradient3859-0"
       gradientUnits="userSpaceOnUse"
       x1="854"
       y1="1194.6667"
       x2="844.00006"
       y2="744.66675" />
    <linearGradient
       inkscape:collect="always"
       id="linearGradient3850-8">
      <stop
         style="stop-color:#decd87;stop-opacity:1;"
         offset="0"
         id="stop3852-1" />
      <stop
         style="stop-color:#decd87;stop-opacity:0;"
         offset="1"
         id="stop3854-2" />
    </linearGradient>
    <linearGradient
       inkscape:collect="always"
       xlink:href="#linearGradient3850-8"
       id="linearGradient3864-0"
       gradientUnits="userSpaceOnUse"
       x1="854"
       y1="1194.6667"
       x2="844.00006"
       y2="744.66675"
       gradientTransform="matrix(-0.98983764,0,0,0.70098594,1604.163,368.92274)" />
    <linearGradient
       gradientTransform="matrix(0.99180581,0,0,1.0000094,5.9214874,1.8113388)"
       y2="638.0011"
       x2="854.0827"
       y1="1194.6667"
       x1="854"
       gradientUnits="userSpaceOnUse"
       id="linearGradient3889"
       xlink:href="#linearGradient3850-8"
       inkscape:collect="always" />
    <linearGradient
       y2="1201.6666"
       x2="769.99994"
       y1="-1.6667074"
       x1="756.66669"
       gradientTransform="translate(-2.66667,-0.3333123)"
       gradientUnits="userSpaceOnUse"
       id="linearGradient3826-2"
       xlink:href="#linearGradient3803-3-2"
       inkscape:collect="always" />
    <linearGradient
       inkscape:collect="always"
       id="linearGradient3803-3-2">
      <stop
         style="stop-color:#37abc8;stop-opacity:1;"
         offset="0"
         id="stop3805-6-9" />
      <stop
         style="stop-color:#37abc8;stop-opacity:0;"
         offset="1"
         id="stop3807-5-6" />
    </linearGradient>
    <linearGradient
       y2="1201.6666"
       x2="769.99994"
       y1="-1.6667074"
       x1="756.66669"
       gradientTransform="matrix(0.99176954,0,0,1,9.9450973,3.00002)"
       gradientUnits="userSpaceOnUse"
       id="linearGradient3933"
       xlink:href="#linearGradient3803-3-2"
       inkscape:collect="always" />
    <linearGradient
       y2="1201.6666"
       x2="769.99994"
       y1="-1.6667074"
       x1="756.66669"
       gradientTransform="matrix(0.99176954,0,0,1,9.9450973,3.00002)"
       gradientUnits="userSpaceOnUse"
       id="linearGradient3933-5"
       xlink:href="#linearGradient3803-3-2-0"
       inkscape:collect="always" />
    <linearGradient
       inkscape:collect="always"
       id="linearGradient3803-3-2-0">
      <stop
         style="stop-color:#37abc8;stop-opacity:1;"
         offset="0"
         id="stop3805-6-9-5" />
      <stop
         style="stop-color:#37abc8;stop-opacity:0;"
         offset="1"
         id="stop3807-5-6-4" />
    </linearGradient>
    <linearGradient
       inkscape:collect="always"
       xlink:href="#linearGradient3991"
       id="linearGradient4008"
       gradientUnits="userSpaceOnUse"
       gradientTransform="matrix(0.78131717,0.25416731,-0.30343529,0.88432408,-174.19554,-243.92726)"
       x1="828.00671"
       y1="228.64134"
       x2="798.35144"
       y2="1090.947" />
    <linearGradient
       inkscape:collect="always"
       xlink:href="#linearGradient3991"
       id="linearGradient4024"
       gradientUnits="userSpaceOnUse"
       gradientTransform="matrix(-0.80795676,0.10687532,0.22074937,1.0453909,1668.4944,-283.29808)"
       x1="828.00671"
       y1="228.64134"
       x2="798.35144"
       y2="1090.947" />
    <linearGradient
       inkscape:collect="always"
       xlink:href="#linearGradient3991"
       id="linearGradient4028"
       gradientUnits="userSpaceOnUse"
       gradientTransform="matrix(-0.66984086,-0.14446631,0.21197583,0.8683701,1781.811,53.623567)"
       x1="828.00671"
       y1="228.64134"
       x2="798.35144"
       y2="1090.947" />
    <linearGradient
       inkscape:collect="always"
       xlink:href="#linearGradient3991"
       id="linearGradient4036"
       gradientUnits="userSpaceOnUse"
       gradientTransform="matrix(0.87509875,0.20467694,-0.18513312,0.75260736,-76.982124,-214.85252)"
       x1="828.00671"
       y1="228.64134"
       x2="798.35144"
       y2="1090.947" />
    <linearGradient
       inkscape:collect="always"
       xlink:href="#linearGradient3991"
       id="linearGradient4040"
       gradientUnits="userSpaceOnUse"
       gradientTransform="matrix(0.77247441,0.03761043,-0.03480043,0.60540255,298.94673,-25.07483)"
       x1="828.00671"
       y1="228.64134"
       x2="835.78821"
       y2="571.05933" />
    <linearGradient
       inkscape:collect="always"
       xlink:href="#linearGradient3991"
       id="linearGradient4052"
       gradientUnits="userSpaceOnUse"
       gradientTransform="matrix(-0.74438319,-0.22314679,-0.09571267,0.62246499,1471.2652,145.4113)"
       x1="828.00671"
       y1="228.64134"
       x2="789.35144"
       y2="640.01593" />
    <filter
       inkscape:collect="always"
       id="filter4076"
       x="-0.68135923"
       width="2.3627185"
       y="-0.73002773"
       height="2.4600555">
      <feGaussianBlur
         inkscape:collect="always"
         stdDeviation="14.194984"
         id="feGaussianBlur4078" />
    </filter>
    <linearGradient
       inkscape:collect="always"
       xlink:href="#linearGradient3850-8"
       id="linearGradient4290"
       gradientUnits="userSpaceOnUse"
       gradientTransform="matrix(0.98980585,0,0,0.78743195,12.529247,257.08304)"
       x1="854"
       y1="1194.6667"
       x2="844.00006"
       y2="744.66675" />
    <linearGradient
       inkscape:collect="always"
       xlink:href="#linearGradient4349"
       id="linearGradient4355"
       x1="526.14581"
       y1="1664.2493"
       x2="538.48676"
       y2="1360.916"
       gradientUnits="userSpaceOnUse"
       gradientTransform="translate(-6.6666629e-8,6.666667)" />
  </defs>
  <sodipodi:namedview
     id="base"
     pagecolor="#ffffff"
     bordercolor="#666666"
     borderopacity="1.0"
     inkscape:pageopacity="0.0"
     inkscape:pageshadow="2"
     inkscape:zoom="0.3"
     inkscape:cx="920.71429"
     inkscape:cy="297.72997"
     inkscape:current-layer="layer7"
     inkscape:document-units="px"
     showgrid="false"
     inkscape:window-width="1018"
     inkscape:window-height="705"
     inkscape:window-x="0"
     inkscape:window-y="0"
     inkscape:window-maximized="0" />
  <metadata
     id="metadata2990">
    <rdf:RDF>
      <cc:Work
         rdf:about="">
        <dc:format>image/svg+xml</dc:format>
        <dc:type
           rdf:resource="http://purl.org/dc/dcmitype/StillImage" />
        <dc:title></dc:title>
      </cc:Work>
    </rdf:RDF>
  </metadata>
  <g
     inkscape:groupmode="layer"
     id="layer2"
     inkscape:label="capa_1"
     style="display:inline">
    <rect
       style="fill:#0044aa;fill-opacity:1;fill-rule:nonzero;stroke:none;display:inline"
       id="rect3952"
       width="1606.6667"
       height="1216.6666"
       x="-4.0690105e-05"
       y="-1.6666517" />
  </g>
  <g
     inkscape:groupmode="layer"
     id="layer3"
     inkscape:label="capa_2"
     style="display:inline">
    <rect
       y="-6.9999747"
       x="-3.3333132"
       height="1220"
       width="1613.3336"
       id="rect3801"
       style="fill:url(#linearGradient3933);fill-opacity:1;fill-rule:nonzero;stroke:none;display:inline" />
  </g>
  <g
     inkscape:groupmode="layer"
     id="layer4"
     inkscape:label="capa_3"
     style="display:inline">
    <path
       style="fill:url(#linearGradient3889);fill-opacity:1;fill-rule:nonzero;stroke:#f1f1f1;stroke-width:0.9958992;stroke-opacity:1;display:inline"
       d="M -3.3353538,921.48671 C 92.086905,866.17373 419.1175,854.45148 977.73649,919.86791 c 126.68071,14.8348 312.61211,-55.92897 439.65331,-50.19613 127.0412,5.73284 193.2368,42.14006 192.6123,51.81493 -0.6245,9.67487 0,296.66949 0,296.66949 l -1613.3374538,0 z"
       id="rect3846"
       inkscape:connector-curvature="0"
       sodipodi:nodetypes="cszsccc" />
    <path
       sodipodi:nodetypes="cazcccc"
       inkscape:connector-curvature="0"
       id="path3862"
       d="M 1613.4012,1013.5961 C 1493.6286,880.02487 960.55655,1005.6451 634.2763,995.79473 487.95244,991.37725 322.28449,973.25636 195.49539,977.27495 68.706308,981.29357 68.553087,1014.052 3.2654809,1013.5961 l 0,207.9592 1610.1357191,0 z"
       style="fill:url(#linearGradient3864-0);fill-opacity:1;fill-rule:nonzero;stroke:#f1f1f1;stroke-width:0.86422098;stroke-opacity:1;display:inline" />
    <path
       style="fill:url(#linearGradient4290);fill-opacity:1;fill-rule:nonzero;stroke:#f1f1f1;stroke-width:0.91594565;stroke-opacity:1;display:inline"
       d="M 3.2913432,981.25791 C 123.06009,831.2146 656.11502,972.32639 982.38479,961.26127 c 146.31911,-4.96225 311.98181,-25.31782 438.76681,-20.80365 126.785,4.5142 126.9382,41.31242 192.2237,40.80029 l 0,233.60489 -1610.0839568,0 z"
       id="path4288"
       inkscape:connector-curvature="0"
       sodipodi:nodetypes="cazcccc" />
  </g>
  <g
     inkscape:groupmode="layer"
     id="layer5"
     inkscape:label="capa_4">
    <path
       sodipodi:type="arc"
       style="opacity:0.16336634;fill:#ffffff;fill-opacity:1;fill-rule:nonzero;stroke:none"
       id="path4054"
       sodipodi:cx="245"
       sodipodi:cy="960"
       sodipodi:rx="138.33333"
       sodipodi:ry="73.333336"
       d="m 383.33333,960 a 138.33333,73.333336 0 1 1 -276.66666,0 138.33333,73.333336 0 1 1 276.66666,0 z"
       transform="matrix(0.8313253,0,0,0.79545455,-88.674697,291.36363)" />
    <path
       style="opacity:0.29702974;fill:url(#linearGradient4008);fill-opacity:1;fill-rule:nonzero;stroke:none"
       d="M 446.14268,-48.726427 490.04313,-34.44534 190.20306,1090.2984 15.7089,1033.5344 z"
       id="path4006"
       inkscape:connector-curvature="0"
       sodipodi:nodetypes="ccccc" />
    <path
       sodipodi:nodetypes="ccccc"
       inkscape:connector-curvature="0"
       id="path4022"
       d="m 1027.6297,-205.73911 -45.39727,6.0051 194.38957,1310.41131 180.4437,-23.869 z"
       style="opacity:0.29702974;fill:url(#linearGradient4024);fill-opacity:1;fill-rule:nonzero;stroke:none" />
    <path
       style="opacity:0.29702974;fill:url(#linearGradient4028);fill-opacity:1;fill-rule:nonzero;stroke:none"
       d="m 1250.3044,-66.53025 -37.637,-8.117235 197.1711,1065.393855 149.5977,32.26423 z"
       id="path4026"
       inkscape:connector-curvature="0"
       sodipodi:nodetypes="ccccc" />
    <path
       style="opacity:0.29702974;fill:url(#linearGradient4036);fill-opacity:1;fill-rule:nonzero;stroke:none"
       d="M 616.77671,-57.932053 665.9466,-46.431689 522.49663,909.63264 327.05801,863.92157 z"
       id="path4034"
       inkscape:connector-curvature="0"
       sodipodi:nodetypes="ccccc" />
    <path
       sodipodi:nodetypes="ccccc"
       inkscape:connector-curvature="0"
       id="path4038"
       d="M 910.48393,0.62445967 953.88748,2.7376797 1104.3102,1052.5441 l -161.25374,1.6003 z"
       style="opacity:0.16336634;fill:url(#linearGradient4040);fill-opacity:1;fill-rule:nonzero;stroke:none" />
    <path
       style="opacity:0.16336634;fill:url(#linearGradient4052);fill-opacity:1;fill-rule:nonzero;stroke:none"
       d="m 882.83432,-35.356178 -41.82516,-12.538126 -296.978,1105.227204 187.3768,60.9425 z"
       id="path4050"
       inkscape:connector-curvature="0"
       sodipodi:nodetypes="ccccc" />
    <path
       transform="matrix(0.93975904,0,0,0.70454546,176.4257,235.30302)"
       d="m 383.33333,960 a 138.33333,73.333336 0 1 1 -276.66666,0 138.33333,73.333336 0 1 1 276.66666,0 z"
       sodipodi:ry="73.333336"
       sodipodi:rx="138.33333"
       sodipodi:cy="960"
       sodipodi:cx="245"
       id="path4056"
       style="opacity:0.16336634;fill:#ffffff;fill-opacity:1;fill-rule:nonzero;stroke:none"
       sodipodi:type="arc" />
    <path
       transform="matrix(0.8313253,0,0,0.79545455,431.3253,321.36362)"
       d="m 383.33333,960 a 138.33333,73.333336 0 1 1 -276.66666,0 138.33333,73.333336 0 1 1 276.66666,0 z"
       sodipodi:ry="73.333336"
       sodipodi:rx="138.33333"
       sodipodi:cy="960"
       sodipodi:cx="245"
       id="path4058"
       style="opacity:0.16336634;fill:#ffffff;fill-opacity:1;fill-rule:nonzero;stroke:none"
       sodipodi:type="arc" />
    <path
       sodipodi:type="arc"
       style="opacity:0.16336634;fill:#ffffff;fill-opacity:1;fill-rule:nonzero;stroke:none"
       id="path4060"
       sodipodi:cx="245"
       sodipodi:cy="960"
       sodipodi:rx="138.33333"
       sodipodi:ry="73.333336"
       d="m 383.33333,960 a 138.33333,73.333336 0 1 1 -276.66666,0 138.33333,73.333336 0 1 1 276.66666,0 z"
       transform="matrix(0.8313253,0,0,0.79545455,1061.3253,371.36362)" />
    <path
       transform="matrix(0.8313253,0,0,0.79545455,1294.6586,254.69695)"
       d="m 383.33333,960 a 138.33333,73.333336 0 1 1 -276.66666,0 138.33333,73.333336 0 1 1 276.66666,0 z"
       sodipodi:ry="73.333336"
       sodipodi:rx="138.33333"
       sodipodi:cy="960"
       sodipodi:cx="245"
       id="path4062"
       style="opacity:0.16336634;fill:#ffffff;fill-opacity:1;fill-rule:nonzero;stroke:none"
       sodipodi:type="arc" />
    <path
       sodipodi:type="arc"
       style="opacity:0.16336634;fill:#ffffff;fill-opacity:1;fill-rule:nonzero;stroke:none"
       id="path4064"
       sodipodi:cx="245"
       sodipodi:cy="960"
       sodipodi:rx="138.33333"
       sodipodi:ry="73.333336"
       d="m 383.33333,960 a 138.33333,73.333336 0 1 1 -276.66666,0 138.33333,73.333336 0 1 1 276.66666,0 z"
       transform="matrix(0.8313253,0,0,0.79545455,827.99197,266.69696)" />
    <path
       sodipodi:type="arc"
       style="opacity:1;fill:#ffffff;fill-opacity:1;fill-rule:nonzero;stroke:none;filter:url(#filter4076)"
       id="path4066"
       sodipodi:cx="218.33333"
       sodipodi:cy="100"
       sodipodi:rx="25"
       sodipodi:ry="23.333334"
       d="m 243.33333,100 a 25,23.333334 0 1 1 -50,0 25,23.333334 0 1 1 50,0 z" />
    <path
       d="m 243.33333,100 a 25,23.333334 0 1 1 -50,0 25,23.333334 0 1 1 50,0 z"
       sodipodi:ry="23.333334"
       sodipodi:rx="25"
       sodipodi:cy="100"
       sodipodi:cx="218.33333"
       id="path4080"
       style="fill:#ffffff;fill-opacity:1;fill-rule:nonzero;stroke:none;filter:url(#filter4076)"
       sodipodi:type="arc"
       transform="translate(1190,26.666667)" />
    <path
       transform="matrix(0.40746221,0,0,0.50639907,1277.704,181.02677)"
       sodipodi:type="arc"
       style="fill:#ffffff;fill-opacity:1;fill-rule:nonzero;stroke:none;filter:url(#filter4076)"
       id="path4082"
       sodipodi:cx="218.33333"
       sodipodi:cy="100"
       sodipodi:rx="25"
       sodipodi:ry="23.333334"
       d="m 243.33333,100 a 25,23.333334 0 1 1 -50,0 25,23.333334 0 1 1 50,0 z" />
    <path
       d="m 243.33333,100 a 25,23.333334 0 1 1 -50,0 25,23.333334 0 1 1 50,0 z"
       sodipodi:ry="23.333334"
       sodipodi:rx="25"
       sodipodi:cy="100"
       sodipodi:cx="218.33333"
       id="path4084"
       style="fill:#ffffff;fill-opacity:1;fill-rule:nonzero;stroke:none;filter:url(#filter4076)"
       sodipodi:type="arc"
       transform="matrix(0.40746221,0,0,0.50639907,34.370667,181.02677)" />
    <path
       transform="matrix(0.40746221,0,0,0.50639907,154.37067,227.69344)"
       sodipodi:type="arc"
       style="fill:#ffffff;fill-opacity:1;fill-rule:nonzero;stroke:none;filter:url(#filter4076)"
       id="path4086"
       sodipodi:cx="218.33333"
       sodipodi:cy="100"
       sodipodi:rx="25"
       sodipodi:ry="23.333334"
       d="m 243.33333,100 a 25,23.333334 0 1 1 -50,0 25,23.333334 0 1 1 50,0 z"
       inkscape:transform-center-x="153.33333"
       inkscape:transform-center-y="-66.666667" />
    <path
       inkscape:transform-center-y="-66.666667"
       inkscape:transform-center-x="153.33333"
       d="m 243.33333,100 a 25,23.333334 0 1 1 -50,0 25,23.333334 0 1 1 50,0 z"
       sodipodi:ry="23.333334"
       sodipodi:rx="25"
       sodipodi:cy="100"
       sodipodi:cx="218.33333"
       id="path4088"
       style="fill:#ffffff;fill-opacity:1;fill-rule:nonzero;stroke:none;filter:url(#filter4076)"
       sodipodi:type="arc"
       transform="matrix(0.40746221,0,0,0.50639907,417.704,97.69344)" />
    <path
       transform="matrix(0.40746221,0,0,0.50639907,587.704,224.36011)"
       sodipodi:type="arc"
       style="fill:#ffffff;fill-opacity:1;fill-rule:nonzero;stroke:none;filter:url(#filter4076)"
       id="path4090"
       sodipodi:cx="218.33333"
       sodipodi:cy="100"
       sodipodi:rx="25"
       sodipodi:ry="23.333334"
       d="m 243.33333,100 a 25,23.333334 0 1 1 -50,0 25,23.333334 0 1 1 50,0 z"
       inkscape:transform-center-x="153.33333"
       inkscape:transform-center-y="-66.666667" />
    <path
       inkscape:transform-center-y="-89.601424"
       inkscape:transform-center-x="259.51412"
       d="m 243.33333,100 a 25,23.333334 0 1 1 -50,0 25,23.333334 0 1 1 50,0 z"
       sodipodi:ry="23.333334"
       sodipodi:rx="25"
       sodipodi:cy="100"
       sodipodi:cx="218.33333"
       id="path4092"
       style="fill:#ffffff;fill-opacity:1;fill-rule:nonzero;stroke:none;filter:url(#filter4076)"
       sodipodi:type="arc"
       transform="matrix(0.68962306,0,0,0.68061116,719.43222,3.6055637)" />
    <path
       transform="matrix(0.29459787,0,0,0.33218697,1235.6794,641.78132)"
       sodipodi:type="arc"
       style="fill:#ffffff;fill-opacity:1;fill-rule:nonzero;stroke:none;filter:url(#filter4076)"
       id="path4094"
       sodipodi:cx="218.33333"
       sodipodi:cy="100"
       sodipodi:rx="25"
       sodipodi:ry="23.333334"
       d="m 243.33333,100 a 25,23.333334 0 1 1 -50,0 25,23.333334 0 1 1 50,0 z"
       inkscape:transform-center-x="110.86104"
       inkscape:transform-center-y="-43.731909" />
    <path
       inkscape:transform-center-y="-66.666667"
       inkscape:transform-center-x="153.33333"
       d="m 243.33333,100 a 25,23.333334 0 1 1 -50,0 25,23.333334 0 1 1 50,0 z"
       sodipodi:ry="23.333334"
       sodipodi:rx="25"
       sodipodi:cy="100"
       sodipodi:cx="218.33333"
       id="path4096"
       style="fill:#ffffff;fill-opacity:1;fill-rule:nonzero;stroke:none;filter:url(#filter4076)"
       sodipodi:type="arc"
       transform="matrix(0.40746221,0,0,0.50639907,754.37067,514.36011)" />
    <path
       d="m 243.33333,100 a 25,23.333334 0 1 1 -50,0 25,23.333334 0 1 1 50,0 z"
       sodipodi:ry="23.333334"
       sodipodi:rx="25"
       sodipodi:cy="100"
       sodipodi:cx="218.33333"
       id="path4202"
       style="fill:#ffffff;fill-opacity:1;fill-rule:nonzero;stroke:none;filter:url(#filter4076)"
       sodipodi:type="arc"
       transform="matrix(0.70868294,0,0,0.75901898,1210,181.87712)" />
    <path
       transform="matrix(0.28876152,0,0,0.3843665,1234.3579,319.27988)"
       sodipodi:type="arc"
       style="fill:#ffffff;fill-opacity:1;fill-rule:nonzero;stroke:none;filter:url(#filter4076)"
       id="path4204"
       sodipodi:cx="218.33333"
       sodipodi:cy="100"
       sodipodi:rx="25"
       sodipodi:ry="23.333334"
       d="m 243.33333,100 a 25,23.333334 0 1 1 -50,0 25,23.333334 0 1 1 50,0 z" />
    <path
       inkscape:transform-center-y="-50.601274"
       inkscape:transform-center-x="108.6647"
       d="m 243.33333,100 a 25,23.333334 0 1 1 -50,0 25,23.333334 0 1 1 50,0 z"
       sodipodi:ry="23.333334"
       sodipodi:rx="25"
       sodipodi:cy="100"
       sodipodi:cx="218.33333"
       id="path4206"
       style="fill:#ffffff;fill-opacity:1;fill-rule:nonzero;stroke:none;filter:url(#filter4076)"
       sodipodi:type="arc"
       transform="matrix(0.28876152,0,0,0.3843665,1319.3999,354.70076)" />
  </g>
  <g
     inkscape:groupmode="layer"
     id="layer6"
     inkscape:label="capa_5"
     style="display:inline">
    <g
       id="g4123">
      <path
         transform="matrix(0.84264463,0,0,1.033652,-153.8633,7.2793757)"
         d="m 466.66666,598.33331 a 66.666664,61.666668 0 1 1 -133.33332,0 66.666664,61.666668 0 1 1 133.33332,0 z"
         sodipodi:ry="61.666668"
         sodipodi:rx="66.666664"
         sodipodi:cy="598.33331"
         sodipodi:cx="400"
         id="path4101"
         style="opacity:0.69801983;fill:#55ddff;fill-opacity:1;fill-rule:nonzero;stroke:#aaeeff;stroke-width:17.62526894;stroke-miterlimit:4;stroke-opacity:1;stroke-dasharray:none"
         sodipodi:type="arc" />
      <path
         sodipodi:type="arc"
         style="fill:#ffffff;fill-opacity:1;fill-rule:nonzero;stroke:#aaeeff;stroke-width:15.04495335;stroke-miterlimit:4;stroke-opacity:1;stroke-dasharray:none"
         id="path4115"
         sodipodi:cx="400"
         sodipodi:cy="598.33331"
         sodipodi:rx="66.666664"
         sodipodi:ry="61.666668"
         d="m 466.66666,598.33331 a 66.666664,61.666668 0 1 1 -133.33332,0 66.666664,61.666668 0 1 1 133.33332,0 z"
         transform="matrix(0.43218801,0,0,0.46333614,-11.746583,332.69993)" />
      <path
         transform="matrix(0.1880077,0,0,0.24847756,138.7656,490.74094)"
         d="m 466.66666,598.33331 a 66.666664,61.666668 0 1 1 -133.33332,0 66.666664,61.666668 0 1 1 133.33332,0 z"
         sodipodi:ry="61.666668"
         sodipodi:rx="66.666664"
         sodipodi:cy="598.33331"
         sodipodi:cx="400"
         id="path4117"
         style="fill:#aaeeff;fill-opacity:1;fill-rule:nonzero;stroke:none"
         sodipodi:type="arc" />
    </g>
    <g
       id="g4128"
       transform="matrix(0.53311686,0,0,0.55906494,162.19712,160.91414)">
      <path
         sodipodi:type="arc"
         style="opacity:0.69801983;fill:#55ddff;fill-opacity:1;fill-rule:nonzero;stroke:#aaeeff;stroke-width:17.62526894;stroke-miterlimit:4;stroke-opacity:1;stroke-dasharray:none"
         id="path4130"
         sodipodi:cx="400"
         sodipodi:cy="598.33331"
         sodipodi:rx="66.666664"
         sodipodi:ry="61.666668"
         d="m 466.66666,598.33331 a 66.666664,61.666668 0 1 1 -133.33332,0 66.666664,61.666668 0 1 1 133.33332,0 z"
         transform="matrix(0.84264463,0,0,1.033652,-153.8633,7.2793757)" />
      <path
         transform="matrix(0.43218801,0,0,0.46333614,-11.746583,332.69993)"
         d="m 466.66666,598.33331 a 66.666664,61.666668 0 1 1 -133.33332,0 66.666664,61.666668 0 1 1 133.33332,0 z"
         sodipodi:ry="61.666668"
         sodipodi:rx="66.666664"
         sodipodi:cy="598.33331"
         sodipodi:cx="400"
         id="path4132"
         style="fill:#ffffff;fill-opacity:1;fill-rule:nonzero;stroke:#aaeeff;stroke-width:15.04495335;stroke-miterlimit:4;stroke-opacity:1;stroke-dasharray:none"
         sodipodi:type="arc" />
      <path
         sodipodi:type="arc"
         style="fill:#aaeeff;fill-opacity:1;fill-rule:nonzero;stroke:none"
         id="path4134"
         sodipodi:cx="400"
         sodipodi:cy="598.33331"
         sodipodi:rx="66.666664"
         sodipodi:ry="61.666668"
         d="m 466.66666,598.33331 a 66.666664,61.666668 0 1 1 -133.33332,0 66.666664,61.666668 0 1 1 133.33332,0 z"
         transform="matrix(0.1880077,0,0,0.24847756,138.7656,490.74094)" />
    </g>
    <g
       transform="matrix(0.53311686,0,0,0.55906494,52.19712,430.91414)"
       id="g4136">
      <path
         transform="matrix(0.84264463,0,0,1.033652,-153.8633,7.2793757)"
         d="m 466.66666,598.33331 a 66.666664,61.666668 0 1 1 -133.33332,0 66.666664,61.666668 0 1 1 133.33332,0 z"
         sodipodi:ry="61.666668"
         sodipodi:rx="66.666664"
         sodipodi:cy="598.33331"
         sodipodi:cx="400"
         id="path4138"
         style="opacity:0.69801983;fill:#55ddff;fill-opacity:1;fill-rule:nonzero;stroke:#aaeeff;stroke-width:17.62526894;stroke-miterlimit:4;stroke-opacity:1;stroke-dasharray:none"
         sodipodi:type="arc" />
      <path
         sodipodi:type="arc"
         style="fill:#ffffff;fill-opacity:1;fill-rule:nonzero;stroke:#aaeeff;stroke-width:15.04495335;stroke-miterlimit:4;stroke-opacity:1;stroke-dasharray:none"
         id="path4140"
         sodipodi:cx="400"
         sodipodi:cy="598.33331"
         sodipodi:rx="66.666664"
         sodipodi:ry="61.666668"
         d="m 466.66666,598.33331 a 66.666664,61.666668 0 1 1 -133.33332,0 66.666664,61.666668 0 1 1 133.33332,0 z"
         transform="matrix(0.43218801,0,0,0.46333614,-11.746583,332.69993)" />
      <path
         transform="matrix(0.1880077,0,0,0.24847756,138.7656,490.74094)"
         d="m 466.66666,598.33331 a 66.666664,61.666668 0 1 1 -133.33332,0 66.666664,61.666668 0 1 1 133.33332,0 z"
         sodipodi:ry="61.666668"
         sodipodi:rx="66.666664"
         sodipodi:cy="598.33331"
         sodipodi:cx="400"
         id="path4142"
         style="fill:#aaeeff;fill-opacity:1;fill-rule:nonzero;stroke:none"
         sodipodi:type="arc" />
    </g>
    <g
       id="g4144"
       transform="translate(90,263.33333)">
      <path
         sodipodi:type="arc"
         style="opacity:0.69801983;fill:#55ddff;fill-opacity:1;fill-rule:nonzero;stroke:#aaeeff;stroke-width:17.62526894;stroke-miterlimit:4;stroke-opacity:1;stroke-dasharray:none"
         id="path4146"
         sodipodi:cx="400"
         sodipodi:cy="598.33331"
         sodipodi:rx="66.666664"
         sodipodi:ry="61.666668"
         d="m 466.66666,598.33331 a 66.666664,61.666668 0 1 1 -133.33332,0 66.666664,61.666668 0 1 1 133.33332,0 z"
         transform="matrix(0.84264463,0,0,1.033652,-153.8633,7.2793757)" />
      <path
         transform="matrix(0.43218801,0,0,0.46333614,-11.746583,332.69993)"
         d="m 466.66666,598.33331 a 66.666664,61.666668 0 1 1 -133.33332,0 66.666664,61.666668 0 1 1 133.33332,0 z"
         sodipodi:ry="61.666668"
         sodipodi:rx="66.666664"
         sodipodi:cy="598.33331"
         sodipodi:cx="400"
         id="path4148"
         style="fill:#ffffff;fill-opacity:1;fill-rule:nonzero;stroke:#aaeeff;stroke-width:15.04495335;stroke-miterlimit:4;stroke-opacity:1;stroke-dasharray:none"
         sodipodi:type="arc" />
      <path
         sodipodi:type="arc"
         style="fill:#aaeeff;fill-opacity:1;fill-rule:nonzero;stroke:none"
         id="path4150"
         sodipodi:cx="400"
         sodipodi:cy="598.33331"
         sodipodi:rx="66.666664"
         sodipodi:ry="61.666668"
         d="m 466.66666,598.33331 a 66.666664,61.666668 0 1 1 -133.33332,0 66.666664,61.666668 0 1 1 133.33332,0 z"
         transform="matrix(0.1880077,0,0,0.24847756,138.7656,490.74094)" />
    </g>
    <g
       transform="translate(-36.666667,416.66666)"
       id="g4152">
      <path
         transform="matrix(0.84264463,0,0,1.033652,-153.8633,7.2793757)"
         d="m 466.66666,598.33331 a 66.666664,61.666668 0 1 1 -133.33332,0 66.666664,61.666668 0 1 1 133.33332,0 z"
         sodipodi:ry="61.666668"
         sodipodi:rx="66.666664"
         sodipodi:cy="598.33331"
         sodipodi:cx="400"
         id="path4154"
         style="opacity:0.69801983;fill:#55ddff;fill-opacity:1;fill-rule:nonzero;stroke:#aaeeff;stroke-width:17.62526894;stroke-miterlimit:4;stroke-opacity:1;stroke-dasharray:none"
         sodipodi:type="arc" />
      <path
         sodipodi:type="arc"
         style="fill:#ffffff;fill-opacity:1;fill-rule:nonzero;stroke:#aaeeff;stroke-width:15.04495335;stroke-miterlimit:4;stroke-opacity:1;stroke-dasharray:none"
         id="path4156"
         sodipodi:cx="400"
         sodipodi:cy="598.33331"
         sodipodi:rx="66.666664"
         sodipodi:ry="61.666668"
         d="m 466.66666,598.33331 a 66.666664,61.666668 0 1 1 -133.33332,0 66.666664,61.666668 0 1 1 133.33332,0 z"
         transform="matrix(0.43218801,0,0,0.46333614,-11.746583,332.69993)" />
      <path
         transform="matrix(0.1880077,0,0,0.24847756,138.7656,490.74094)"
         d="m 466.66666,598.33331 a 66.666664,61.666668 0 1 1 -133.33332,0 66.666664,61.666668 0 1 1 133.33332,0 z"
         sodipodi:ry="61.666668"
         sodipodi:rx="66.666664"
         sodipodi:cy="598.33331"
         sodipodi:cx="400"
         id="path4158"
         style="fill:#aaeeff;fill-opacity:1;fill-rule:nonzero;stroke:none"
         sodipodi:type="arc" />
    </g>
    <g
       id="g4160"
       transform="matrix(0.5341681,0,0,0.55998034,185.33787,690.34133)">
      <path
         sodipodi:type="arc"
         style="opacity:0.69801983;fill:#55ddff;fill-opacity:1;fill-rule:nonzero;stroke:#aaeeff;stroke-width:17.62526894;stroke-miterlimit:4;stroke-opacity:1;stroke-dasharray:none"
         id="path4162"
         sodipodi:cx="400"
         sodipodi:cy="598.33331"
         sodipodi:rx="66.666664"
         sodipodi:ry="61.666668"
         d="m 466.66666,598.33331 a 66.666664,61.666668 0 1 1 -133.33332,0 66.666664,61.666668 0 1 1 133.33332,0 z"
         transform="matrix(0.84264463,0,0,1.033652,-153.8633,7.2793757)" />
      <path
         transform="matrix(0.43218801,0,0,0.46333614,-11.746583,332.69993)"
         d="m 466.66666,598.33331 a 66.666664,61.666668 0 1 1 -133.33332,0 66.666664,61.666668 0 1 1 133.33332,0 z"
         sodipodi:ry="61.666668"
         sodipodi:rx="66.666664"
         sodipodi:cy="598.33331"
         sodipodi:cx="400"
         id="path4164"
         style="fill:#ffffff;fill-opacity:1;fill-rule:nonzero;stroke:#aaeeff;stroke-width:15.04495335;stroke-miterlimit:4;stroke-opacity:1;stroke-dasharray:none"
         sodipodi:type="arc" />
      <path
         sodipodi:type="arc"
         style="fill:#aaeeff;fill-opacity:1;fill-rule:nonzero;stroke:none"
         id="path4166"
         sodipodi:cx="400"
         sodipodi:cy="598.33331"
         sodipodi:rx="66.666664"
         sodipodi:ry="61.666668"
         d="m 466.66666,598.33331 a 66.666664,61.666668 0 1 1 -133.33332,0 66.666664,61.666668 0 1 1 133.33332,0 z"
         transform="matrix(0.1880077,0,0,0.24847756,138.7656,490.74094)" />
    </g>
    <g
       id="g4168"
       transform="translate(130,-246.66667)">
      <path
         sodipodi:type="arc"
         style="opacity:0.69801983;fill:#55ddff;fill-opacity:1;fill-rule:nonzero;stroke:#aaeeff;stroke-width:17.62526894;stroke-miterlimit:4;stroke-opacity:1;stroke-dasharray:none"
         id="path4170"
         sodipodi:cx="400"
         sodipodi:cy="598.33331"
         sodipodi:rx="66.666664"
         sodipodi:ry="61.666668"
         d="m 466.66666,598.33331 a 66.666664,61.666668 0 1 1 -133.33332,0 66.666664,61.666668 0 1 1 133.33332,0 z"
         transform="matrix(0.84264463,0,0,1.033652,-153.8633,7.2793757)" />
      <path
         transform="matrix(0.43218801,0,0,0.46333614,-11.746583,332.69993)"
         d="m 466.66666,598.33331 a 66.666664,61.666668 0 1 1 -133.33332,0 66.666664,61.666668 0 1 1 133.33332,0 z"
         sodipodi:ry="61.666668"
         sodipodi:rx="66.666664"
         sodipodi:cy="598.33331"
         sodipodi:cx="400"
         id="path4172"
         style="fill:#ffffff;fill-opacity:1;fill-rule:nonzero;stroke:#aaeeff;stroke-width:15.04495335;stroke-miterlimit:4;stroke-opacity:1;stroke-dasharray:none"
         sodipodi:type="arc" />
      <path
         sodipodi:type="arc"
         style="fill:#aaeeff;fill-opacity:1;fill-rule:nonzero;stroke:none"
         id="path4174"
         sodipodi:cx="400"
         sodipodi:cy="598.33331"
         sodipodi:rx="66.666664"
         sodipodi:ry="61.666668"
         d="m 466.66666,598.33331 a 66.666664,61.666668 0 1 1 -133.33332,0 66.666664,61.666668 0 1 1 133.33332,0 z"
         transform="matrix(0.1880077,0,0,0.24847756,138.7656,490.74094)" />
    </g>
    <g
       transform="translate(90,-430)"
       id="g4176">
      <path
         transform="matrix(0.84264463,0,0,1.033652,-153.8633,7.2793757)"
         d="m 466.66666,598.33331 a 66.666664,61.666668 0 1 1 -133.33332,0 66.666664,61.666668 0 1 1 133.33332,0 z"
         sodipodi:ry="61.666668"
         sodipodi:rx="66.666664"
         sodipodi:cy="598.33331"
         sodipodi:cx="400"
         id="path4178"
         style="opacity:0.69801983;fill:#55ddff;fill-opacity:1;fill-rule:nonzero;stroke:#aaeeff;stroke-width:17.62526894;stroke-miterlimit:4;stroke-opacity:1;stroke-dasharray:none"
         sodipodi:type="arc" />
      <path
         sodipodi:type="arc"
         style="fill:#ffffff;fill-opacity:1;fill-rule:nonzero;stroke:#aaeeff;stroke-width:15.04495335;stroke-miterlimit:4;stroke-opacity:1;stroke-dasharray:none"
         id="path4180"
         sodipodi:cx="400"
         sodipodi:cy="598.33331"
         sodipodi:rx="66.666664"
         sodipodi:ry="61.666668"
         d="m 466.66666,598.33331 a 66.666664,61.666668 0 1 1 -133.33332,0 66.666664,61.666668 0 1 1 133.33332,0 z"
         transform="matrix(0.43218801,0,0,0.46333614,-11.746583,332.69993)" />
      <path
         transform="matrix(0.1880077,0,0,0.24847756,138.7656,490.74094)"
         d="m 466.66666,598.33331 a 66.666664,61.666668 0 1 1 -133.33332,0 66.666664,61.666668 0 1 1 133.33332,0 z"
         sodipodi:ry="61.666668"
         sodipodi:rx="66.666664"
         sodipodi:cy="598.33331"
         sodipodi:cx="400"
         id="path4182"
         style="fill:#aaeeff;fill-opacity:1;fill-rule:nonzero;stroke:none"
         sodipodi:type="arc" />
    </g>
    <g
       transform="matrix(0.53311686,0,0,0.55906494,88.86379,-249.08586)"
       id="g4184">
      <path
         transform="matrix(0.84264463,0,0,1.033652,-153.8633,7.2793757)"
         d="m 466.66666,598.33331 a 66.666664,61.666668 0 1 1 -133.33332,0 66.666664,61.666668 0 1 1 133.33332,0 z"
         sodipodi:ry="61.666668"
         sodipodi:rx="66.666664"
         sodipodi:cy="598.33331"
         sodipodi:cx="400"
         id="path4186"
         style="opacity:0.69801983;fill:#55ddff;fill-opacity:1;fill-rule:nonzero;stroke:#aaeeff;stroke-width:17.62526894;stroke-miterlimit:4;stroke-opacity:1;stroke-dasharray:none"
         sodipodi:type="arc" />
      <path
         sodipodi:type="arc"
         style="fill:#ffffff;fill-opacity:1;fill-rule:nonzero;stroke:#aaeeff;stroke-width:15.04495335;stroke-miterlimit:4;stroke-opacity:1;stroke-dasharray:none"
         id="path4188"
         sodipodi:cx="400"
         sodipodi:cy="598.33331"
         sodipodi:rx="66.666664"
         sodipodi:ry="61.666668"
         d="m 466.66666,598.33331 a 66.666664,61.666668 0 1 1 -133.33332,0 66.666664,61.666668 0 1 1 133.33332,0 z"
         transform="matrix(0.43218801,0,0,0.46333614,-11.746583,332.69993)" />
      <path
         transform="matrix(0.1880077,0,0,0.24847756,138.7656,490.74094)"
         d="m 466.66666,598.33331 a 66.666664,61.666668 0 1 1 -133.33332,0 66.666664,61.666668 0 1 1 133.33332,0 z"
         sodipodi:ry="61.666668"
         sodipodi:rx="66.666664"
         sodipodi:cy="598.33331"
         sodipodi:cx="400"
         id="path4190"
         style="fill:#aaeeff;fill-opacity:1;fill-rule:nonzero;stroke:none"
         sodipodi:type="arc" />
    </g>
    <g
       id="g4192"
       transform="matrix(0.53311686,0,0,0.55906494,152.19712,-315.75253)">
      <path
         sodipodi:type="arc"
         style="opacity:0.69801983;fill:#55ddff;fill-opacity:1;fill-rule:nonzero;stroke:#aaeeff;stroke-width:17.62526894;stroke-miterlimit:4;stroke-opacity:1;stroke-dasharray:none"
         id="path4194"
         sodipodi:cx="400"
         sodipodi:cy="598.33331"
         sodipodi:rx="66.666664"
         sodipodi:ry="61.666668"
         d="m 466.66666,598.33331 a 66.666664,61.666668 0 1 1 -133.33332,0 66.666664,61.666668 0 1 1 133.33332,0 z"
         transform="matrix(0.84264463,0,0,1.033652,-153.8633,7.2793757)" />
      <path
         transform="matrix(0.43218801,0,0,0.46333614,-11.746583,332.69993)"
         d="m 466.66666,598.33331 a 66.666664,61.666668 0 1 1 -133.33332,0 66.666664,61.666668 0 1 1 133.33332,0 z"
         sodipodi:ry="61.666668"
         sodipodi:rx="66.666664"
         sodipodi:cy="598.33331"
         sodipodi:cx="400"
         id="path4196"
         style="fill:#ffffff;fill-opacity:1;fill-rule:nonzero;stroke:#aaeeff;stroke-width:15.04495335;stroke-miterlimit:4;stroke-opacity:1;stroke-dasharray:none"
         sodipodi:type="arc" />
      <path
         sodipodi:type="arc"
         style="fill:#aaeeff;fill-opacity:1;fill-rule:nonzero;stroke:none"
         id="path4198"
         sodipodi:cx="400"
         sodipodi:cy="598.33331"
         sodipodi:rx="66.666664"
         sodipodi:ry="61.666668"
         d="m 466.66666,598.33331 a 66.666664,61.666668 0 1 1 -133.33332,0 66.666664,61.666668 0 1 1 133.33332,0 z"
         transform="matrix(0.1880077,0,0,0.24847756,138.7656,490.74094)" />
    </g>
    <g
       transform="matrix(0.37781082,0,0,0.4243409,1324.9463,350.68069)"
       id="g4216">
      <path
         transform="matrix(0.84264463,0,0,1.033652,-153.8633,7.2793757)"
         d="m 466.66666,598.33331 a 66.666664,61.666668 0 1 1 -133.33332,0 66.666664,61.666668 0 1 1 133.33332,0 z"
         sodipodi:ry="61.666668"
         sodipodi:rx="66.666664"
         sodipodi:cy="598.33331"
         sodipodi:cx="400"
         id="path4218"
         style="opacity:0.69801983;fill:#55ddff;fill-opacity:1;fill-rule:nonzero;stroke:#aaeeff;stroke-width:17.62526894;stroke-miterlimit:4;stroke-opacity:1;stroke-dasharray:none"
         sodipodi:type="arc" />
      <path
         sodipodi:type="arc"
         style="fill:#ffffff;fill-opacity:1;fill-rule:nonzero;stroke:#aaeeff;stroke-width:15.04495335;stroke-miterlimit:4;stroke-opacity:1;stroke-dasharray:none"
         id="path4220"
         sodipodi:cx="400"
         sodipodi:cy="598.33331"
         sodipodi:rx="66.666664"
         sodipodi:ry="61.666668"
         d="m 466.66666,598.33331 a 66.666664,61.666668 0 1 1 -133.33332,0 66.666664,61.666668 0 1 1 133.33332,0 z"
         transform="matrix(0.43218801,0,0,0.46333614,-11.746583,332.69993)" />
      <path
         transform="matrix(0.1880077,0,0,0.24847756,138.7656,490.74094)"
         d="m 466.66666,598.33331 a 66.666664,61.666668 0 1 1 -133.33332,0 66.666664,61.666668 0 1 1 133.33332,0 z"
         sodipodi:ry="61.666668"
         sodipodi:rx="66.666664"
         sodipodi:cy="598.33331"
         sodipodi:cx="400"
         id="path4222"
         style="fill:#aaeeff;fill-opacity:1;fill-rule:nonzero;stroke:none"
         sodipodi:type="arc" />
    </g>
    <g
       id="g4224"
       transform="matrix(0.37781082,0,0,0.4243409,1246.9912,508.94913)">
      <path
         sodipodi:type="arc"
         style="opacity:0.69801983;fill:#55ddff;fill-opacity:1;fill-rule:nonzero;stroke:#aaeeff;stroke-width:17.62526894;stroke-miterlimit:4;stroke-opacity:1;stroke-dasharray:none"
         id="path4226"
         sodipodi:cx="400"
         sodipodi:cy="598.33331"
         sodipodi:rx="66.666664"
         sodipodi:ry="61.666668"
         d="m 466.66666,598.33331 a 66.666664,61.666668 0 1 1 -133.33332,0 66.666664,61.666668 0 1 1 133.33332,0 z"
         transform="matrix(0.84264463,0,0,1.033652,-153.8633,7.2793757)" />
      <path
         transform="matrix(0.43218801,0,0,0.46333614,-11.746583,332.69993)"
         d="m 466.66666,598.33331 a 66.666664,61.666668 0 1 1 -133.33332,0 66.666664,61.666668 0 1 1 133.33332,0 z"
         sodipodi:ry="61.666668"
         sodipodi:rx="66.666664"
         sodipodi:cy="598.33331"
         sodipodi:cx="400"
         id="path4228"
         style="fill:#ffffff;fill-opacity:1;fill-rule:nonzero;stroke:#aaeeff;stroke-width:15.04495335;stroke-miterlimit:4;stroke-opacity:1;stroke-dasharray:none"
         sodipodi:type="arc" />
      <path
         sodipodi:type="arc"
         style="fill:#aaeeff;fill-opacity:1;fill-rule:nonzero;stroke:none"
         id="path4230"
         sodipodi:cx="400"
         sodipodi:cy="598.33331"
         sodipodi:rx="66.666664"
         sodipodi:ry="61.666668"
         d="m 466.66666,598.33331 a 66.666664,61.666668 0 1 1 -133.33332,0 66.666664,61.666668 0 1 1 133.33332,0 z"
         transform="matrix(0.1880077,0,0,0.24847756,138.7656,490.74094)" />
    </g>
    <g
       transform="matrix(0.70868294,0,0,0.75901898,1273.7815,381.75212)"
       id="g4232">
      <path
         transform="matrix(0.84264463,0,0,1.033652,-153.8633,7.2793757)"
         d="m 466.66666,598.33331 a 66.666664,61.666668 0 1 1 -133.33332,0 66.666664,61.666668 0 1 1 133.33332,0 z"
         sodipodi:ry="61.666668"
         sodipodi:rx="66.666664"
         sodipodi:cy="598.33331"
         sodipodi:cx="400"
         id="path4234"
         style="opacity:0.69801983;fill:#55ddff;fill-opacity:1;fill-rule:nonzero;stroke:#aaeeff;stroke-width:17.62526894;stroke-miterlimit:4;stroke-opacity:1;stroke-dasharray:none"
         sodipodi:type="arc" />
      <path
         sodipodi:type="arc"
         style="fill:#ffffff;fill-opacity:1;fill-rule:nonzero;stroke:#aaeeff;stroke-width:15.04495335;stroke-miterlimit:4;stroke-opacity:1;stroke-dasharray:none"
         id="path4236"
         sodipodi:cx="400"
         sodipodi:cy="598.33331"
         sodipodi:rx="66.666664"
         sodipodi:ry="61.666668"
         d="m 466.66666,598.33331 a 66.666664,61.666668 0 1 1 -133.33332,0 66.666664,61.666668 0 1 1 133.33332,0 z"
         transform="matrix(0.43218801,0,0,0.46333614,-11.746583,332.69993)" />
      <path
         transform="matrix(0.1880077,0,0,0.24847756,138.7656,490.74094)"
         d="m 466.66666,598.33331 a 66.666664,61.666668 0 1 1 -133.33332,0 66.666664,61.666668 0 1 1 133.33332,0 z"
         sodipodi:ry="61.666668"
         sodipodi:rx="66.666664"
         sodipodi:cy="598.33331"
         sodipodi:cx="400"
         id="path4238"
         style="fill:#aaeeff;fill-opacity:1;fill-rule:nonzero;stroke:none"
         sodipodi:type="arc" />
    </g>
    <g
       id="g4240"
       transform="matrix(0.70868294,0,0,0.75901898,1184.015,498.13503)">
      <path
         sodipodi:type="arc"
         style="opacity:0.69801983;fill:#55ddff;fill-opacity:1;fill-rule:nonzero;stroke:#aaeeff;stroke-width:17.62526894;stroke-miterlimit:4;stroke-opacity:1;stroke-dasharray:none"
         id="path4242"
         sodipodi:cx="400"
         sodipodi:cy="598.33331"
         sodipodi:rx="66.666664"
         sodipodi:ry="61.666668"
         d="m 466.66666,598.33331 a 66.666664,61.666668 0 1 1 -133.33332,0 66.666664,61.666668 0 1 1 133.33332,0 z"
         transform="matrix(0.84264463,0,0,1.033652,-153.8633,7.2793757)" />
      <path
         transform="matrix(0.43218801,0,0,0.46333614,-11.746583,332.69993)"
         d="m 466.66666,598.33331 a 66.666664,61.666668 0 1 1 -133.33332,0 66.666664,61.666668 0 1 1 133.33332,0 z"
         sodipodi:ry="61.666668"
         sodipodi:rx="66.666664"
         sodipodi:cy="598.33331"
         sodipodi:cx="400"
         id="path4244"
         style="fill:#ffffff;fill-opacity:1;fill-rule:nonzero;stroke:#aaeeff;stroke-width:15.04495335;stroke-miterlimit:4;stroke-opacity:1;stroke-dasharray:none"
         sodipodi:type="arc" />
      <path
         sodipodi:type="arc"
         style="fill:#aaeeff;fill-opacity:1;fill-rule:nonzero;stroke:none"
         id="path4246"
         sodipodi:cx="400"
         sodipodi:cy="598.33331"
         sodipodi:rx="66.666664"
         sodipodi:ry="61.666668"
         d="m 466.66666,598.33331 a 66.666664,61.666668 0 1 1 -133.33332,0 66.666664,61.666668 0 1 1 133.33332,0 z"
         transform="matrix(0.1880077,0,0,0.24847756,138.7656,490.74094)" />
    </g>
    <g
       transform="matrix(0.37855582,0,0,0.4250357,1368.0125,802.52597)"
       id="g4248">
      <path
         transform="matrix(0.84264463,0,0,1.033652,-153.8633,7.2793757)"
         d="m 466.66666,598.33331 a 66.666664,61.666668 0 1 1 -133.33332,0 66.666664,61.666668 0 1 1 133.33332,0 z"
         sodipodi:ry="61.666668"
         sodipodi:rx="66.666664"
         sodipodi:cy="598.33331"
         sodipodi:cx="400"
         id="path4250"
         style="opacity:0.69801983;fill:#55ddff;fill-opacity:1;fill-rule:nonzero;stroke:#aaeeff;stroke-width:17.62526894;stroke-miterlimit:4;stroke-opacity:1;stroke-dasharray:none"
         sodipodi:type="arc" />
      <path
         sodipodi:type="arc"
         style="fill:#ffffff;fill-opacity:1;fill-rule:nonzero;stroke:#aaeeff;stroke-width:15.04495335;stroke-miterlimit:4;stroke-opacity:1;stroke-dasharray:none"
         id="path4252"
         sodipodi:cx="400"
         sodipodi:cy="598.33331"
         sodipodi:rx="66.666664"
         sodipodi:ry="61.666668"
         d="m 466.66666,598.33331 a 66.666664,61.666668 0 1 1 -133.33332,0 66.666664,61.666668 0 1 1 133.33332,0 z"
         transform="matrix(0.43218801,0,0,0.46333614,-11.746583,332.69993)" />
      <path
         transform="matrix(0.1880077,0,0,0.24847756,138.7656,490.74094)"
         d="m 466.66666,598.33331 a 66.666664,61.666668 0 1 1 -133.33332,0 66.666664,61.666668 0 1 1 133.33332,0 z"
         sodipodi:ry="61.666668"
         sodipodi:rx="66.666664"
         sodipodi:cy="598.33331"
         sodipodi:cx="400"
         id="path4254"
         style="fill:#aaeeff;fill-opacity:1;fill-rule:nonzero;stroke:none"
         sodipodi:type="arc" />
    </g>
    <g
       transform="matrix(0.70868294,0,0,0.75901898,1302.1288,-5.3475603)"
       id="g4256">
      <path
         transform="matrix(0.84264463,0,0,1.033652,-153.8633,7.2793757)"
         d="m 466.66666,598.33331 a 66.666664,61.666668 0 1 1 -133.33332,0 66.666664,61.666668 0 1 1 133.33332,0 z"
         sodipodi:ry="61.666668"
         sodipodi:rx="66.666664"
         sodipodi:cy="598.33331"
         sodipodi:cx="400"
         id="path4258"
         style="opacity:0.69801983;fill:#55ddff;fill-opacity:1;fill-rule:nonzero;stroke:#aaeeff;stroke-width:17.62526894;stroke-miterlimit:4;stroke-opacity:1;stroke-dasharray:none"
         sodipodi:type="arc" />
      <path
         sodipodi:type="arc"
         style="fill:#ffffff;fill-opacity:1;fill-rule:nonzero;stroke:#aaeeff;stroke-width:15.04495335;stroke-miterlimit:4;stroke-opacity:1;stroke-dasharray:none"
         id="path4260"
         sodipodi:cx="400"
         sodipodi:cy="598.33331"
         sodipodi:rx="66.666664"
         sodipodi:ry="61.666668"
         d="m 466.66666,598.33331 a 66.666664,61.666668 0 1 1 -133.33332,0 66.666664,61.666668 0 1 1 133.33332,0 z"
         transform="matrix(0.43218801,0,0,0.46333614,-11.746583,332.69993)" />
      <path
         transform="matrix(0.1880077,0,0,0.24847756,138.7656,490.74094)"
         d="m 466.66666,598.33331 a 66.666664,61.666668 0 1 1 -133.33332,0 66.666664,61.666668 0 1 1 133.33332,0 z"
         sodipodi:ry="61.666668"
         sodipodi:rx="66.666664"
         sodipodi:cy="598.33331"
         sodipodi:cx="400"
         id="path4262"
         style="fill:#aaeeff;fill-opacity:1;fill-rule:nonzero;stroke:none"
         sodipodi:type="arc" />
    </g>
    <g
       id="g4264"
       transform="matrix(0.70868294,0,0,0.75901898,1273.7815,-144.50104)">
      <path
         sodipodi:type="arc"
         style="opacity:0.69801983;fill:#55ddff;fill-opacity:1;fill-rule:nonzero;stroke:#aaeeff;stroke-width:17.62526894;stroke-miterlimit:4;stroke-opacity:1;stroke-dasharray:none"
         id="path4266"
         sodipodi:cx="400"
         sodipodi:cy="598.33331"
         sodipodi:rx="66.666664"
         sodipodi:ry="61.666668"
         d="m 466.66666,598.33331 a 66.666664,61.666668 0 1 1 -133.33332,0 66.666664,61.666668 0 1 1 133.33332,0 z"
         transform="matrix(0.84264463,0,0,1.033652,-153.8633,7.2793757)" />
      <path
         transform="matrix(0.43218801,0,0,0.46333614,-11.746583,332.69993)"
         d="m 466.66666,598.33331 a 66.666664,61.666668 0 1 1 -133.33332,0 66.666664,61.666668 0 1 1 133.33332,0 z"
         sodipodi:ry="61.666668"
         sodipodi:rx="66.666664"
         sodipodi:cy="598.33331"
         sodipodi:cx="400"
         id="path4268"
         style="fill:#ffffff;fill-opacity:1;fill-rule:nonzero;stroke:#aaeeff;stroke-width:15.04495335;stroke-miterlimit:4;stroke-opacity:1;stroke-dasharray:none"
         sodipodi:type="arc" />
      <path
         sodipodi:type="arc"
         style="fill:#aaeeff;fill-opacity:1;fill-rule:nonzero;stroke:none"
         id="path4270"
         sodipodi:cx="400"
         sodipodi:cy="598.33331"
         sodipodi:rx="66.666664"
         sodipodi:ry="61.666668"
         d="m 466.66666,598.33331 a 66.666664,61.666668 0 1 1 -133.33332,0 66.666664,61.666668 0 1 1 133.33332,0 z"
         transform="matrix(0.1880077,0,0,0.24847756,138.7656,490.74094)" />
    </g>
    <g
       id="g4272"
       transform="matrix(0.37781082,0,0,0.4243409,1272.9763,-7.1837703)">
      <path
         sodipodi:type="arc"
         style="opacity:0.69801983;fill:#55ddff;fill-opacity:1;fill-rule:nonzero;stroke:#aaeeff;stroke-width:17.62526894;stroke-miterlimit:4;stroke-opacity:1;stroke-dasharray:none"
         id="path4274"
         sodipodi:cx="400"
         sodipodi:cy="598.33331"
         sodipodi:rx="66.666664"
         sodipodi:ry="61.666668"
         d="m 466.66666,598.33331 a 66.666664,61.666668 0 1 1 -133.33332,0 66.666664,61.666668 0 1 1 133.33332,0 z"
         transform="matrix(0.84264463,0,0,1.033652,-153.8633,7.2793757)" />
      <path
         transform="matrix(0.43218801,0,0,0.46333614,-11.746583,332.69993)"
         d="m 466.66666,598.33331 a 66.666664,61.666668 0 1 1 -133.33332,0 66.666664,61.666668 0 1 1 133.33332,0 z"
         sodipodi:ry="61.666668"
         sodipodi:rx="66.666664"
         sodipodi:cy="598.33331"
         sodipodi:cx="400"
         id="path4276"
         style="fill:#ffffff;fill-opacity:1;fill-rule:nonzero;stroke:#aaeeff;stroke-width:15.04495335;stroke-miterlimit:4;stroke-opacity:1;stroke-dasharray:none"
         sodipodi:type="arc" />
      <path
         sodipodi:type="arc"
         style="fill:#aaeeff;fill-opacity:1;fill-rule:nonzero;stroke:none"
         id="path4278"
         sodipodi:cx="400"
         sodipodi:cy="598.33331"
         sodipodi:rx="66.666664"
         sodipodi:ry="61.666668"
         d="m 466.66666,598.33331 a 66.666664,61.666668 0 1 1 -133.33332,0 66.666664,61.666668 0 1 1 133.33332,0 z"
         transform="matrix(0.1880077,0,0,0.24847756,138.7656,490.74094)" />
    </g>
  </g>
  <g
     inkscape:groupmode="layer"
     id="layer7"
     inkscape:label="capa_6" />
</svg>
