<?xml version="1.0" encoding="UTF-8" standalone="no"?>
<!-- Created with Inkscape (http://www.inkscape.org/) -->
<svg
    xmlns:inkscape="http://www.inkscape.org/namespaces/inkscape"
    xmlns:rdf="http://www.w3.org/1999/02/22-rdf-syntax-ns#"
    xmlns="http://www.w3.org/2000/svg"
    xmlns:cc="http://creativecommons.org/ns#"
    xmlns:dc="http://purl.org/dc/elements/1.1/"
    xmlns:sodipodi="http://sodipodi.sourceforge.net/DTD/sodipodi-0.dtd"
    xmlns:svg="http://www.w3.org/2000/svg"
    xmlns:ns1="http://sozi.baierouge.fr"
    xmlns:xlink="http://www.w3.org/1999/xlink"
    id="svg2"
    sodipodi:docname="barras.svg"
    inkscape:export-filename="/home/fran/Imágenes/VECTORES/CUBISMO/barras.white.png"
    viewBox="0 0 1920 1080"
    inkscape:export-xdpi="90"
    version="1.1"
    inkscape:export-ydpi="90"
    inkscape:version="0.48.3.1 r9886"
  >
  <sodipodi:namedview
      id="base"
      bordercolor="#666666"
      inkscape:pageshadow="2"
      inkscape:guide-bbox="true"
      pagecolor="#ffffff"
      inkscape:showpageshadow="false"
      inkscape:window-maximized="1"
      inkscape:zoom="3.959798"
      inkscape:window-x="0"
      inkscape:window-height="1004"
      showgrid="false"
      borderopacity="1.0"
      inkscape:current-layer="layer1"
      inkscape:cx="1062.2776"
      inkscape:cy="79.455981"
      showguides="true"
      inkscape:window-y="24"
      inkscape:snap-global="true"
      inkscape:window-width="1920"
      inkscape:pageopacity="0.0"
      inkscape:document-units="px"
    >
    <sodipodi:guide
        id="guide2985"
        position="1937.1429,1080"
        orientation="0,1"
    />
    <sodipodi:guide
        id="guide2987"
        position="6.9447988,0"
        orientation="0,1"
    />
    <sodipodi:guide
        id="guide2989"
        position="1920,1103.5714"
        orientation="1,0"
    />
    <sodipodi:guide
        id="guide2991"
        position="0,6.5659916"
        orientation="1,0"
    />
  </sodipodi:namedview
  >
  <g
      id="layer1"
      inkscape:label="Capa 1"
      inkscape:groupmode="layer"
      transform="translate(0 27.638)"
    >
    <rect
        id="rect3761"
        style="opacity:.51527;fill-rule:evenodd;fill:#000000"
        height="1079.8"
        width="1920"
        y="-27.638"
        x="1.0097e-28"
    />
    <rect
        id="rect5924"
        style="fill-rule:evenodd;stroke:#000000;stroke-width:1px;fill:#000000"
        transform="translate(0 -27.638)"
        height="1080"
        width="1920"
        y="0"
        x="0"
    />
    <rect
        id="rect3831"
        style="opacity:.51527;fill-rule:evenodd;fill:#554400"
        height="1079.7"
        width="11.238"
        y="-27.371"
        x="1651.9"
    />
    <rect
        id="rect3783"
        style="opacity:.51527;fill-rule:evenodd;fill:#d4aa00"
        height="1079.7"
        width="11.238"
        y="-27.371"
        x="1543"
    />
    <rect
        id="rect3789"
        style="opacity:.51527;fill-rule:evenodd;fill:#806600"
        height="1079.6"
        width="8.1564"
        y="-27.371"
        x="1580.9"
    />
    <path
        id="path3901"
        sodipodi:rx="182.85715"
        sodipodi:ry="182.85715"
        style="opacity:.51527;fill-rule:evenodd;fill:#000000"
        sodipodi:type="arc"
        d="m1387.1 2389.9c0 100.99-81.868 182.86-182.86 182.86s-182.86-81.868-182.86-182.86 81.868-182.86 182.86-182.86 182.86 81.868 182.86 182.86z"
        transform="matrix(.44233 0 0 .40982 1050.2 -119.46)"
        sodipodi:cy="2389.9211"
        sodipodi:cx="1204.2858"
    />
    <path
        id="rect3809"
        sodipodi:nodetypes="ccsssccccsccc"
        style="opacity:.51527;fill-rule:evenodd;fill:#554400"
        inkscape:connector-curvature="0"
        d="m1596.1-27.372v824.6c-3.4116-0.54034-6.9072-0.82531-10.476-0.82531-35.772 0-64.77 28.227-64.77 63.05 0 34.822 28.997 63.05 64.77 63.05 3.5683 0 7.0639-0.28497 10.476-0.82528l-0.5051 130.68h30.672l0.5051-144.21c14.428-11.564 23.622-29.09 23.622-48.703 0-19.614-9.1942-37.128-23.622-48.692v-838.13z"
    />
    <rect
        id="rect3787"
        style="opacity:.51527;fill-rule:evenodd;fill:#aa8800"
        height="1079.7"
        width="17.5"
        y="-27.371"
        x="1557.2"
    />
    <path
        id="rect3819"
        style="opacity:.51527;fill-rule:evenodd;fill:#2b2200"
        inkscape:connector-curvature="0"
        d="m1633.5-27.507v861.31c-7.4287-8.1847-18.174-13.339-30.133-13.339-22.418 0-40.595 18.08-40.595 40.378s18.177 40.378 40.595 40.378c11.959 0 22.704-5.1425 30.133-13.327v164.47h13.57v-1079.9h-13.57z"
    />
    <rect
        id="rect3763"
        style="opacity:.51527;fill-rule:evenodd;fill:#d4aa00"
        height="1079.8"
        width="11.238"
        y="-27.46"
        x="1131.2"
    />
    <rect
        id="rect3767"
        style="opacity:.51527;fill-rule:evenodd;fill:#aa8800"
        height="1079.7"
        width="24.571"
        y="-27.371"
        x="1145.4"
    />
    <rect
        id="rect3775"
        style="opacity:.51527;fill-rule:evenodd;fill:#ffcc00"
        height="1079.6"
        width="11.238"
        y="-27.326"
        x="1729.2"
    />
    <rect
        id="rect3781"
        style="opacity:.51527;fill-rule:evenodd;fill:#ffdd55"
        height="1079.6"
        width="8.1564"
        y="-27.371"
        x="1767.1"
    />
    <rect
        id="rect3785"
        style="opacity:.51527;fill-rule:evenodd;fill:#ffcc00"
        height="1079.9"
        width="11.238"
        y="-27.55"
        x="1525.6"
    />
    <rect
        id="rect3791"
        style="opacity:.51527;fill-rule:evenodd;stroke:#000000;stroke-width:.18973px;fill:#ffe680"
        height="1079.9"
        width="11.238"
        y="-27.55"
        x="1378.9"
    />
    <rect
        id="rect3793"
        style="opacity:.51527;fill-rule:evenodd;stroke:#000000;stroke-width:.18969px;fill:#ffdd55"
        height="1079.5"
        width="11.238"
        y="-27.371"
        x="1361.5"
    />
    <rect
        id="rect3795"
        style="opacity:.51527;fill-rule:evenodd;fill:#ffeeaa"
        height="1079.8"
        width="17.5"
        y="-27.46"
        x="1393.1"
    />
    <rect
        id="rect3797"
        style="opacity:.51527;fill-rule:evenodd;stroke:#000000;stroke-width:.16164px;fill:#fff6d5"
        height="1080"
        width="8.1564"
        y="-27.595"
        x="1416.8"
    />
    <rect
        id="rect3799"
        style="opacity:.51527;fill-rule:evenodd;fill:#ffe680"
        height="1080"
        width="11.238"
        y="-27.638"
        x="1451.5"
    />
    <rect
        id="rect3801"
        style="opacity:.51527;fill-rule:evenodd;fill:#ffeeaa"
        height="1079.9"
        width="11.238"
        y="-27.55"
        x="1434.1"
    />
    <rect
        id="rect3803"
        style="opacity:.51527;fill-rule:evenodd;fill:#ffdd55"
        height="1079.7"
        width="17.5"
        y="-27.371"
        x="1465.7"
    />
    <rect
        id="rect3805"
        style="opacity:.51527;fill-rule:evenodd;fill:#ffd42a"
        height="1079.7"
        width="25.588"
        y="-27.371"
        x="1489.4"
    />
    <rect
        id="rect3813"
        style="opacity:.51527;fill-rule:evenodd;fill:#ffe680"
        height="1079.9"
        width="8.1564"
        y="-27.505"
        x="1855.4"
    />
    <rect
        id="rect3817"
        style="opacity:.51527;fill-rule:evenodd;fill:#ffcc00"
        height="1079.9"
        width="14.551"
        y="-27.371"
        x="1905.4"
    />
    <path
        id="rect3821"
        style="opacity:.51527;fill-rule:evenodd;fill:#806600"
        inkscape:connector-curvature="0"
        d="m1177.9-27.371v1079.7h30.631v-929.49c-13.884-8.3466-22.642-20.577-22.642-34.203s8.7582-25.845 22.642-34.191v-81.844h-30.631z"
    />
    <path
        id="rect3823"
        sodipodi:nodetypes="ccccc"
        style="opacity:.51527;fill-rule:evenodd;fill:#d4aa00"
        inkscape:connector-curvature="0"
        d="m1308.9-27.371h11.638v1079.7h-11.638c0.6838-361.86 0-713.65 0-1079.7z"
    />
    <rect
        id="rect3825"
        style="opacity:.51527;fill-rule:evenodd;fill:#aa8800"
        height="1079.7"
        width="11.638"
        y="-27.371"
        x="1690.7"
    />
    <path
        id="rect3827"
        style="opacity:.51527;fill-rule:evenodd;fill:#554400"
        inkscape:connector-curvature="0"
        d="m1217.4-27.371v76.07c1.7465-0.8876 3.5626-1.6776 5.43-2.3662v-73.704h-5.43zm0 156.01v923.72h5.43v-921.35c-1.8674-0.68862-3.6835-1.4786-5.43-2.3662z"
    />
    <path
        id="path5906"
        sodipodi:rx="57.07362"
        sodipodi:ry="57.07362"
        style="opacity:.51527;fill-rule:evenodd;stroke:#000000;stroke-width:1px;fill:#000000"
        sodipodi:type="arc"
        d="m1270 94.344c0 31.521-25.553 57.074-57.074 57.074s-57.074-25.553-57.074-57.074 25.553-57.074 57.074-57.074 57.074 25.553 57.074 57.074z"
        transform="matrix(.92982 0 0 .92982 110.89 1.2066)"
        sodipodi:cy="94.343651"
        sodipodi:cx="1212.9407"
    />
    <rect
        id="rect3833"
        style="opacity:.51527;fill-rule:evenodd;fill:#806600"
        height="1079.9"
        width="19.22"
        y="-27.55"
        x="1666.1"
    />
    <path
        id="rect3835"
        sodipodi:nodetypes="ccsccccc"
        style="opacity:.51527;fill-rule:evenodd;fill:#aa8800"
        inkscape:connector-curvature="0"
        d="m1284.2-27.553v94.582c3.7092 6.409 5.8205 13.73 5.8205 21.514 0 7.7841-2.1113 15.116-5.8205 21.525v942.29h19.231c1.2731-363.32 0-711.53 0-1079.9z"
    />
    <path
        id="rect3839"
        style="opacity:.51527;fill-rule:evenodd;fill:#554400"
        inkscape:connector-curvature="0"
        d="m1249.4-27.372v71.029c4.003 0.64422 7.838 1.7408 11.446 3.2266v-74.256h-11.446zm11.446 157.55c-3.6077 1.4857-7.4429 2.571-11.446 3.2152v918.97h11.446v-922.19z"
    />
    <path
        id="path3843"
        sodipodi:rx="125.71429"
        sodipodi:ry="125.71429"
        style="opacity:.51527;fill-rule:evenodd;fill:#ffffff"
        sodipodi:type="arc"
        d="m457.14 291.35c0 69.43-56.284 125.71-125.71 125.71-69.43 0-125.71-56.284-125.71-125.71 0-69.43 56.284-125.71 125.71-125.71 69.43 0 125.71 56.284 125.71 125.71z"
        transform="matrix(.36252 0 0 .33587 1120.8 -9.4895)"
        sodipodi:cy="291.3497"
        sodipodi:cx="331.42856"
    />
    <path
        id="path3893"
        sodipodi:rx="91.428574"
        sodipodi:ry="91.428574"
        style="opacity:.51527;fill-rule:evenodd;fill:#000000"
        sodipodi:type="arc"
        d="m405.71 255.64c0 50.495-40.934 91.429-91.429 91.429s-91.429-40.934-91.429-91.429 40.934-91.429 91.429-91.429 91.429 40.934 91.429 91.429z"
        transform="matrix(.51372 0 0 .47595 1079 -33.304)"
        sodipodi:cy="255.63542"
        sodipodi:cx="314.28571"
    />
    <path
        id="path3890"
        sodipodi:rx="91.428574"
        sodipodi:ry="91.428574"
        style="opacity:.51527;fill-rule:evenodd;fill:#2b2200"
        sodipodi:type="arc"
        d="m405.71 255.64c0 50.495-40.934 91.429-91.429 91.429s-91.429-40.934-91.429-91.429 40.934-91.429 91.429-91.429 91.429 40.934 91.429 91.429z"
        transform="matrix(.41776 0 0 .41264 1108.6 -17.12)"
        sodipodi:cy="255.63542"
        sodipodi:cx="314.28571"
    />
    <path
        id="path5908"
        sodipodi:rx="13.131983"
        sodipodi:ry="13.131983"
        style="opacity:.51527;fill-rule:evenodd;fill:#806600"
        sodipodi:type="arc"
        d="m1242.2 111.52c0 7.2526-5.8794 13.132-13.132 13.132-7.2525 0-13.132-5.8794-13.132-13.132s5.8794-13.132 13.132-13.132 13.132 5.8794 13.132 13.132z"
        transform="matrix(2.2885 0 0 2.2885 -1572 -167.53)"
        sodipodi:cy="111.51624"
        sodipodi:cx="1229.1031"
    />
    <path
        id="rect3829"
        style="opacity:.51527;fill-rule:evenodd;fill:#2b2200"
        inkscape:connector-curvature="0"
        d="m1229-27.372v71.72c3.6033-0.83549 7.3691-1.2965 11.238-1.3472v-70.372h-11.238zm0 160.08v919.65h11.238v-918.31c-3.8693-0.0507-7.6351-0.51168-11.238-1.3472z"
    />
    <rect
        id="rect3895"
        style="opacity:.51527;fill-rule:evenodd;fill:#2b2200"
        height="132.31"
        width="11.231"
        y="22.731"
        x="1229"
    />
    <path
        id="path3897"
        sodipodi:rx="91.428574"
        sodipodi:ry="91.428574"
        style="opacity:.51527;fill-rule:evenodd;fill:#554400"
        sodipodi:type="arc"
        d="m405.71 255.64c0 50.495-40.934 91.429-91.429 91.429s-91.429-40.934-91.429-91.429 40.934-91.429 91.429-91.429 91.429 40.934 91.429 91.429z"
        transform="matrix(.25547 0 0 .26228 1157.1 20.812)"
        sodipodi:cy="255.63542"
        sodipodi:cx="314.28571"
    />
    <rect
        id="rect3899"
        style="opacity:.51527;fill-rule:evenodd;fill:#554400"
        height="112.63"
        width="11.435"
        y="29.449"
        x="1249.4"
    />
    <path
        id="path3903"
        sodipodi:rx="35.714287"
        sodipodi:ry="35.714287"
        style="opacity:.51527;fill-rule:evenodd;stroke:#000000;stroke-width:1px;fill:#000000"
        sodipodi:type="arc"
        d="m1331.4 2434.2c0 19.724-15.99 35.714-35.714 35.714s-35.714-15.99-35.714-35.714 15.99-35.714 35.714-35.714 35.714 15.99 35.714 35.714z"
        transform="matrix(.57895 0 0 .60438 854.35 -611.73)"
        sodipodi:cy="2434.2068"
        sodipodi:cx="1295.7142"
    />
    <path
        id="path3905"
        style="opacity:.51527;fill-rule:evenodd;fill:#000000"
        inkscape:connector-curvature="0"
        d="m1920-27.372c-131.86 0-238.75 99.036-238.75 221.2s106.89 221.2 238.75 221.2v-442.4z"
    />
    <rect
        id="rect3811"
        style="opacity:.51527;fill-rule:evenodd;fill:#ffeeaa"
        height="1079.9"
        width="32.223"
        y="-27.505"
        x="1820.6"
    />
    <rect
        id="rect3769"
        style="opacity:.51527;fill-rule:evenodd;fill:#ffeeaa"
        height="1079.9"
        width="17.5"
        y="-27.371"
        x="1784.4"
    />
    <rect
        id="rect3777"
        style="opacity:.51527;fill-rule:evenodd;fill:#aa8800"
        height="1079.7"
        width="11.238"
        y="-27.371"
        x="1711.8"
    />
    <path
        id="path3911"
        style="opacity:.51527;fill-rule:evenodd;fill:#ffeeaa"
        inkscape:connector-curvature="0"
        d="m1920 9.1725c-120.96 0-219.03 82.675-219.03 184.66s98.064 184.66 219.03 184.66v-369.31z"
    />
    <rect
        id="rect3779"
        style="opacity:.51527;fill-rule:evenodd;fill:#ffd42a"
        height="1079.6"
        width="17.5"
        y="-27.237"
        x="1743.4"
    />
    <rect
        id="rect3913"
        style="opacity:.51527;fill-rule:evenodd;fill:#000000"
        height="1078"
        width="821.84"
        y="-27.414"
        x="275.9"
    />
    <rect
        id="rect3915"
        style="opacity:.51527;fill-rule:evenodd;fill:#554400"
        height="1080"
        width="11.238"
        y="-27.414"
        x="829.59"
    />
    <rect
        id="rect3923"
        style="opacity:.51527;fill-rule:evenodd;stroke:#000000;stroke-width:.21205px;fill:#d4aa00"
        height="1076.6"
        width="14.08"
        y="-24.268"
        x="738.37"
    />
    <rect
        id="rect3927"
        style="opacity:.51527;fill-rule:evenodd;stroke:#000000;stroke-width:.18972px;fill:#d4aa00"
        height="1079.9"
        width="11.238"
        y="-27.504"
        x="308.93"
    />
    <rect
        id="rect3929"
        style="opacity:.51527;fill-rule:evenodd;fill:#ffcc00"
        height="1079.6"
        width="20.634"
        y="-27.414"
        x="282.15"
    />
    <rect
        id="rect3933"
        style="opacity:.51527;fill-rule:evenodd;fill:#806600"
        height="1079.9"
        width="8.1564"
        y="-27.548"
        x="346.82"
    />
    <rect
        id="rect3935"
        style="opacity:.51527;fill-rule:evenodd;fill:#fff6d5"
        height="1079.8"
        width="8.1564"
        y="-27.414"
        x="982.66"
    />
    <rect
        id="rect3937"
        style="opacity:.51527;fill-rule:evenodd;fill:#ffcc00"
        height="1079.7"
        width="11.238"
        y="-27.37"
        x="906.9"
    />
    <rect
        id="rect3941"
        style="opacity:.51527;fill-rule:evenodd;fill:#ffdd55"
        height="1080"
        width="8.7124"
        y="-27.594"
        x="705.9"
    />
    <rect
        id="rect3943"
        style="opacity:.51527;fill-rule:evenodd;stroke:#000000;stroke-width:.11230px;fill:#806600"
        height="1076.5"
        width="3.9493"
        y="-27.414"
        x="762.82"
    />
    <rect
        id="rect3945"
        style="opacity:.51527;fill-rule:evenodd;fill:#ffe680"
        height="1080"
        width="11.238"
        y="-27.594"
        x="556.64"
    />
    <rect
        id="rect3947"
        style="opacity:.51527;fill-rule:evenodd;stroke:#000000;stroke-width:.18972px;fill:#ffdd55"
        height="1079.8"
        width="11.238"
        y="-27.414"
        x="539.28"
    />
    <rect
        id="rect3949"
        style="opacity:.51527;fill-rule:evenodd;fill:#ffeeaa"
        height="1079.9"
        width="17.5"
        y="-27.504"
        x="570.86"
    />
    <rect
        id="rect3951"
        style="opacity:.51527;fill-rule:evenodd;fill:#fff6d5"
        height="1080"
        width="12.275"
        y="-27.638"
        x="594.53"
    />
    <rect
        id="rect3953"
        style="opacity:.51527;fill-rule:evenodd;fill:#ffe680"
        height="1080"
        width="11.238"
        y="-27.638"
        x="629.22"
    />
    <rect
        id="rect3955"
        style="opacity:.51527;fill-rule:evenodd;fill:#ffeeaa"
        height="1080"
        width="11.238"
        y="-27.638"
        x="611.86"
    />
    <rect
        id="rect3957"
        style="opacity:.51527;fill-rule:evenodd;fill:#ffdd55"
        height="1080"
        width="17.5"
        y="-27.638"
        x="643.44"
    />
    <rect
        id="rect3963"
        style="opacity:.51527;fill-rule:evenodd;stroke:#000000;stroke-width:.16164px;fill:#ffe680"
        height="1079.9"
        width="8.1564"
        y="-27.548"
        x="1033.1"
    />
    <rect
        id="rect3965"
        style="opacity:.51527;fill-rule:evenodd;fill:#ffcc00"
        height="1079.8"
        width="14.551"
        y="-27.414"
        x="1083.2"
    />
    <path
        id="path3969"
        d="m486.66-27.414h11.638v1079.8h-11.638c3.5738-366.28 0.3063-757.75 0-1079.8z"
        sodipodi:nodetypes="ccccc"
        style="opacity:.51527;fill-rule:evenodd;fill:#d4aa00"
        inkscape:connector-curvature="0"
    />
    <rect
        id="rect3971"
        style="opacity:.51527;fill-rule:evenodd;fill:#aa8800"
        height="1079.8"
        width="11.638"
        y="-27.414"
        x="868.47"
    />
    <rect
        id="rect3975"
        style="opacity:.51527;fill-rule:evenodd;fill:#806600"
        height="1080"
        width="19.22"
        y="-27.594"
        x="843.79"
    />
    <path
        id="path3977"
        d="m461.97-27.596c0.0972 355.26 0 718.84 0 1080h19.231c3.687-366.32 0.31335-757.32 0-1080z"
        sodipodi:nodetypes="ccccc"
        style="opacity:.51527;fill-rule:evenodd;fill:#aa8800"
        inkscape:connector-curvature="0"
    />
    <path
        id="path3991"
        d="m406.76-27.415v71.619c3.6033-0.83432 7.3691-1.2947 11.238-1.3453v-70.274h-11.238zm0 159.86v918.37h11.238v-917.02c-3.8693-0.0506-7.6351-0.51097-11.238-1.3453z"
        style="opacity:.51527;fill-rule:evenodd;fill:#2b2200"
        inkscape:connector-curvature="0"
    />
    <rect
        id="rect3993"
        style="opacity:.51527;fill-rule:evenodd;fill:#2b2200"
        height="132.31"
        width="11.231"
        y="22.687"
        x="406.75"
    />
    <rect
        id="rect4003"
        style="opacity:.51527;fill-rule:evenodd;fill:#ffeeaa"
        height="1079.9"
        width="32.223"
        y="-27.548"
        x="998.29"
    />
    <rect
        id="rect4005"
        style="opacity:.51527;fill-rule:evenodd;fill:#ffeeaa"
        height="1079.8"
        width="17.5"
        y="-27.414"
        x="962.15"
    />
    <rect
        id="rect4007"
        style="opacity:.51527;fill-rule:evenodd;fill:#aa8800"
        height="1079.7"
        width="11.238"
        y="-27.414"
        x="889.55"
    />
    <rect
        id="rect4011"
        style="opacity:.51527;fill-rule:evenodd;fill:#ffd42a"
        height="1079.6"
        width="17.5"
        y="-27.28"
        x="921.13"
    />
    <rect
        id="rect3983"
        style="opacity:.51527;fill-rule:evenodd;fill:#ffd42a"
        height="1079.9"
        width="11.421"
        y="-27.56"
        x="1065.8"
    />
    <rect
        id="rect3765"
        style="opacity:.51527;fill-rule:evenodd;fill:#ffcc00"
        height="1079.7"
        width="20.634"
        y="-27.371"
        x="1104.4"
    />
    <path
        id="path3942"
        sodipodi:rx="103.03556"
        sodipodi:ry="103.03556"
        style="opacity:.51527;fill-rule:evenodd;fill:#000000"
        sodipodi:type="arc"
        d="m1137.4 964.84c0 56.905-46.131 103.04-103.04 103.04-56.905 0-103.04-46.131-103.04-103.04 0-56.905 46.131-103.04 103.04-103.04 56.905 0 103.04 46.131 103.04 103.04z"
        transform="matrix(1.0686 0 0 1.0686 -70.988 -93.853)"
        sodipodi:cy="964.84259"
        sodipodi:cx="1034.3962"
    />
    <rect
        id="rect4013"
        style="opacity:.51527;fill-rule:evenodd;stroke:#000000;stroke-width:.21589px;fill:#ffdd55"
        height="1079.9"
        width="14.551"
        y="-27.548"
        x="1045.8"
    />
    <rect
        id="rect4092"
        style="opacity:.51527;fill-rule:evenodd;stroke:#000000;stroke-width:.18972px;fill:#2b2200"
        height="1079.8"
        width="11.238"
        y="-27.459"
        x="809.3"
    />
    <rect
        id="rect4094"
        style="opacity:.51527;fill-rule:evenodd;fill:#806600"
        height="1080"
        width="11.238"
        y="-27.638"
        x="791.94"
    />
    <rect
        id="rect4096"
        style="opacity:.51527;fill-rule:evenodd;fill:#fff6d5"
        height="1079.9"
        width="14.47"
        y="-27.548"
        x="662.47"
    />
    <rect
        id="rect4098"
        style="opacity:.51527;fill-rule:evenodd;fill:#ffeeaa"
        height="1080"
        width="8.1564"
        y="-27.682"
        x="683.1"
    />
    <rect
        id="rect4102"
        style="opacity:.51527;fill-rule:evenodd;fill:#ffe680"
        height="1080"
        width="7.7023"
        y="-27.638"
        x="695.38"
    />
    <rect
        id="rect4104"
        style="opacity:.51527;fill-rule:evenodd;fill:#ffd42a"
        height="1079.8"
        width="11.439"
        y="-27.459"
        x="719.89"
    />
    <rect
        id="rect4106"
        style="opacity:.51527;fill-rule:evenodd;fill:#806600"
        height="1079.8"
        width="22.052"
        y="-27.459"
        x="759.21"
    />
    <rect
        id="rect4108"
        style="opacity:.51527;fill-rule:evenodd;fill:#ffd42a"
        height="1079.8"
        width="17.39"
        y="-27.459"
        x="257.87"
    />
    <rect
        id="rect4110"
        style="opacity:.51527;fill-rule:evenodd;fill:#ffdd55"
        height="1080"
        width="11.238"
        y="-27.638"
        x="240.51"
    />
    <rect
        id="rect4112"
        style="opacity:.51527;fill-rule:evenodd;fill:#ffdd55"
        height="1079.9"
        width="25.7"
        y="-27.548"
        x="99.807"
    />
    <rect
        id="rect4114"
        style="opacity:.51527;fill-rule:evenodd;fill:#ffe680"
        height="1080"
        width="8.1564"
        y="-27.682"
        x="131.67"
    />
    <rect
        id="rect4118"
        style="opacity:.51527;fill-rule:evenodd;fill:#ffeeaa"
        height="1080"
        width="11.238"
        y="-27.638"
        x="149"
    />
    <rect
        id="rect4122"
        style="opacity:.51527;fill-rule:evenodd;fill:#ffe680"
        height="1079.8"
        width="25.588"
        y="-27.459"
        x="204.25"
    />
    <rect
        id="rect4124"
        style="opacity:.51527;fill-rule:evenodd;fill:#ffd42a"
        height="1080"
        width="20.634"
        y="-27.638"
        x="71.262"
    />
    <rect
        id="rect4126"
        style="opacity:.51527;fill-rule:evenodd;fill:#806600"
        height="1080"
        width="8.1564"
        y="-27.638"
        x="0"
    />
    <rect
        id="rect4128"
        style="opacity:.51527;fill-rule:evenodd;fill:#ffcc00"
        height="1080.1"
        width="10.619"
        y="-27.638"
        x="53.969"
    />
    <rect
        id="rect4130"
        style="opacity:.51527;fill-rule:evenodd;fill:#d4aa00"
        height="1080"
        width="11.421"
        y="-27.638"
        x="32.668"
    />
    <rect
        id="rect4132"
        style="opacity:.51527;fill-rule:evenodd;fill:#aa8800"
        height="1080"
        width="14.551"
        y="-27.638"
        x="12.622"
    />
    <path
        id="path4259"
        sodipodi:nodetypes="ccccc"
        style="opacity:.51527;fill-rule:evenodd;fill:#554400"
        inkscape:connector-curvature="0"
        d="m357.42-27.638c0.0972 355.27 0 718.87 0 1080h19.231c3.687-366.34 0.31335-757.35 0-1080z"
    />
    <rect
        id="rect4283"
        style="opacity:.51527;fill-rule:evenodd;fill:#806600"
        height="1080"
        width="21.317"
        y="-27.638"
        x="431.94"
    />
    <path
        id="path3944"
        sodipodi:rx="54.548237"
        sodipodi:ry="54.548237"
        style="opacity:.51527;fill-rule:evenodd;fill:#000000"
        sodipodi:type="arc"
        d="m1890.5 1017.9c0 30.126-24.422 54.548-54.548 54.548s-54.548-24.422-54.548-54.548 24.422-54.548 54.548-54.548 54.548 24.422 54.548 54.548z"
        transform="matrix(1.0917 0 0 1.0917 -158.49 -137.61)"
        sodipodi:cy="1017.8756"
        sodipodi:cx="1835.9523"
    />
    <rect
        id="rect3773"
        style="opacity:.51527;fill-rule:evenodd;fill:#fff6d5"
        height="1079.9"
        width="8.1564"
        y="-27.371"
        x="1804.9"
    />
    <rect
        id="rect4255"
        style="opacity:.51527;fill-rule:evenodd;fill:#554400"
        height="1079.8"
        width="25.588"
        y="-27.456"
        x="401.63"
    />
    <path
        id="path5895"
        style="opacity:.51527;fill-rule:evenodd;fill:#000000"
        d="m176.78 0c0 129.99 105.39 235.38 235.38 235.38s235.34-105.39 235.34-235.38h-470.72z"
        transform="translate(0 -27.638)"
    />
    <path
        id="path5902"
        style="opacity:.51527;fill-rule:evenodd;fill:#554400"
        inkscape:connector-curvature="0"
        d="m1920 40.601c-109.92 0-199.03 75.639-199.03 168.94 0 93.302 89.11 168.94 199.03 168.94v-337.88z"
    />
    <path
        id="path3112"
        sodipodi:rx="54.548237"
        sodipodi:ry="54.548237"
        style="opacity:.51527;fill-rule:evenodd;fill:#ffeeaa"
        sodipodi:type="arc"
        d="m1890.5 1017.9c0 30.126-24.422 54.548-54.548 54.548s-54.548-24.422-54.548-54.548 24.422-54.548 54.548-54.548 54.548 24.422 54.548 54.548z"
        transform="translate(9.8015 -44.305)"
        sodipodi:cy="1017.8756"
        sodipodi:cx="1835.9523"
    />
    <path
        id="path3888"
        sodipodi:rx="54.548237"
        sodipodi:ry="54.548237"
        style="opacity:.51527;fill-rule:evenodd;fill:#fff6d5"
        sodipodi:type="arc"
        d="m1890.5 1017.9c0 30.126-24.422 54.548-54.548 54.548s-54.548-24.422-54.548-54.548 24.422-54.548 54.548-54.548 54.548 24.422 54.548 54.548z"
        transform="matrix(.92130 0 0 .92130 154.3 35.805)"
        sodipodi:cy="1017.8756"
        sodipodi:cx="1835.9523"
    />
    <rect
        id="rect3890"
        style="opacity:.51527;fill-rule:evenodd;fill:#fff6d5"
        height="306.09"
        width="8.1564"
        y="746.41"
        x="1804.9"
    />
    <path
        id="path3884"
        sodipodi:rx="54.548237"
        sodipodi:ry="54.548237"
        style="opacity:.51527;fill-rule:evenodd;fill:#ffd42a"
        sodipodi:type="arc"
        d="m1890.5 1017.9c0 30.126-24.422 54.548-54.548 54.548s-54.548-24.422-54.548-54.548 24.422-54.548 54.548-54.548 54.548 24.422 54.548 54.548z"
        transform="matrix(.84259 0 0 .84259 298.79 115.92)"
        sodipodi:cy="1017.8756"
        sodipodi:cx="1835.9523"
    />
    <rect
        id="rect3815"
        style="opacity:.51527;fill-rule:evenodd;fill:#ffdd55"
        height="1079.9"
        width="14.551"
        y="-27.505"
        x="1868"
    />
    <path
        id="path5904"
        style="opacity:.51527;fill-rule:evenodd;fill:#554400"
        inkscape:connector-curvature="0"
        d="m1920 80.601c-99.268 0-179.74 66.685-179.74 148.94 0 82.257 80.475 148.94 179.74 148.94v-297.88z"
    />
    <rect
        id="rect3841"
        style="opacity:.51527;fill-rule:evenodd;fill:#ffd42a"
        height="1079.9"
        width="11.421"
        y="-27.517"
        x="1888.1"
    />
    <path
        id="rect3837"
        style="opacity:.51527;fill-rule:evenodd;fill:#806600"
        inkscape:connector-curvature="0"
        d="m1266.8-27.372v77.142c4.3075 2.4733 8.1726 5.5533 11.458 9.1022v-86.245h-11.458zm11.458 145.56c-3.2854 3.5489-7.1505 6.6289-11.458 9.1022v925.08h11.458v-934.18z"
    />
    <path
        id="path5914"
        sodipodi:rx="58.588848"
        sodipodi:ry="58.588848"
        style="opacity:.51527;fill-rule:evenodd;fill:#000000"
        sodipodi:type="arc"
        d="m210.11 594.12c0 32.358-26.231 58.589-58.589 58.589s-58.589-26.231-58.589-58.589 26.231-58.589 58.589-58.589 58.589 26.231 58.589 58.589z"
        transform="translate(12.627 -27.133)"
        sodipodi:cy="594.11664"
        sodipodi:cx="151.52289"
    />
    <path
        id="path5916"
        sodipodi:rx="58.588848"
        sodipodi:ry="58.588848"
        style="opacity:.51527;fill-rule:evenodd;fill:#fff6d5"
        sodipodi:type="arc"
        d="m210.11 594.12c0 32.358-26.231 58.589-58.589 58.589s-58.589-26.231-58.589-58.589 26.231-58.589 58.589-58.589 58.589 26.231 58.589 58.589z"
        transform="matrix(.82759 0 0 .82759 38.752 75.301)"
        sodipodi:cy="594.11664"
        sodipodi:cx="151.52289"
    />
    <rect
        id="rect4116"
        style="opacity:.51527;fill-rule:evenodd;fill:#fff6d5"
        height="1079.8"
        width="11.238"
        y="-27.459"
        x="166.36"
    />
    <path
        id="path5920"
        sodipodi:rx="58.588848"
        sodipodi:ry="58.588848"
        style="opacity:.51527;fill-rule:evenodd;fill:#ffeeaa"
        sodipodi:type="arc"
        d="m210.11 594.12c0 32.358-26.231 58.589-58.589 58.589s-58.589-26.231-58.589-58.589 26.231-58.589 58.589-58.589 58.589 26.231 58.589 58.589z"
        transform="matrix(.60345 0 0 .60345 72.714 208.47)"
        sodipodi:cy="594.11664"
        sodipodi:cx="151.52289"
    />
    <path
        id="path5922"
        sodipodi:rx="58.588848"
        sodipodi:ry="58.588848"
        style="opacity:.51527;fill-rule:evenodd;fill:#fff6d5"
        sodipodi:type="arc"
        d="m210.11 594.12c0 32.358-26.231 58.589-58.589 58.589s-58.589-26.231-58.589-58.589 26.231-58.589 58.589-58.589 58.589 26.231 58.589 58.589z"
        transform="matrix(.41379 0 0 .41379 101.45 321.14)"
        sodipodi:cy="594.11664"
        sodipodi:cx="151.52289"
    />
    <rect
        id="rect5918"
        style="opacity:.51527;fill-rule:evenodd;fill:#fff6d5"
        height="1079.8"
        width="11.238"
        y="-27.459"
        x="166.36"
    />
    <path
        id="path5934"
        style="opacity:.51527;fill-rule:evenodd;fill:#000000"
        inkscape:connector-curvature="0"
        d="m0-27.638c0 100.01 81.08 181.09 181.09 181.09s181.07-81.08 181.07-181.09h-362.15z"
    />
    <path
        id="path5936"
        style="opacity:.51527;fill-rule:evenodd;fill:#fff6d5"
        inkscape:connector-curvature="0"
        d="m49.997-27.638c0 73.185 59.333 132.52 132.52 132.52 73.185 0 132.5-59.333 132.5-132.52h-265.02z"
    />
    <path
        id="rect5929"
        style="opacity:.51527;fill-rule:evenodd;fill:#fff6d5"
        d="m166.38 0.1875v1079.8h11.21v-1060.5c-0.52-6.374-0.8-12.805-0.81-19.312l-10.4-0.0005z"
        transform="translate(0 -27.638)"
    />
    <path
        id="path5938"
        style="opacity:.51527;fill-rule:evenodd;fill:#ffeeaa"
        inkscape:connector-curvature="0"
        d="m84.997-27.638c0 65.295 51.497 118.23 115.02 118.23 63.519 0 115-52.937 115-118.23h-230.02z"
    />
    <path
        id="rect4120"
        style="opacity:.51527;fill-rule:evenodd;fill:#ffeeaa"
        d="m180.59 42.312v1037.7h17.5v-982c-8.03-17.51-13.96-36.185-17.5-55.688z"
        transform="translate(0 -27.638)"
    />
    <path
        id="path4257"
        sodipodi:nodetypes="ccccc"
        style="opacity:.51527;fill-rule:evenodd;fill:#2b2200"
        inkscape:connector-curvature="0"
        d="m382.1-27.456h11.638v1079.8h-11.638c3.5738-366.3 0.3063-757.78 0-1079.8z"
    />
    <path
        id="path5900"
        style="opacity:.51527;fill-rule:evenodd;fill:#2b2200"
        inkscape:connector-curvature="0"
        d="m206.07-27.638c0 113.25 91.818 205.07 205.07 205.07s205.04-91.818 205.04-205.07h-410.11z"
    />
    <rect
        id="rect3931"
        style="opacity:.51527;fill-rule:evenodd;fill:#aa8800"
        height="1079.8"
        width="17.5"
        y="-27.414"
        x="323.16"
    />
    <path
        id="path5910"
        style="opacity:.51527;fill-rule:evenodd;fill:#aa8800"
        inkscape:connector-curvature="0"
        d="m232.34-27.638c0 97.911 79.831 177.29 178.3 177.29 98.468 0 178.28-79.38 178.28-177.29h-356.58z"
    />
    <path
        id="path5912"
        style="opacity:.51527;fill-rule:evenodd;fill:#ffd42a"
        inkscape:connector-curvature="0"
        d="m283.86-27.638c0 78.944 67.393 142.95 150.52 142.95 83.126 0 150.5-64.002 150.5-142.95h-301.02z"
    />
    <rect
        id="rect3961"
        style="opacity:.51527;fill-rule:evenodd;fill:#ffd42a"
        height="1079.8"
        width="25.588"
        y="-27.414"
        x="506.18"
    />
    <path
        id="path3882"
        sodipodi:rx="54.548237"
        sodipodi:ry="54.548237"
        style="opacity:.51527;fill-rule:evenodd;fill:#ffdd55"
        sodipodi:type="arc"
        d="m1890.5 1017.9c0 30.126-24.422 54.548-54.548 54.548s-54.548-24.422-54.548-54.548 24.422-54.548 54.548-54.548 54.548 24.422 54.548 54.548z"
        transform="matrix(.67593 0 0 .67593 604.79 285.56)"
        sodipodi:cy="1017.8756"
        sodipodi:cx="1835.9523"
    />
    <path
        id="path3886"
        sodipodi:rx="54.548237"
        sodipodi:ry="54.548237"
        style="opacity:.51527;fill-rule:evenodd;fill:#000000"
        sodipodi:type="arc"
        d="m1890.5 1017.9c0 30.126-24.422 54.548-54.548 54.548s-54.548-24.422-54.548-54.548 24.422-54.548 54.548-54.548 54.548 24.422 54.548 54.548z"
        transform="matrix(.42130 0 0 .42130 1072.3 544.74)"
        sodipodi:cy="1017.8756"
        sodipodi:cx="1835.9523"
    />
    <path
        id="path3946"
        sodipodi:rx="54.548237"
        sodipodi:ry="54.548237"
        style="opacity:.51527;fill-rule:evenodd;fill:#000000"
        sodipodi:type="arc"
        d="m1890.5 1017.9c0 30.126-24.422 54.548-54.548 54.548s-54.548-24.422-54.548-54.548 24.422-54.548 54.548-54.548 54.548 24.422 54.548 54.548z"
        transform="matrix(.80462 0 0 .80462 279.61 182.85)"
        sodipodi:cy="1017.8756"
        sodipodi:cx="1835.9523"
    />
    <path
        id="path3892"
        sodipodi:rx="54.548237"
        sodipodi:ry="54.548237"
        style="opacity:.51527;fill-rule:evenodd;fill:#ffeeaa"
        sodipodi:type="arc"
        d="m1890.5 1017.9c0 30.126-24.422 54.548-54.548 54.548s-54.548-24.422-54.548-54.548 24.422-54.548 54.548-54.548 54.548 24.422 54.548 54.548z"
        transform="matrix(.71296 0 0 .71296 447.89 276.15)"
        sodipodi:cy="1017.8756"
        sodipodi:cx="1835.9523"
    />
    <path
        id="path3894"
        sodipodi:rx="54.548237"
        sodipodi:ry="54.548237"
        style="opacity:.51527;fill-rule:evenodd;fill:#ffcc00"
        sodipodi:type="arc"
        d="m1890.5 1017.9c0 30.126-24.422 54.548-54.548 54.548s-54.548-24.422-54.548-54.548 24.422-54.548 54.548-54.548 54.548 24.422 54.548 54.548z"
        transform="matrix(.49074 0 0 .49074 855.63 502.59)"
        sodipodi:cy="1017.8756"
        sodipodi:cx="1835.9523"
    />
    <rect
        id="rect3896"
        style="opacity:.51527;fill-rule:evenodd;fill:#ffcc00"
        height="513.01"
        width="8.5185"
        y="539.34"
        x="1731.9"
    />
    <path
        id="path3898"
        sodipodi:rx="54.548237"
        sodipodi:ry="54.548237"
        style="opacity:.51527;fill-rule:evenodd;fill:#ffdd55"
        sodipodi:type="arc"
        d="m1890.5 1017.9c0 30.126-24.422 54.548-54.548 54.548s-54.548-24.422-54.548-54.548 24.422-54.548 54.548-54.548 54.548 24.422 54.548 54.548z"
        transform="matrix(.30999 0 0 .30999 1187 686.61)"
        sodipodi:cy="1017.8756"
        sodipodi:cx="1835.9523"
    />
    <rect
        id="rect3900"
        style="opacity:.51527;fill-rule:evenodd;fill:#ffdd55"
        height="651.06"
        width="8.1922"
        y="401.18"
        x="1767"
    />
    <path
        id="path3902"
        sodipodi:rx="54.548237"
        sodipodi:ry="54.548237"
        style="opacity:.51527;fill-rule:evenodd;fill:#554400"
        sodipodi:type="arc"
        d="m1890.5 1017.9c0 30.126-24.422 54.548-54.548 54.548s-54.548-24.422-54.548-54.548 24.422-54.548 54.548-54.548 54.548 24.422 54.548 54.548z"
        transform="matrix(.17905 0 0 .17905 1427.4 819.89)"
        sodipodi:cy="1017.8756"
        sodipodi:cx="1835.9523"
    />
    <path
        id="path3904"
        sodipodi:rx="29.285715"
        sodipodi:ry="29.285715"
        style="opacity:.51527;fill-rule:evenodd;fill:#2b2200"
        sodipodi:type="arc"
        d="m1677.5 648.93c0 16.174-13.112 29.286-29.286 29.286s-29.286-13.112-29.286-29.286 13.112-29.286 29.286-29.286 29.286 13.112 29.286 29.286z"
        transform="translate(15 -27.281)"
        sodipodi:cy="648.92859"
        sodipodi:cx="1648.2142"
    />
    <path
        id="path3906"
        sodipodi:rx="29.285715"
        sodipodi:ry="29.285715"
        style="opacity:.51527;fill-rule:evenodd;fill:#806600"
        sodipodi:type="arc"
        d="m1677.5 648.93c0 16.174-13.112 29.286-29.286 29.286s-29.286-13.112-29.286-29.286 13.112-29.286 29.286-29.286 29.286 13.112 29.286 29.286z"
        transform="matrix(.74390 0 0 .74390 437.1 138.91)"
        sodipodi:cy="648.92859"
        sodipodi:cx="1648.2142"
    />
    <rect
        id="rect3908"
        style="opacity:.51527;fill-rule:evenodd;fill:#806600"
        height="722.77"
        width="19.22"
        y="329.59"
        x="1666.1"
    />
    <path
        id="path3910"
        sodipodi:rx="29.285715"
        sodipodi:ry="29.285715"
        style="opacity:.51527;fill-rule:evenodd;fill:#554400"
        sodipodi:type="arc"
        d="m1677.5 648.93c0 16.174-13.112 29.286-29.286 29.286s-29.286-13.112-29.286-29.286 13.112-29.286 29.286-29.286 29.286 13.112 29.286 29.286z"
        transform="matrix(.39634 0 0 .39634 1010 364.45)"
        sodipodi:cy="648.92859"
        sodipodi:cx="1648.2142"
    />
    <rect
        id="rect3912"
        style="opacity:.51527;fill-rule:evenodd;fill:#554400"
        height="1079.7"
        width="11.238"
        y="-27.371"
        x="1651.9"
    />
    <path
        id="path3914"
        sodipodi:rx="29.285715"
        sodipodi:ry="29.285715"
        style="opacity:.51527;fill-rule:evenodd;fill:#2b2200"
        sodipodi:type="arc"
        d="m1677.5 648.93c0 16.174-13.112 29.286-29.286 29.286s-29.286-13.112-29.286-29.286 13.112-29.286 29.286-29.286 29.286 13.112 29.286 29.286z"
        transform="matrix(.23171 0 0 .23171 1281.3 471.29)"
        sodipodi:cy="648.92859"
        sodipodi:cx="1648.2142"
    />
    <path
        id="path3916"
        style="opacity:.51527;fill-rule:evenodd;fill:#806600"
        inkscape:connector-curvature="0"
        d="m343.86-27.638c0 66.321 53.96 120.09 120.52 120.09 66.557 0 120.5-53.768 120.5-120.09h-241.02z"
    />
    <rect
        id="rect3918"
        style="opacity:.51527;fill-rule:evenodd;fill:#806600"
        height="1080"
        width="21.317"
        y="-27.638"
        x="431.94"
    />
    <path
        id="path3922"
        style="opacity:.51527;fill-rule:evenodd;fill:#ffdd55"
        inkscape:connector-curvature="0"
        d="m393.86-27.638c0 55.275 42.766 100.09 95.515 100.09s95.502-44.814 95.502-100.09h-191.02z"
    />
    <rect
        id="rect3924"
        style="opacity:.51527;fill-rule:evenodd;fill:#ffdd55"
        height="1079.8"
        width="11.238"
        y="-27.414"
        x="539.28"
    />
    <path
        id="path3926"
        sodipodi:rx="103.03556"
        sodipodi:ry="103.03556"
        style="opacity:.51527;fill-rule:evenodd;fill:#fff6d5"
        sodipodi:type="arc"
        d="m1137.4 964.84c0 56.905-46.131 103.04-103.04 103.04-56.905 0-103.04-46.131-103.04-103.04 0-56.905 46.131-103.04 103.04-103.04 56.905 0 103.04 46.131 103.04 103.04z"
        transform="translate(0 -27.638)"
        sodipodi:cy="964.84259"
        sodipodi:cx="1034.3962"
    />
    <path
        id="path3928"
        sodipodi:rx="103.03556"
        sodipodi:ry="103.03556"
        style="opacity:.51527;fill-rule:evenodd;fill:#ffeeaa"
        sodipodi:type="arc"
        d="m1137.4 964.84c0 56.905-46.131 103.04-103.04 103.04-56.905 0-103.04-46.131-103.04-103.04 0-56.905 46.131-103.04 103.04-103.04 56.905 0 103.04 46.131 103.04 103.04z"
        transform="matrix(.67647 0 0 .67647 334.66 284.52)"
        sodipodi:cy="964.84259"
        sodipodi:cx="1034.3962"
    />
    <rect
        id="rect3930"
        style="opacity:.51527;fill-rule:evenodd;fill:#ffeeaa"
        height="1079.9"
        width="32.223"
        y="-27.548"
        x="998.29"
    />
    <path
        id="path3932"
        sodipodi:rx="103.03556"
        sodipodi:ry="103.03556"
        style="opacity:.51527;fill-rule:evenodd;fill:#ffe680"
        sodipodi:type="arc"
        d="m1137.4 964.84c0 56.905-46.131 103.04-103.04 103.04-56.905 0-103.04-46.131-103.04-103.04 0-56.905 46.131-103.04 103.04-103.04 56.905 0 103.04 46.131 103.04 103.04z"
        transform="matrix(.49020 0 0 .49020 527.34 464.24)"
        sodipodi:cy="964.84259"
        sodipodi:cx="1034.3962"
    />
    <rect
        id="rect3934"
        style="opacity:.51527;fill-rule:evenodd;fill:#ffe680"
        height="1079.9"
        width="8.1564"
        y="-27.548"
        x="1033.1"
    />
    <path
        id="path3936"
        sodipodi:rx="103.03556"
        sodipodi:ry="103.03556"
        style="opacity:.51527;fill-rule:evenodd;fill:#ffdd55"
        sodipodi:type="arc"
        d="m1137.4 964.84c0 56.905-46.131 103.04-103.04 103.04-56.905 0-103.04-46.131-103.04-103.04 0-56.905 46.131-103.04 103.04-103.04 56.905 0 103.04 46.131 103.04 103.04z"
        transform="matrix(.35294 0 0 .35294 669.32 596.67)"
        sodipodi:cy="964.84259"
        sodipodi:cx="1034.3962"
    />
    <rect
        id="rect3938"
        style="opacity:.51527;fill-rule:evenodd;fill:#ffdd55"
        height="1079.9"
        width="14.551"
        y="-27.548"
        x="1045.8"
    />
    <rect
        id="rect3939"
        style="opacity:.51527;fill-rule:evenodd;fill:#ffdd55"
        height="1079.8"
        width="8.1564"
        y="-27.414"
        x="944.79"
    />
    <path
        id="path3940"
        sodipodi:rx="103.03556"
        sodipodi:ry="103.03556"
        style="opacity:.51527;fill:#ffdd55;fill-rule:evenodd"
        sodipodi:type="arc"
        d="m1137.4 964.84c0 56.905-46.131 103.04-103.04 103.04-56.905 0-103.04-46.131-103.04-103.04 0-56.905 46.131-103.04 103.04-103.04 56.905 0 103.04 46.131 103.04 103.04z"
        transform="matrix(.31373 0 0 .31373 709.88 634.51)"
        sodipodi:cy="964.84259"
        sodipodi:cx="1034.3962"
    />
    <path
        id="path3948"
        d="m1217.4-27.371v76.07c1.7465-0.8876 3.5626-1.6776 5.43-2.3662v-73.704h-5.43zm0 156.01v923.72h5.43v-921.35c-1.8674-0.68862-3.6835-1.4786-5.43-2.3662z"
        style="opacity:.51527;fill-rule:evenodd;fill:#554400"
        inkscape:connector-curvature="0"
    />
    <path
        id="path3968"
        sodipodi:rx="68.185295"
        sodipodi:ry="68.185295"
        style="opacity:.51527;fill-rule:evenodd;fill:#000000"
        sodipodi:type="arc"
        d="m1456.1 78.434c0 37.658-30.528 68.185-68.185 68.185-37.658 0-68.185-30.528-68.185-68.185 0-37.658 30.528-68.185 68.185-68.185 37.658 0 68.185 30.528 68.185 68.185z"
        transform="matrix(1.0733 0 0 1.0733 -92.939 -33.137)"
        sodipodi:cy="78.433746"
        sodipodi:cx="1387.9496"
    />
    <path
        id="path3950"
        sodipodi:rx="68.185295"
        sodipodi:ry="68.185295"
        style="opacity:.51527;fill-rule:evenodd;fill:#ffd42a"
        sodipodi:type="arc"
        d="m1456.1 78.434c0 37.658-30.528 68.185-68.185 68.185-37.658 0-68.185-30.528-68.185-68.185 0-37.658 30.528-68.185 68.185-68.185 37.658 0 68.185 30.528 68.185 68.185z"
        transform="translate(8.8388 -27.385)"
        sodipodi:cy="78.433746"
        sodipodi:cx="1387.9496"
    />
    <rect
        id="rect3954"
        style="opacity:.51527;fill-rule:evenodd;fill:#ffeeaa"
        height="1079.9"
        width="11.238"
        y="-27.55"
        x="1434.1"
    />
    <rect
        id="rect3807"
        style="opacity:.51527;fill-rule:evenodd;fill:#ffd42a"
        height="1079.7"
        width="25.588"
        y="-27.371"
        x="1328.4"
    />
    <path
        id="path3952"
        sodipodi:rx="68.185295"
        sodipodi:ry="68.185295"
        style="opacity:.51527;fill-rule:evenodd;fill:#ffeeaa"
        sodipodi:type="arc"
        d="m1456.1 78.434c0 37.658-30.528 68.185-68.185 68.185-37.658 0-68.185-30.528-68.185-68.185 0-37.658 30.528-68.185 68.185-68.185 37.658 0 68.185 30.528 68.185 68.185z"
        transform="matrix(.69630 0 0 .69630 430.36 -3.5648)"
        sodipodi:cy="78.433746"
        sodipodi:cx="1387.9496"
    />
    <path
        id="path3956"
        sodipodi:rx="68.185295"
        sodipodi:ry="68.185295"
        style="opacity:.51527;fill-rule:evenodd;fill:#ffdd55"
        sodipodi:type="arc"
        d="m1456.1 78.434c0 37.658-30.528 68.185-68.185 68.185-37.658 0-68.185-30.528-68.185-68.185 0-37.658 30.528-68.185 68.185-68.185 37.658 0 68.185 30.528 68.185 68.185z"
        transform="matrix(.50370 0 0 .50370 697.67 11.541)"
        sodipodi:cy="78.433746"
        sodipodi:cx="1387.9496"
    />
    <rect
        id="rect3958"
        style="opacity:.51527;fill-rule:evenodd;fill:#ffdd55"
        height="1079.5"
        width="11.238"
        y="-27.371"
        x="1361.5"
    />
    <path
        id="path3960"
        sodipodi:rx="68.185295"
        sodipodi:ry="68.185295"
        style="opacity:.51527;fill-rule:evenodd;fill:#fff6d5"
        sodipodi:type="arc"
        d="m1456.1 78.434c0 37.658-30.528 68.185-68.185 68.185-37.658 0-68.185-30.528-68.185-68.185 0-37.658 30.528-68.185 68.185-68.185 37.658 0 68.185 30.528 68.185 68.185z"
        transform="matrix(.39259 0 0 .39259 851.89 20.256)"
        sodipodi:cy="78.433746"
        sodipodi:cx="1387.9496"
    />
    <rect
        id="rect3962"
        style="opacity:.51527;fill-rule:evenodd;fill:#fff6d5"
        height="1080"
        width="8.1564"
        y="-27.595"
        x="1416.8"
    />
    <rect
        id="rect3964"
        style="opacity:.51527;fill-rule:evenodd;fill:#ffe680"
        height="1079.9"
        width="11.238"
        y="-27.55"
        x="1378.9"
    />
    <path
        id="path3966"
        sodipodi:rx="68.185295"
        sodipodi:ry="68.185295"
        style="opacity:.51527;fill-rule:evenodd;fill:#ffe680"
        sodipodi:type="arc"
        d="m1456.1 78.434c0 37.658-30.528 68.185-68.185 68.185-37.658 0-68.185-30.528-68.185-68.185 0-37.658 30.528-68.185 68.185-68.185 37.658 0 68.185 30.528 68.185 68.185z"
        transform="matrix(.24074 0 0 .24074 1062.7 32.166)"
        sodipodi:cy="78.433746"
        sodipodi:cx="1387.9496"
    />
    <path
        id="path3988"
        sodipodi:rx="108.57143"
        sodipodi:ry="108.57143"
        style="opacity:.51527;fill-rule:evenodd;fill:#000000"
        sodipodi:type="arc"
        d="m848.57 814.29c0 59.962-48.609 108.57-108.57 108.57-59.962 0-108.57-48.609-108.57-108.57 0-59.962 48.609-108.57 108.57-108.57 59.962 0 108.57 48.609 108.57 108.57z"
        transform="matrix(.84474 0 0 .84474 106.32 100.93)"
        sodipodi:cy="814.28571"
        sodipodi:cx="740"
    />
    <path
        id="path3970"
        sodipodi:rx="108.57143"
        sodipodi:ry="108.57143"
        style="opacity:.51527;fill-rule:evenodd;fill:#2b2200"
        sodipodi:type="arc"
        d="m848.57 814.29c0 59.962-48.609 108.57-108.57 108.57-59.962 0-108.57-48.609-108.57-108.57 0-59.962 48.609-108.57 108.57-108.57 59.962 0 108.57 48.609 108.57 108.57z"
        transform="matrix(.78947 0 0 .78947 147.22 145.93)"
        sodipodi:cy="814.28571"
        sodipodi:cx="740"
    />
    <path
        id="path3972"
        sodipodi:rx="108.57143"
        sodipodi:ry="108.57143"
        style="opacity:.51527;fill-rule:evenodd;fill:#fff6d5"
        sodipodi:type="arc"
        d="m848.57 814.29c0 59.962-48.609 108.57-108.57 108.57-59.962 0-108.57-48.609-108.57-108.57 0-59.962 48.609-108.57 108.57-108.57 59.962 0 108.57 48.609 108.57 108.57z"
        transform="matrix(0.625 0 0 0.625 268.93 279.86)"
        sodipodi:cy="814.28571"
        sodipodi:cx="740"
    />
    <rect
        id="rect3974"
        style="opacity:.51527;fill-rule:evenodd;fill:#fff6d5"
        height="1079.9"
        width="14.47"
        y="-27.548"
        x="662.47"
    />
    <path
        id="path3976"
        sodipodi:rx="108.57143"
        sodipodi:ry="108.57143"
        style="opacity:.51527;fill-rule:evenodd;fill:#806600"
        sodipodi:type="arc"
        d="m848.57 814.29c0 59.962-48.609 108.57-108.57 108.57-59.962 0-108.57-48.609-108.57-108.57 0-59.962 48.609-108.57 108.57-108.57 59.962 0 108.57 48.609 108.57 108.57z"
        transform="matrix(.44079 0 0 .44079 405.24 429.86)"
        sodipodi:cy="814.28571"
        sodipodi:cx="740"
    />
    <rect
        id="rect3978"
        style="opacity:.51527;fill-rule:evenodd;fill:#806600"
        height="1079.8"
        width="22.052"
        y="-27.459"
        x="759.21"
    />
    <path
        id="path3980"
        sodipodi:rx="108.57143"
        sodipodi:ry="108.57143"
        style="opacity:.51527;fill-rule:evenodd;fill:#ffe680"
        sodipodi:type="arc"
        d="m848.57 814.29c0 59.962-48.609 108.57-108.57 108.57-59.962 0-108.57-48.609-108.57-108.57 0-59.962 48.609-108.57 108.57-108.57 59.962 0 108.57 48.609 108.57 108.57z"
        transform="matrix(.32895 0 0 .32895 488.01 520.93)"
        sodipodi:cy="814.28571"
        sodipodi:cx="740"
    />
    <rect
        id="rect3982"
        style="opacity:.51527;fill-rule:evenodd;fill:#ffe680"
        height="1080"
        width="7.7023"
        y="-27.638"
        x="695.38"
    />
    <path
        id="path3984"
        sodipodi:rx="108.57143"
        sodipodi:ry="108.57143"
        style="opacity:.51527;fill-rule:evenodd;fill:#d4aa00"
        sodipodi:type="arc"
        d="m848.57 814.29c0 59.962-48.609 108.57-108.57 108.57-59.962 0-108.57-48.609-108.57-108.57 0-59.962 48.609-108.57 108.57-108.57 59.962 0 108.57 48.609 108.57 108.57z"
        transform="matrix(.19079 0 0 .19079 590.24 633.43)"
        sodipodi:cy="814.28571"
        sodipodi:cx="740"
    />
    <rect
        id="rect3986"
        style="opacity:.51527;fill-rule:evenodd;fill:#d4aa00"
        height="1080"
        width="14.08"
        y="-27.638"
        x="738.37"
    />
    <path
        id="path3998"
        sodipodi:rx="31.428572"
        sodipodi:ry="31.428572"
        style="opacity:.51527;fill-rule:evenodd;fill:#000000"
        sodipodi:type="arc"
        d="m845 892.14c0 17.358-14.071 31.429-31.429 31.429s-31.429-14.071-31.429-31.429 14.071-31.429 31.429-31.429 31.429 14.071 31.429 31.429z"
        transform="matrix(1.1591 0 0 1.1591 -127.29 -117.43)"
        sodipodi:cy="892.14288"
        sodipodi:cx="813.57141"
    />
    <path
        id="path3990"
        sodipodi:rx="31.428572"
        sodipodi:ry="31.428572"
        style="opacity:.51527;fill-rule:evenodd;fill:#2b2200"
        sodipodi:type="arc"
        d="m845 892.14c0 17.358-14.071 31.429-31.429 31.429s-31.429-14.071-31.429-31.429 14.071-31.429 31.429-31.429 31.429 14.071 31.429 31.429z"
        transform="translate(2.1429 24.505)"
        sodipodi:cy="892.14288"
        sodipodi:cx="813.57141"
    />
    <path
        id="path3992"
        sodipodi:rx="31.428572"
        sodipodi:ry="31.428572"
        style="opacity:.51527;fill-rule:evenodd;fill:#806600"
        sodipodi:type="arc"
        d="m845 892.14c0 17.358-14.071 31.429-31.429 31.429s-31.429-14.071-31.429-31.429 14.071-31.429 31.429-31.429 31.429 14.071 31.429 31.429z"
        transform="matrix(.68182 0 0 .68182 260.29 309.08)"
        sodipodi:cy="892.14288"
        sodipodi:cx="813.57141"
    />
    <rect
        id="rect3994"
        style="opacity:.51527;fill-rule:evenodd;fill:#806600"
        height="181.43"
        width="11.238"
        y="870.93"
        x="791.94"
    />
    <path
        id="path3996"
        sodipodi:rx="31.428572"
        sodipodi:ry="31.428572"
        style="opacity:.51527;fill-rule:evenodd;fill:#aa8800"
        sodipodi:type="arc"
        d="m845 892.14c0 17.358-14.071 31.429-31.429 31.429s-31.429-14.071-31.429-31.429 14.071-31.429 31.429-31.429 31.429 14.071 31.429 31.429z"
        transform="matrix(.38636 0 0 .38636 500.67 572.67)"
        sodipodi:cy="892.14288"
        sodipodi:cx="813.57141"
    />
    <rect
        id="rect3215"
        style="opacity:.51527;fill-rule:evenodd;fill:#ffffff"
        height="766.71"
        width="5.0508"
        y="285.66"
        x="1506.1"
    />
    <rect
        id="rect3985"
        style="opacity:.51527;fill-rule:evenodd;fill:#ffffff"
        height="940.99"
        width="5.0508"
        y="111.37"
        x="1119"
    />
    <rect
        id="rect3987"
        style="opacity:.51527;fill-rule:evenodd;fill:#ffffff"
        height="1080"
        width="5.0508"
        y="-27.638"
        x="856.14"
    />
    <rect
        id="rect3989"
        style="opacity:.51527;fill-rule:evenodd;fill:#ffffff"
        height="994.29"
        width="5.0508"
        y="58.076"
        x="894.71"
    />
    <rect
        id="rect3991"
        style="opacity:.51527;fill-rule:evenodd;fill:#ffffff"
        height="637.14"
        width="3.6222"
        y="415.22"
        x="910.42"
    />
    <rect
        id="rect3995"
        style="opacity:.51527;fill-rule:evenodd;fill:#ffffff"
        height="869.56"
        width="2.1936"
        y="182.8"
        x="1241.9"
    />
    <rect
        id="rect3997"
        style="opacity:.51527;fill-rule:evenodd;fill:#ffffff"
        height="670.99"
        width="5.0508"
        y="381.37"
        x="1734.7"
    />
    <rect
        id="rect3999"
        style="opacity:.51527;fill-rule:evenodd;fill:#ffffff"
        height="818.57"
        width="2.1936"
        y="-27.638"
        x="1620.4"
    />
    <rect
        id="rect4001"
        style="opacity:.51527;fill-rule:evenodd;fill:#000000"
        height="818.57"
        width="2.1936"
        y="-27.638"
        x="1614"
    />
    <rect
        id="rect4004"
        style="opacity:.51527;fill-rule:evenodd;fill:#ffffff"
        height="962.86"
        width="5.0508"
        y="89.505"
        x="443.28"
    />
    <rect
        id="rect4006"
        style="opacity:.51527;fill-rule:evenodd;fill:#ffffff"
        height="971.43"
        width="3.6222"
        y="80.933"
        x="523.28"
    />
    <rect
        id="rect4008"
        style="opacity:.51527;fill-rule:evenodd;fill:#ffffff"
        height="1005.7"
        width="3.6222"
        y="46.648"
        x="547.57"
    />
    <rect
        id="rect4010"
        style="opacity:.51527;fill-rule:evenodd;fill:#ffffff"
        height="915.71"
        width="5.0508"
        y="136.65"
        x="333.28"
    />
    <rect
        id="rect4012"
        style="opacity:.51527;fill-rule:evenodd;stroke:#000000;stroke-width:1px;fill:#000000"
        transform="translate(0 -27.638)"
        height="144.64"
        width="2.8571"
        y="935.36"
        x="86.786"
    />
    <rect
        id="rect4014"
        style="opacity:.51527;fill-rule:evenodd;stroke:#000000;stroke-width:1.1174px;fill:#000000"
        height="180.61"
        width="2.8571"
        y="871.75"
        x="103.93"
    />
    <rect
        id="rect4016"
        style="opacity:.51527;fill-rule:evenodd;stroke:#000000;stroke-width:.89266px;fill:#000000"
        height="158"
        width="2.0842"
        y="894.36"
        x="119.7"
    />
    <rect
        id="rect4018"
        style="opacity:.51527;fill-rule:evenodd;stroke:#000000;stroke-width:1.1174px;fill:#000000"
        height="180.61"
        width="2.8571"
        y="871.75"
        x="103.93"
    />
    <rect
        id="rect4020"
        style="opacity:.51527;fill-rule:evenodd;stroke:#000000;stroke-width:1.3421px;fill:#000000"
        height="229.17"
        width="3.2481"
        y="823.19"
        x="59.252"
    />
    <rect
        id="rect4022"
        style="opacity:.51527;fill-rule:evenodd;stroke:#000000;stroke-width:1.2303px;fill:#000000"
        height="251.57"
        width="2.4864"
        y="800.79"
        x="38.228"
    />
    <rect
        id="rect4024"
        style="opacity:.51527;fill-rule:evenodd;stroke:#000000;stroke-width:1.1619px;fill:#000000"
        height="195.26"
        width="2.8571"
        y="857.1"
        x="22.857"
    />
    <rect
        id="rect4026"
        style="opacity:.51527;fill-rule:evenodd;stroke:#000000;stroke-width:.98595px;fill:#000000"
        height="235.03"
        width="1.7092"
        y="817.33"
        x="134.01"
    />
    <rect
        id="rect4028"
        style="opacity:.51527;fill-rule:evenodd;stroke:#000000;stroke-width:1.0832px;fill:#000000"
        height="169.71"
        width="2.8571"
        y="882.66"
        x="154.64"
    />
    <rect
        id="rect4030"
        style="opacity:.51527;fill-rule:evenodd;stroke:#000000;stroke-width:1.0867px;fill:#000000"
        height="201.82"
        width="2.418"
        y="850.54"
        x="242.58"
    />
    <rect
        id="rect4032"
        style="opacity:.51527;fill-rule:evenodd;stroke:#000000;stroke-width:.82819px;fill:#000000"
        height="235.03"
        width="1.206"
        y="817.33"
        x="262.14"
    />
    <rect
        id="rect4034"
        style="opacity:.51527;fill-rule:evenodd;stroke:#000000;stroke-width:1.1812px;fill:#000000"
        height="201.82"
        width="2.8571"
        y="850.54"
        x="216.43"
    />
    <rect
        id="rect4036"
        style="opacity:.51527;fill-rule:evenodd;stroke:#000000;stroke-width:.72861px;fill:#000000"
        height="97.209"
        width="2.2569"
        y="955.15"
        x="223.21"
    />
    <rect
        id="rect4038"
        style="opacity:.51527;fill-rule:evenodd;stroke:#000000;stroke-width:.92659px;fill:#000000"
        height="124.19"
        width="2.8571"
        y="928.18"
        x="192.5"
    />
    <rect
        id="rect4040"
        style="opacity:.51527;fill-rule:evenodd;stroke:#000000;stroke-width:.86603px;fill:#000000"
        height="108.48"
        width="2.8571"
        y="943.88"
        x="208.93"
    />
    <rect
        id="rect4042"
        style="opacity:.51527;fill-rule:evenodd;stroke:#000000;stroke-width:.86603px;fill:#000000"
        height="108.48"
        width="2.8571"
        y="943.88"
        x="208.93"
    />
    <rect
        id="rect4044"
        style="opacity:.51527;fill-rule:evenodd;stroke:#000000;stroke-width:.54452px;fill:#000000"
        height="108.48"
        width="1.1295"
        y="943.88"
        x="295.8"
    />
    <rect
        id="rect4046"
        style="opacity:.51527;fill-rule:evenodd;stroke:#000000;stroke-width:1.3024px;fill:#000000"
        height="245.36"
        width="2.8571"
        y="807"
        x="187.5"
    />
    <rect
        id="rect4048"
        style="opacity:.51527;fill-rule:evenodd;stroke:#000000;stroke-width:1.4183px;fill:#000000"
        height="290.96"
        width="2.8571"
        y="761.4"
        x="172.14"
    />
    <path
        id="path4050"
        style="opacity:.51527;stroke:#000000;stroke-width:.95861px;fill:none"
        inkscape:connector-curvature="0"
        d="m286.38 837.24 1.2627 215.13"
    />
    <rect
        id="rect4052"
        style="opacity:.51527;fill-rule:evenodd;fill:#ffffff"
        height="962.18"
        width="5.0508"
        y="90.181"
        x="187.82"
    />
    <rect
        id="rect4054"
        style="opacity:.51527;fill-rule:evenodd;stroke:#000000;stroke-width:1.0832px;fill:#000000"
        height="169.71"
        width="2.8571"
        y="882.66"
        x="154.64"
    />
    <rect
        id="rect4056"
        style="opacity:.51527;fill-rule:evenodd;stroke:#000000;stroke-width:1.0832px;fill:#000000"
        height="169.71"
        width="2.8571"
        y="882.66"
        x="265.76"
    />
    <rect
        id="rect4059"
        style="opacity:.51527;fill-rule:evenodd;stroke:#000000;stroke-width:1.1343px;fill:#000000"
        height="186.09"
        width="2.8571"
        y="866.27"
        x="265.76"
    />
    <rect
        id="rect4061"
        style="opacity:.51527;fill-rule:evenodd;stroke:#000000;stroke-width:1.1655px;fill:#000000"
        height="196.48"
        width="2.8571"
        y="855.88"
        x="290.51"
    />
    <rect
        id="rect4063"
        style="opacity:.51527;fill-rule:evenodd;stroke:#000000;stroke-width:.64191px;fill:#000000"
        height="70.425"
        width="2.418"
        y="981.94"
        x="517.85"
    />
    <rect
        id="rect4065"
        style="opacity:.51527;fill-rule:evenodd;stroke:#000000;stroke-width:1.1416px;fill:#000000"
        height="222.73"
        width="2.418"
        y="829.63"
        x="476.43"
    />
    <rect
        id="rect4067"
        style="opacity:.51527;fill-rule:evenodd;stroke:#000000;stroke-width:.76764px;fill:#000000"
        height="100.72"
        width="2.418"
        y="951.65"
        x="493.1"
    />
    <rect
        id="rect4069"
        style="opacity:.51527;fill-rule:evenodd;stroke:#000000;stroke-width:.82588px;fill:#000000"
        height="116.58"
        width="2.418"
        y="935.78"
        x="509.77"
    />
    <rect
        id="rect4071"
        style="opacity:.51527;fill-rule:evenodd;stroke:#000000;stroke-width:1.2823px;fill:#000000"
        height="281.02"
        width="2.418"
        y="771.34"
        x="421.88"
    />
    <rect
        id="rect4073"
        style="opacity:.51527;fill-rule:evenodd;stroke:#000000;stroke-width:1.1116px;fill:#000000"
        height="211.18"
        width="2.418"
        y="841.18"
        x="438.05"
    />
    <rect
        id="rect4075"
        style="opacity:.51527;fill-rule:evenodd;stroke:#000000;stroke-width:1.0049px;fill:#000000"
        height="172.61"
        width="2.418"
        y="879.75"
        x="371.88"
    />
    <rect
        id="rect4077"
        style="opacity:.51527;fill-rule:evenodd;stroke:#000000;stroke-width:.99423px;fill:#000000"
        height="168.95"
        width="2.418"
        y="883.42"
        x="412.79"
    />
    <rect
        id="rect4079"
        style="opacity:.51527;fill-rule:evenodd;stroke:#000000;stroke-width:1.3006px;fill:#000000"
        height="289.11"
        width="2.418"
        y="763.25"
        x="366.33"
    />
    <rect
        id="rect4081"
        style="opacity:.51527;fill-rule:evenodd;stroke:#000000;stroke-width:1.1116px;fill:#000000"
        height="211.18"
        width="2.418"
        y="841.18"
        x="350.16"
    />
    <rect
        id="rect4083"
        style="opacity:.51527;fill-rule:evenodd;stroke:#000000;stroke-width:1.4281px;fill:#000000"
        height="348.59"
        width="2.418"
        y="703.77"
        x="326.93"
    />
    <rect
        id="rect4085"
        style="opacity:.51527;fill-rule:evenodd;stroke:#000000;stroke-width:1px;fill:#000000"
        height="144.64"
        width="2.8571"
        y="907.72"
        x="581.55"
    />
    <rect
        id="rect4087"
        style="opacity:.51527;fill-rule:evenodd;stroke:#000000;stroke-width:1.1174px;fill:#000000"
        height="180.61"
        width="2.8571"
        y="871.75"
        x="615.36"
    />
    <rect
        id="rect4089"
        style="opacity:.51527;fill-rule:evenodd;stroke:#000000;stroke-width:.89266px;fill:#000000"
        height="158"
        width="2.0842"
        y="894.36"
        x="631.13"
    />
    <rect
        id="rect4091"
        style="opacity:.51527;fill-rule:evenodd;stroke:#000000;stroke-width:1.1174px;fill:#000000"
        height="180.61"
        width="2.8571"
        y="871.75"
        x="561.82"
    />
    <rect
        id="rect4100"
        style="opacity:.51527;fill-rule:evenodd;stroke:#000000;stroke-width:1.3421px;fill:#000000"
        height="229.17"
        width="3.2481"
        y="823.19"
        x="570.68"
    />
    <rect
        id="rect4134"
        style="opacity:.51527;fill-rule:evenodd;stroke:#000000;stroke-width:1.2738px;fill:#000000"
        height="269.7"
        width="2.4864"
        y="782.66"
        x="541.58"
    />
    <rect
        id="rect4136"
        style="opacity:.51527;fill-rule:evenodd;stroke:#000000;stroke-width:1.1619px;fill:#000000"
        height="195.26"
        width="2.8571"
        y="857.1"
        x="534.29"
    />
    <rect
        id="rect4138"
        style="opacity:.51527;fill-rule:evenodd;stroke:#000000;stroke-width:.98595px;fill:#000000"
        height="235.03"
        width="1.7092"
        y="817.33"
        x="645.43"
    />
    <rect
        id="rect4140"
        style="opacity:.51527;fill-rule:evenodd;stroke:#000000;stroke-width:1.1365px;fill:#000000"
        height="190.36"
        width="2.8039"
        y="861.97"
        x="670.14"
    />
    <rect
        id="rect4142"
        style="opacity:.51527;fill-rule:evenodd;stroke:#000000;stroke-width:1.0867px;fill:#000000"
        height="201.82"
        width="2.418"
        y="850.54"
        x="754.01"
    />
    <rect
        id="rect4144"
        style="opacity:.51527;fill-rule:evenodd;stroke:#000000;stroke-width:.49458px;fill:#000000"
        height="190.92"
        width=".52948"
        y="861.61"
        x="763.3"
    />
    <rect
        id="rect4146"
        style="opacity:.51527;fill-rule:evenodd;stroke:#000000;stroke-width:.84635px;fill:#000000"
        height="167.87"
        width="1.7634"
        y="884.66"
        x="727.69"
    />
    <rect
        id="rect4148"
        style="opacity:.51527;fill-rule:evenodd;stroke:#000000;stroke-width:.72861px;fill:#000000"
        height="97.209"
        width="2.2569"
        y="955.15"
        x="734.64"
    />
    <rect
        id="rect4150"
        style="opacity:.51527;fill-rule:evenodd;stroke:#000000;stroke-width:.92659px;fill:#000000"
        height="124.19"
        width="2.8571"
        y="928.18"
        x="707.46"
    />
    <rect
        id="rect4152"
        style="opacity:.51527;fill-rule:evenodd;stroke:#000000;stroke-width:.86603px;fill:#000000"
        height="108.48"
        width="2.8571"
        y="943.88"
        x="721.37"
    />
    <rect
        id="rect4154"
        style="opacity:.51527;fill-rule:evenodd;stroke:#000000;stroke-width:1.089px;fill:#000000"
        height="171.54"
        width="2.8571"
        y="880.82"
        x="741.57"
    />
    <rect
        id="rect4156"
        style="opacity:.51527;fill-rule:evenodd;stroke:#000000;stroke-width:.53204px;fill:#000000"
        height="102.43"
        width="1.142"
        y="949.93"
        x="807.22"
    />
    <rect
        id="rect4158"
        style="opacity:.51527;fill-rule:evenodd;stroke:#000000;stroke-width:1.0244px;fill:#000000"
        height="151.78"
        width="2.8571"
        y="900.58"
        x="698.93"
    />
    <rect
        id="rect4160"
        style="opacity:.51527;fill-rule:evenodd;stroke:#000000;stroke-width:1.0781px;fill:#000000"
        height="168.13"
        width="2.8571"
        y="884.24"
        x="684.58"
    />
    <path
        id="path4162"
        d="m797.81 855.3 1.2627 197.06"
        style="opacity:.51527;stroke:#000000;stroke-width:.91748px;fill:none"
        inkscape:connector-curvature="0"
    />
    <rect
        id="rect4164"
        style="opacity:.51527;fill-rule:evenodd;stroke:#000000;stroke-width:1.0832px;fill:#000000"
        height="169.71"
        width="2.8571"
        y="882.66"
        x="654.45"
    />
    <rect
        id="rect4166"
        style="opacity:.51527;fill-rule:evenodd;stroke:#000000;stroke-width:1.0832px;fill:#000000"
        height="169.71"
        width="2.8571"
        y="882.66"
        x="777.19"
    />
    <rect
        id="rect4168"
        style="opacity:.51527;fill-rule:evenodd;stroke:#000000;stroke-width:1.1343px;fill:#000000"
        height="186.09"
        width="2.8571"
        y="866.27"
        x="770.12"
    />
    <rect
        id="rect4170"
        style="opacity:.51527;fill-rule:evenodd;stroke:#000000;stroke-width:1.1655px;fill:#000000"
        height="196.48"
        width="2.8571"
        y="855.88"
        x="851.94"
    />
    <rect
        id="rect4172"
        style="opacity:.51527;fill-rule:evenodd;stroke:#000000;stroke-width:.64191px;fill:#000000"
        height="70.425"
        width="2.418"
        y="981.94"
        x="835.33"
    />
    <rect
        id="rect4174"
        style="opacity:.51527;fill-rule:evenodd;stroke:#000000;stroke-width:1.1416px;fill:#000000"
        height="222.73"
        width="2.418"
        y="829.63"
        x="1159.6"
    />
    <rect
        id="rect4176"
        style="opacity:.51527;fill-rule:evenodd;stroke:#000000;stroke-width:.89472px;fill:#000000"
        height="136.82"
        width="2.418"
        y="915.54"
        x="870.68"
    />
    <rect
        id="rect4178"
        style="opacity:.51527;fill-rule:evenodd;stroke:#000000;stroke-width:.70934px;fill:#000000"
        height="85.997"
        width="2.418"
        y="966.36"
        x="811.08"
    />
    <rect
        id="rect4180"
        style="opacity:.51527;fill-rule:evenodd;stroke:#000000;stroke-width:1.2823px;fill:#000000"
        height="281.02"
        width="2.418"
        y="771.34"
        x="1149.5"
    />
    <rect
        id="rect4182"
        style="opacity:.51527;fill-rule:evenodd;stroke:#000000;stroke-width:1.1933px;fill:#000000"
        height="243.39"
        width="2.418"
        y="808.97"
        x="891.39"
    />
    <rect
        id="rect4184"
        style="opacity:.51527;fill-rule:evenodd;stroke:#000000;stroke-width:1.0049px;fill:#000000"
        height="172.61"
        width="2.418"
        y="879.75"
        x="883.31"
    />
    <rect
        id="rect4186"
        style="opacity:.51527;fill-rule:evenodd;stroke:#000000;stroke-width:.99423px;fill:#000000"
        height="168.95"
        width="2.418"
        y="883.42"
        x="924.22"
    />
    <rect
        id="rect4188"
        style="opacity:.51527;fill-rule:evenodd;stroke:#000000;stroke-width:1.3006px;fill:#000000"
        height="289.11"
        width="2.418"
        y="763.25"
        x="877.75"
    />
    <rect
        id="rect4190"
        style="opacity:.51527;fill-rule:evenodd;stroke:#000000;stroke-width:1.1116px;fill:#000000"
        height="211.18"
        width="2.418"
        y="841.18"
        x="861.59"
    />
    <rect
        id="rect4192"
        style="opacity:.51527;fill-rule:evenodd;stroke:#000000;stroke-width:1.3261px;fill:#000000"
        height="300.56"
        width="2.418"
        y="751.8"
        x="471.38"
    />
    <rect
        id="rect4194"
        style="opacity:.51527;fill-rule:evenodd;stroke:#000000;stroke-width:1px;fill:#000000"
        height="144.64"
        width="2.8571"
        y="907.72"
        x="1373.6"
    />
    <rect
        id="rect4196"
        style="opacity:.51527;fill-rule:evenodd;stroke:#000000;stroke-width:1.1174px;fill:#000000"
        height="180.61"
        width="2.8571"
        y="871.75"
        x="1390.7"
    />
    <rect
        id="rect4198"
        style="opacity:.51527;fill-rule:evenodd;stroke:#000000;stroke-width:.89266px;fill:#000000"
        height="158"
        width="2.0842"
        y="894.36"
        x="1406.5"
    />
    <rect
        id="rect4200"
        style="opacity:.51527;fill-rule:evenodd;stroke:#000000;stroke-width:1.1174px;fill:#000000"
        height="180.61"
        width="2.8571"
        y="871.75"
        x="1396.4"
    />
    <rect
        id="rect4202"
        style="opacity:.51527;fill-rule:evenodd;stroke:#000000;stroke-width:1.3421px;fill:#000000"
        height="229.17"
        width="3.2481"
        y="823.19"
        x="1346"
    />
    <rect
        id="rect4204"
        style="opacity:.51527;fill-rule:evenodd;stroke:#000000;stroke-width:1.2303px;fill:#000000"
        height="251.57"
        width="2.4864"
        y="800.79"
        x="1325"
    />
    <rect
        id="rect4206"
        style="opacity:.51527;fill-rule:evenodd;stroke:#000000;stroke-width:1.1619px;fill:#000000"
        height="195.26"
        width="2.8571"
        y="857.1"
        x="1309.6"
    />
    <rect
        id="rect4208"
        style="opacity:.51527;fill-rule:evenodd;stroke:#000000;stroke-width:.98595px;fill:#000000"
        height="235.03"
        width="1.7092"
        y="817.33"
        x="1420.8"
    />
    <rect
        id="rect4210"
        style="opacity:.51527;fill-rule:evenodd;stroke:#000000;stroke-width:1.0832px;fill:#000000"
        height="169.71"
        width="2.8571"
        y="882.66"
        x="1441.4"
    />
    <rect
        id="rect4212"
        style="opacity:.51527;fill-rule:evenodd;stroke:#000000;stroke-width:.95333px;fill:#000000"
        height="155.33"
        width="2.418"
        y="897.03"
        x="1529.4"
    />
    <rect
        id="rect4214"
        style="opacity:.51527;fill-rule:evenodd;stroke:#000000;stroke-width:.82819px;fill:#000000"
        height="235.03"
        width="1.206"
        y="817.33"
        x="1201.4"
    />
    <rect
        id="rect4216"
        style="opacity:.51527;fill-rule:evenodd;stroke:#000000;stroke-width:1.1812px;fill:#000000"
        height="201.82"
        width="2.8571"
        y="850.54"
        x="1503.2"
    />
    <rect
        id="rect4218"
        style="opacity:.51527;fill-rule:evenodd;stroke:#000000;stroke-width:.72861px;fill:#000000"
        height="97.209"
        width="2.2569"
        y="955.15"
        x="1510"
    />
    <rect
        id="rect4220"
        style="opacity:.51527;fill-rule:evenodd;stroke:#000000;stroke-width:.92659px;fill:#000000"
        height="124.19"
        width="2.8571"
        y="928.18"
        x="1479.3"
    />
    <rect
        id="rect4222"
        style="opacity:.51527;fill-rule:evenodd;stroke:#000000;stroke-width:.86603px;fill:#000000"
        height="108.48"
        width="2.8571"
        y="943.88"
        x="1495.7"
    />
    <rect
        id="rect4224"
        style="opacity:.51527;fill-rule:evenodd;stroke:#000000;stroke-width:.86603px;fill:#000000"
        height="108.48"
        width="2.8571"
        y="943.88"
        x="1495.7"
    />
    <rect
        id="rect4226"
        style="opacity:.51527;fill-rule:evenodd;stroke:#000000;stroke-width:.54452px;fill:#000000"
        height="108.48"
        width="1.1295"
        y="943.88"
        x="1582.6"
    />
    <rect
        id="rect4228"
        style="opacity:.51527;fill-rule:evenodd;stroke:#000000;stroke-width:1.3024px;fill:#000000"
        height="245.36"
        width="2.8571"
        y="807"
        x="1474.3"
    />
    <rect
        id="rect4230"
        style="opacity:.51527;fill-rule:evenodd;stroke:#000000;stroke-width:1.4183px;fill:#000000"
        height="290.96"
        width="2.8571"
        y="761.4"
        x="1458.9"
    />
    <path
        id="path4232"
        d="m1271.1 837.24 1.2627 215.13"
        style="opacity:.51527;stroke:#000000;stroke-width:.95861px;fill:none"
        inkscape:connector-curvature="0"
    />
    <rect
        id="rect4234"
        style="opacity:.51527;fill-rule:evenodd;stroke:#000000;stroke-width:1.0832px;fill:#000000"
        height="169.71"
        width="2.8571"
        y="882.66"
        x="1441.4"
    />
    <rect
        id="rect4236"
        style="opacity:.51527;fill-rule:evenodd;stroke:#000000;stroke-width:1.0832px;fill:#000000"
        height="169.71"
        width="2.8571"
        y="882.66"
        x="1552.5"
    />
    <rect
        id="rect4238"
        style="opacity:.51527;fill-rule:evenodd;stroke:#000000;stroke-width:.83880px;fill:#000000"
        height="119.25"
        width="2.4383"
        y="933.26"
        x="1552.4"
    />
    <rect
        id="rect4240"
        style="opacity:.51527;fill-rule:evenodd;stroke:#000000;stroke-width:1.0755px;fill:#000000"
        height="119.69"
        width="3.9936"
        y="932.68"
        x="1602.2"
    />
    <rect
        id="rect4242"
        style="opacity:.51527;fill-rule:evenodd;stroke:#000000;stroke-width:.64191px;fill:#000000"
        height="70.425"
        width="2.418"
        y="981.94"
        x="1298.5"
    />
    <rect
        id="rect4244"
        style="opacity:.51527;fill-rule:evenodd;stroke:#000000;stroke-width:.53592px;fill:#000000"
        height="134.77"
        width=".88075"
        y="917.9"
        x="1638.6"
    />
    <rect
        id="rect4246"
        style="opacity:.51527;fill-rule:evenodd;stroke:#000000;stroke-width:.98596px;fill:#000000"
        height="166.15"
        width="2.418"
        y="886.21"
        x="1654.9"
    />
    <rect
        id="rect4248"
        style="opacity:.51527;fill-rule:evenodd;stroke:#000000;stroke-width:.82588px;fill:#000000"
        height="116.58"
        width="2.418"
        y="935.78"
        x="1330.9"
    />
    <rect
        id="rect4250"
        style="opacity:.51527;fill-rule:evenodd;stroke:#000000;stroke-width:1.2823px;fill:#000000"
        height="281.02"
        width="2.418"
        y="771.34"
        x="1708.7"
    />
    <rect
        id="rect4252"
        style="opacity:.51527;fill-rule:evenodd;stroke:#000000;stroke-width:1.1116px;fill:#000000"
        height="211.18"
        width="2.418"
        y="841.18"
        x="1382.7"
    />
    <rect
        id="rect4254"
        style="opacity:.51527;fill-rule:evenodd;stroke:#000000;stroke-width:1.0049px;fill:#000000"
        height="172.61"
        width="2.418"
        y="879.75"
        x="1677.9"
    />
    <rect
        id="rect4256"
        style="opacity:.51527;fill-rule:evenodd;stroke:#000000;stroke-width:.99423px;fill:#000000"
        height="168.95"
        width="2.418"
        y="883.42"
        x="1699.6"
    />
    <rect
        id="rect4258"
        style="opacity:.51527;fill-rule:evenodd;stroke:#000000;stroke-width:1.3006px;fill:#000000"
        height="289.11"
        width="2.418"
        y="763.25"
        x="1667.3"
    />
    <rect
        id="rect4260"
        style="opacity:.51527;fill-rule:evenodd;stroke:#000000;stroke-width:.55469px;fill:#000000"
        height="133.21"
        width=".95454"
        y="919.43"
        x="1616.5"
    />
    <rect
        id="rect4262"
        style="opacity:.51527;fill-rule:evenodd;stroke:#000000;stroke-width:1px;fill:#000000"
        height="144.64"
        width="2.8571"
        y="907.72"
        x="1694.8"
    />
    <rect
        id="rect4264"
        style="opacity:.51527;fill-rule:evenodd;stroke:#000000;stroke-width:1.1174px;fill:#000000"
        height="180.61"
        width="2.8571"
        y="871.75"
        x="1902.1"
    />
    <rect
        id="rect4266"
        style="opacity:.51527;fill-rule:evenodd;stroke:#000000;stroke-width:.89266px;fill:#000000"
        height="158"
        width="2.0842"
        y="894.36"
        x="1917.9"
    />
    <rect
        id="rect4268"
        style="opacity:.51527;fill-rule:evenodd;stroke:#000000;stroke-width:1.1174px;fill:#000000"
        height="180.61"
        width="2.8571"
        y="871.75"
        x="1910"
    />
    <rect
        id="rect4270"
        style="opacity:.51527;fill-rule:evenodd;stroke:#000000;stroke-width:1.3421px;fill:#000000"
        height="229.17"
        width="3.2481"
        y="823.19"
        x="1287.5"
    />
    <rect
        id="rect4272"
        style="opacity:.51527;fill-rule:evenodd;stroke:#000000;stroke-width:1.2738px;fill:#000000"
        height="269.7"
        width="2.4864"
        y="782.66"
        x="1363.7"
    />
    <rect
        id="rect4274"
        style="opacity:.51527;fill-rule:evenodd;stroke:#000000;stroke-width:1.1619px;fill:#000000"
        height="195.26"
        width="2.8571"
        y="857.1"
        x="1339.2"
    />
    <rect
        id="rect4276"
        style="opacity:.51527;fill-rule:evenodd;stroke:#000000;stroke-width:1.3261px;fill:#000000"
        height="300.56"
        width="2.418"
        y="751.8"
        x="1186"
    />
  </g
  >
  <metadata
    >
    <rdf:RDF
      >
      <cc:Work
        >
        <dc:format
          >image/svg+xml</dc:format
        >
        <dc:type
            rdf:resource="http://purl.org/dc/dcmitype/StillImage"
        />
        <cc:license
            rdf:resource="http://creativecommons.org/licenses/publicdomain/"
        />
        <dc:publisher
          >
          <cc:Agent
              rdf:about="http://openclipart.org/"
            >
            <dc:title
              >Openclipart</dc:title
            >
          </cc:Agent
          >
        </dc:publisher
        >
        <dc:title
          >Background.01</dc:title
        >
        <dc:date
          >2013-03-15T18:04:43</dc:date
        >
        <dc:description
        />
        <dc:source
          >https://openclipart.org/detail/176329/backgroun.01-by-roshellin-176329</dc:source
        >
        <dc:creator
          >
          <cc:Agent
            >
            <dc:title
              >roshellin</dc:title
            >
          </cc:Agent
          >
        </dc:creator
        >
        <dc:subject
          >
          <rdf:Bag
            >
            <rdf:li
              >Background</rdf:li
            >
          </rdf:Bag
          >
        </dc:subject
        >
      </cc:Work
      >
      <cc:License
          rdf:about="http://creativecommons.org/licenses/publicdomain/"
        >
        <cc:permits
            rdf:resource="http://creativecommons.org/ns#Reproduction"
        />
        <cc:permits
            rdf:resource="http://creativecommons.org/ns#Distribution"
        />
        <cc:permits
            rdf:resource="http://creativecommons.org/ns#DerivativeWorks"
        />
      </cc:License
      >
    </rdf:RDF
    >
  </metadata
  >
</svg
>
