<?xml version="1.0" encoding="UTF-8" standalone="no"?>
<!-- Generator: Adobe Illustrator 10.0, SVG Export Plug-In . SVG Version: 3.0.0 Build 77)  -->
<svg
    xmlns:rdf="http://www.w3.org/1999/02/22-rdf-syntax-ns#"
    xmlns="http://www.w3.org/2000/svg"
    xmlns:x="http://ns.adobe.com/Extensibility/1.0/"
    xmlns:dc="http://purl.org/dc/elements/1.1/"
    xmlns:i="http://ns.adobe.com/AdobeIllustrator/10.0/"
    xmlns:cc="http://web.resource.org/cc/"
    xmlns:xlink="http://www.w3.org/1999/xlink"
    xmlns:a="http://ns.adobe.com/AdobeSVGViewerExtensions/3.0/"
    xmlns:graph="http://ns.adobe.com/Graphs/1.0/"
    xmlns:svg="http://www.w3.org/2000/svg"
    xmlns:inkscape="http://www.inkscape.org/namespaces/inkscape"
    xmlns:sodipodi="http://sodipodi.sourceforge.net/DTD/sodipodi-0.dtd"
    xmlns:ns1="http://sozi.baierouge.fr"
    i:rulerOrigin="0 0"
    style="enable-background:new 0 0 458.445 309.924"
    i:viewOrigin="75.999 550.001"
    space="preserve"
    i:pageBounds="0 792 612 0"
    viewBox="0 0 458.445 309.924"
  >
  <g
      id="Layer_1"
      i:knockout="Off"
      i:rgbTrio="#4F008000FFFF"
      i:layer="yes"
      i:dimmedPercent="50"
    >
    <g
        i:knockout="Off"
      >
      <path
          style="stroke-linejoin:round;stroke:#000000;stroke-width:.9978;stroke-miterlimit:10;stroke-linecap:round"
          d="m431.33 57.74c3.023-1.908 4.969-4.176 6.265-6.66 1.368-2.556 3.132-5.4 1.26-8.388-1.836-3.06-3.888-4.32-12.528-9.612-8.566-5.4-29.304-16.992-38.88-22.14-9.468-5.22-13.464-7.596-17.964-8.784-4.392-1.152-7.128-0.54-8.352 1.26-1.188 1.62-0.722 4.355 1.26 8.352-0.612 0.648-2.016 0.972-4.608 0.828-2.556-0.18-5.902-0.684-10.438-1.656-1.766 0.18-3.024 1.764-3.78 4.608-0.612 2.844 0.072 9.612-0.432 12.528-0.47 2.844-1.296 4.104-2.484 4.176 0.828-4.14 1.152-7.488 0.828-10.044-0.216-2.7-1.836-3.492-2.521-5.437-0.539-2.052-1.079-3.996-1.225-6.264-4.788-0.684-8.928-1.008-12.96-0.828-3.888 0.072-6.264 1.008-10.476 1.692-4.068 0.648-9.396 2.268-14.186 2.484-4.788 0.216-9.396-0.252-14.22-1.26-1.332 1.224-2.448 2.808-2.952 5.04-0.612 2.196-0.612 4.788-0.396 7.92-0.974-2.088-1.944-4.356-2.521-6.66-0.684-2.484-1.152-5.832-1.26-7.524 0-1.728 0.468-2.52 1.26-2.52 2.052-0.756 3.024-1.548 3.348-2.52 0.288-1.08-0.396-2.521-1.654-3.348-1.152-0.936-2.088-1.62-5.438-1.656-3.204-0.072-6.876 0.54-14.22 1.26-7.344 0.576-21.313 2.376-29.664 2.484-8.136-0.108-14.544-3.204-19.655-2.484-5.076 0.756-10.369 4.968-10.873 6.66-0.395 1.62 2.34 2.556 8.354 2.952-1.045 1.944-1.98 3.708-3.35 5.436-1.223 1.656-2.664 3.132-4.176 4.572l-1.26-9.18c-5.219 0.36-10.871 0.036-17.531-0.828-6.625-0.9-13.68-2.484-21.744-4.608-2.053 2.556-3.348 5.112-3.744 7.524s1.439 4.176 1.225 7.092c-0.072 2.844-1.693 6.84-2.088 10.044-0.289 3.132-0.289 6.012 0 8.784-1.873-3.24-2.846-6.264-2.916-9.216 0-2.952 2.734-5.688 2.52-8.352-0.109-2.7-3.348-4.608-3.348-7.524 0.143-3.06 1.26-6.444 3.744-10.44-8.857-1.224-17.533-2.196-26.316-2.916-8.785-0.756-17.244-1.368-25.92-1.692 0.791 6.229 0.791 9.252 0 9.216-0.828-0.108-2.232-3.312-4.609-9.612-4.59 0.36-10.385 1.152-17.946 2.088-7.453 1.009-16.092 0.685-26.748 3.745-10.621 3.024-27.793 8.784-36.793 13.788-8.855 4.716-13.5 7.596-16.307 15.048-2.557 7.488-0.793 13.68 0 29.7 0.971 16.092 3.672 43.848 4.607 65.628 0.862 21.67 1.331 40.75 0.432 63.5-0.828 22.788-4.211 55.044-5.436 71.496-1.152 16.164-3.096 18.684-1.26 25.056 2.088 6.192 7.523 10.008 12.959 12.132 5.617 1.908 13.789 1.584 19.656 0 5.869-1.728 9.072-8.64 15.445-9.611 6.516-0.899 14.832 3.133 23.004 4.177 8.172 0.936 16.811 1.26 25.92 1.26 0.18-0.072 0.828-2.628 2.088-7.956 1.332-5.399 4.391-22.212 5.436-23.796 1.008-1.512 0.359 10.764 0.828 14.616 0.719 3.672 2.016 5.399 2.916 7.956 0.971 2.556 1.764 5.111 2.52 7.522 5.293-2.088 11.664-3.312 19.656-4.212 8.064-0.792 19.332-1.115 27.973-0.828 8.711 0.108 16.559 0.722 23.832 1.692 1.188 2.412 2.951 3.853 5.436 4.176 2.592 0.216 5.939-1.403 9.611-2.088 3.709-0.647 7.885-1.26 12.527-1.691 5.293 1.008 9.721 1.477 13.824 1.261 4.033-0.253 7.561-1.044 10.44-2.521l3.744-11.699c2.376 0.973 3.96 2.521 4.607 5.039 0.756 2.412 0.575 5.616-0.396 9.612 3.888 3.78 8.208 5.868 13.355 6.265 5.147 0.323 10.403-3.239 17.137-4.177 6.947-1.08 16.416-2.016 23.398-1.691 6.984 0.323 12.89 1.584 18 3.779 0.828-0.504 1.009-2.592 0.828-6.264-0.18-3.853-1.8-10.944-2.088-15.876-0.072-4.968 0.396-12.672 0.828-13.393 0.504-0.685 0.684 5.761 1.656 9.181 1.15 3.132 3.239 6.479 4.176 10.476 0.864 4.104 1.151 8.568 0.864 13.788 6.479-1.044 12.096-1.512 17.136-1.26 5.04 0.107 4.68 0.576 12.96 2.521 8.46 2.053 26.964 7.235 37.188 9.181 10.297 1.69 17.315 1.367 23.832 1.26 6.553-0.18 11.845 0.324 15.049-2.088 3.238-2.521 4.318-3.96 4.606-12.528 0.468-8.676-1.655-19.836-2.088-38.88-0.324-19.332-2.412-54.324-0.432-75.24 2.052-20.88 8.495-36.359 12.526-48.924 4.213-12.528 9.686-16.524 12.133-25.884 2.483-9.54 5.221-23.184 2.521-30.528-2.664-7.416-12.132-11.88-18.396-13.392-6.155-1.548-17.101 4.752-18.396 4.176-1.16-0.77 2.55-3.506 11.26-8.366z"
          i:knockout="Off"
      />
      <path
          style="fill:#E8E4D4"
          d="m347.42 12.776c2.089 0.144 4.067 0.396 6.084 0.468 2.089 0.072 3.853 0.252 5.832 0.108 2.053-0.288 4.104-0.72 6.301-1.44 8.748 5.976 15.552 11.412 20.699 16.848 5.185 5.292 6.695 9.972 9.937 15.012 3.312 5.004 6.084 10.62 9.432 14.76 3.35 3.996 6.806 7.056 10.514 9.324 2.734 3.348 4.752 10.368 6.19 21.636 1.478 11.304 2.376 33.3 2.558 45.288 0.322 11.772-0.434 7.992-0.864 25.2-0.288 17.316-0.648 61.236-1.08 77.474-0.288 15.947-0.468 11.628-1.224 18.144-0.722 6.444-3.456 14.473-3.492 20.196 0.144 5.508 3.852 7.775 3.492 13.176-0.396 5.328-2.376 11.448-5.94 18.648-4.824 0.646-9.9 0.72-15.372 0.358-5.328-0.358-10.044-1.15-17.063-2.664-7.058-1.728-17.316-5.184-24.806-7.02-7.2-1.908-12.996-3.204-18.792-3.744-5.76-0.576-10.8-0.359-15.516 0.647 0.106-4.859-0.288-9.107-1.188-12.889-0.936-3.852-2.88-5.651-4.176-9.72-1.152-4.176-2.196-9.145-2.988-15.048-1.188 1.403-2.23 3.563-3.274 6.336-1.044 2.808-2.412 6.191-2.7 10.439-0.036 4.247 1.584 10.765 1.8 14.544 0.108 3.637-0.036 5.903-0.828 7.093-2.446-1.261-6.982-2.27-14.004-2.736-7.02-0.612-20.664-0.828-27.61-0.504-6.732 0.252-9.182 2.269-13.178 2.304-3.924-0.035-7.344-0.756-10.402-2.304 1.044-2.664 0.826-5.112-0.504-7.74-1.332-2.664-3.78-5.111-7.488-7.739-0.36 1.943-0.973 4.176-1.836 6.553-0.756 2.34-0.974 6.264-3.276 7.739-2.34 1.403-6.479 1.08-10.62 0.827-3.996-0.323-8.604-1.115-13.68-2.52-1.584 1.729-3.816 2.844-6.553 3.636-2.807 0.756-6.91 1.225-9.936 0.721-2.844-0.611-5.219-1.979-7.127-4.248-14.221 0.071-25.992 0.107-35.605 0.252-9.574 0.071-15.73-0.145-21.672 0.469-5.832 0.54-10.08 1.476-13.139 2.808-1.225-3.708-2.16-6.695-3.096-8.964-0.721-2.34-1.549-1.225-2.088-4.716-0.541-3.672-0.541-13.608-1.404-16.488-0.686-2.916-1.945-3.132-3.205-0.792-1.188 2.34-2.664 9-4.283 14.725-1.549 5.651-3.168 11.987-5.004 19.151-8.641 0-16.309-0.323-23.436-1.367-7.057-1.045-13.824-4.32-18.648-4.572-4.68-0.288-6.805 1.368-9.576 2.881-2.629 1.403-3.781 4.644-6.66 5.688-2.844 0.937-7.523 3.061-10.729 0.145-3.203-3.061-6.084-6.407-8.244-17.819-2.016-11.735-3.348-31.788-3.996-50.832-0.432-19.151 0-40.823 0.721-62.244 0.791-21.312 3.203-42.048 3.637-64.979 0.467-23.148-6.949-56.844-0.721-72.612 6.48-15.732 27.18-16.992 38.627-21.42 11.629-4.464 22.393-4.068 29.664-5.076 7.201-1.08 11.377-1.656 12.961-1.584 0.973 3.456 2.123 5.976 3.455 7.848 1.441 1.764 3.854 4.176 4.752 2.916 0.938-1.404 1.189-5.004 0.758-10.944 3.096-0.288 8.135-0.108 15.551 0.54 7.523 0.612 16.813 1.62 28.691 3.168-1.188 2.772-1.871 5.148-2.051 7.128-0.037 1.944 0.756 2.88 1.115 4.608 0.504 1.692 1.008 2.952 1.08 5.436 0 2.376-1.404 4.86-0.863 8.964 0.684 4.068 2.303 8.892 4.859 15.012 1.656-1.908 3.275-4.464 4.465-8.1 1.332-3.708 2.844-10.008 3.168-13.464 0.395-3.492-1.225-4.572-0.973-7.128 0.396-2.628 1.404-5.364 3.023-8.352 1.189 1.044 4.572 1.98 10.297 2.664 5.795 0.684 13.787 1.26 24.119 1.584 0.469 3.24 0.793 5.688 0.973 7.488 0.287 1.728 0.396 2.736 0.469 3.024 1.043-0.647 2.123-1.656 3.383-3.024 1.439-1.368 2.916-2.916 4.285-5.328 1.332-2.556 2.375-5.652 3.275-9.576 24.264 0.72 41.22 1.044 51.983 1.116 10.729-0.072 9.54-1.692 11.7-0.972 2.196 0.792 0.972 2.844 1.332 5.328 0.468 2.34 0.216 5.94 1.188 8.712 0.974 2.664 2.558 5.04 4.608 7.272-0.252-3.348-0.036-6.3 0.504-8.712 0.612-2.556 1.62-4.356 3.024-5.94 4.968 1.656 9.756 2.376 14.508 2.16 4.716-0.252 8.712-3.168 13.932-3.744 5.4-0.72 11.376-0.792 18.072-0.36 1.08 2.772 1.836 5.148 2.412 7.128 0.576 1.908 0.72 1.692 0.864 4.5 0.216 2.736 0.504 6.731 0.575 11.988 2.663 0.144 4.645-0.252 5.939-1.476 1.332-1.224 1.477-2.988 1.944-5.688 0.504-2.844 1.08-8.424 1.332-10.764 0.432-2.34 0.54-3.348 0.72-3.024l0.15-1.81z"
          i:knockout="Off"
      />
      <path
          style="fill:#BBBDA7"
          d="m277.86 7.664c0.252-1.08 0-2.664 0.36-3.384 0.432-0.936 1.439-1.332 2.052-1.332 0.828 0.108 1.836 1.044 2.052 1.836 0.218 0.54-0.252 1.548-0.72 2.052-0.324 0.36-0.936 0.216-1.691 0.828-0.721 0.684-2.521 2.772-2.916 2.916-0.31-0.036 0.77-1.98 0.87-2.916z"
          i:knockout="Off"
      />
      <path
          style="fill:#BBBDA7"
          d="m163.46 8.996c-1.547 1.764-2.482 3.708-2.807 5.832-0.252 2.088 1.043 4.212 0.971 6.768-0.035 2.412-0.936 5.256-1.439 8.1-0.432 2.88-0.791 6.48-1.225 8.856-0.359 2.232-0.684 3.888-0.971 4.824-2.592-2.268-4.033-4.68-4.717-7.38-0.576-2.844 0.9-6.66 1.08-8.964 0.289-2.304 0.863-2.772 0.359-4.716-0.395-2.124-3.096-4.644-3.238-7.272-0.109-2.664 0.826-5.436 2.664-8.46-1.189-0.36-2.449-0.684-3.781-0.828-1.295-0.216-2.664-0.252-4.104-0.252 0.576 1.116 0.936 2.664 1.225 5.184 0.287 2.412 0.215 6.552 0.467 9.216 0.504 2.484 1.332 2.88 1.801 6.048 0.467 3.132-0.037 8.712 0.971 12.708 1.189 3.852 3.889 10.188 5.725 10.8 1.836 0.54 3.6-4.608 5.293-7.272 1.871-2.808 4.68-6.479 5.219-9.216 0.504-2.772-1.908-5.292-1.943-7.272 0.217-2.052 2.592-3.42 2.664-4.932 0.072-1.584-1.943-2.772-2.16-4.392-0.072-1.656 0.576-3.42 1.801-5.436-1.27-0.648-2.56-1.296-3.85-1.944z"
          i:knockout="Off"
      />
      <path
          style="fill:#BBBDA7"
          d="m411.71 67.352c3.815-1.08 7.199-4.428 10.549-6.3 3.348-1.872 6.479-3.096 8.818-4.932 2.342-2.088 4.142-4.32 4.97-6.552 0.936-2.232 1.188-4.284 0.358-6.3-0.828-2.088-2.734-4.032-5.184-5.688-2.34-1.728-2.521-1.224-8.856-4.464-6.372-3.42-19.872-11.7-28.548-15.408-8.46-3.78-17.566-5.796-22.066-6.624-4.356-0.9-2.988 1.332-4.104 1.548-1.008 0.144-0.756-0.612-2.16-0.468-1.296 0.108-3.526 0.792-5.58 1.08-1.8 0.144-4.248-0.216-5.832-0.108-1.584-0.072-3.743-0.612-3.563 0.18 0.324 0.684 4.066 2.592 5.398 4.176 1.514 1.584 1.729 3.708 3.134 4.968 1.512 1.044 3.238 0.036 5.472 1.548 2.376 1.476 4.644 3.384 8.208 7.272 3.744 3.78 10.08 10.512 13.464 15.624 3.384 5.04 4.356 11.088 6.66 14.544 2.376 3.24 4.68 4.536 7.74 5.544 3.31 0.9 7.48 1.296 11.12 0.36z"
          i:knockout="Off"
      />
      <path
          style="fill:#E8E4D4"
          d="m430.76 37.112c-1.044-1.26-6.014-3.852-11.018-6.804-4.858-3.024-12.168-7.128-18.036-10.512-5.832-3.456-12.238-6.804-16.703-9.216-4.283-2.34-6.695-3.816-9.323-4.968-2.521-1.332-4.394-2.268-6.301-2.664-1.943-0.468-3.779-0.612-5.075 0.144-1.152 0.684-2.306 1.908-1.944 4.104 0.432 2.052 0.9 4.14 4.464 8.604 3.816 4.5 12.637 12.672 17.568 18.144 5.004 5.256 8.172 9.432 11.735 13.932 3.673 4.464 6.371 9.936 9.469 12.816 3.132 2.736 6.588 3.528 8.818 3.78 2.376 0.072 4.753-2.16 4.608-2.664-0.18-0.432-3.853 0.684-5.58-0.144-1.656-0.936-3.852-2.736-4.104-5.544-0.107-3.024 0.828-8.568 3.491-11.772 2.881-3.168 9.974-6.012 12.96-7.128 3.13-1.26 5.94 0.972 4.97-0.108z"
          i:knockout="Off"
      />
      <path
          style="fill:#E8E4D4"
          d="m426.65 43.016c-1.69 0.72-7.416 3.42-8.712 5.472-1.224 1.836 0.145 4.968 1.332 6.048 1.404 0.972 4.86 0.864 6.048 0.108 1.26-0.864 1.26-4.968 0.973-5.076-0.217-0.252-1.225 3.312-2.447 3.888-1.188 0.396-3.925 0.072-4.464-0.972-0.288-1.152 0.61-4.14 2.159-5.472 1.619-1.404 6.049-2.016 6.911-2.664 0.86-0.612 0.07-2.16-1.8-1.332z"
          i:knockout="Off"
      />
      <path
          style="fill:#BBBDA7"
          d="m336.18 11.804c0.576 2.232 1.224 4.068 1.8 5.796 0.792 1.548 1.765 1.62 1.944 4.248 0.216 2.628-0.072 6.408-0.864 11.484 1.8 0.396 3.096 0.108 3.888-0.72 0.792-0.9 0.792-2.664 0.974-4.464 0.432-1.944 0.72-4.464 0.862-6.444 0.036-2.016-0.322-3.6-0.252-5.184 0.217-1.692 0.792-3.06 1.584-4.5 2.018-0.072 3.168 0.144 3.602 0.504 0.504 0.18-1.044 0.612-1.188 1.584-0.036 1.08 0.686 2.7 0.36 4.572-0.288 1.728-1.62 3.672-2.196 5.688-0.324 1.908-0.288 4.212-0.72 6.084s-0.648 3.672-2.16 4.824c-1.512 1.008-4.896 1.404-6.66 1.476-1.62 0.108-3.132-0.216-3.274-1.116-0.108-1.08 2.304-2.916 2.52-4.824 0.288-1.944-0.396-5.112-0.936-6.444-0.505-1.368-1.656-0.648-1.944-1.44-0.036-0.864 1.116-2.628 0.972-3.492-0.18-0.9-1.655-0.72-2.088-1.944-0.324-1.332-0.358-3.348-0.106-6.048 1.31 0.108 2.61 0.216 3.9 0.36z"
          i:knockout="Off"
      />
      <path
          style="fill:#BBBDA7"
          d="m455.31 91.04c1.548-4.932 0.864-4.464 0.72-6.912-0.036-2.628-0.288-5.472-1.438-8.1-1.188-2.664-3.276-5.364-5.688-7.272-2.268-1.944-5.65-3.672-8.496-4.356-2.88-0.756-6.012-0.648-8.712-0.108-2.52 0.468-3.888 0.792-7.02 2.916-3.062 1.944-9.108 4.212-11.484 9.324-2.34 5.184-2.304 13.212-2.664 21.312-0.216 7.956 0.216 13.32 0.72 26.388 0.612 13.104 1.766 36.576 2.054 51.516 0.288 14.724 0.036 26.315-0.47 36.576-0.468 10.15-1.332 17.278-2.446 24.012-0.864 6.588-1.802 9.576-3.638 15.624-1.8 6.012-5.256 13.392-7.596 20.195-2.23 6.66-5.328 14.545-6.084 19.765-0.646 5.076 0.612 8.208 1.692 10.908 1.15 2.592 2.771 4.104 4.858 5.075 2.16 0.792 5.112 0.396 7.885 0.359 2.951-0.036 6.443-0.252 9.071-0.359 2.558-0.217 4.429 0.145 6.3-0.469 2.018-0.684 4.32-1.871 5.545-3.274 1.297-1.513 1.979-3.421 2.195-5.438 0.396-2.124 0.792-1.332-0.358-6.912-1.116-5.796-5.112-18.504-6.302-26.747-1.044-8.244-0.106-12.744-0.252-22.393-0.252-9.9-0.972-24.229-0.61-35.748 0.61-11.556 2.088-21.528 3.888-32.688 1.872-11.305 3.924-23.616 7.128-33.875 3.456-10.26 9.18-18.792 12.744-27 3.62-8.42 6.9-17.388 8.45-22.32z"
          i:knockout="Off"
      />
      <path
          style="fill:#E8E4D4"
          d="m429.64 89.672c1.548-0.972 2.735-1.98 3.275-3.024 0.611-1.152 0.863-2.196 0.359-3.276-0.396-1.188-1.403-2.52-3.022-3.168-1.656-0.72-4.104-1.368-6.66-0.828-2.448 0.468-5.868 0.468-7.885 4.032-1.871 3.528-3.275 5.04-3.385 17.46 0.036 12.528 2.448 42.084 2.916 56.592 0.612 14.147 0.469 15.012 0.108 28.691-0.252 13.823-0.648 38.557-2.16 53.389-1.476 14.651-4.824 25.848-6.552 34.164-1.62 8.172-2.81 10.728-3.133 15.048-0.181 4.14 0.611 7.884 1.691 10.26 1.08 2.34 2.27 3.168 4.824 3.889 2.736 0.54 9.468 0.973 10.908-0.107 1.367-1.296-1.801-6.265-2.305-6.553-0.253-0.216 1.549 4.645 0.107 5.437-1.439 0.721-6.804 0.252-8.712-0.828-1.729-1.224-2.269-3.96-2.16-5.832 0.108-1.979 0.973-4.571 2.88-5.436 2.088-0.973 5.58-0.938 8.964 0.107 3.421 0.937 6.948 2.88 11.018 5.831-0.648-5.867-1.261-12.6-1.692-20.482-0.359-8.064-0.54-17.064-0.828-26.604-0.216-9.504-0.504-21.744-0.72-29.771-0.108-8.137-0.324-11.412-0.252-18.036 0.216-6.696 0.107-13.5 1.08-21.528 1.116-8.172 2.808-17.892 5.076-26.388 2.447-8.568 6.048-17.748 8.712-24.229 2.628-6.444 5.146-10.044 7.02-14.292 2.018-4.392 3.816-7.164 4.86-11.628 1.188-4.5 1.872-9.54 2.052-15.264-2.088 5.004-4.716 9.324-7.74 12.816-3.06 3.492-5.976 6.66-10.548 8.136-4.464 1.368-12.6 2.196-16.092 0.108-3.313-2.268-4.248-9.54-4.355-13.212 0-3.816 2.053-6.84 3.637-8.928 1.69-2.052 4.319-3.276 5.938-3.528 1.692-0.396 3.492 0.648 3.854 1.584 0.252 0.972-1.332 2.952-1.692 3.996-0.14 0.86-0.03 1.328 0.58 1.4z"
          i:knockout="Off"
      />
      <path
          style="fill:#E8E4D4"
          d="m436.3 88.124c-0.9 1.872-1.944 3.276-3.132 4.356-1.116 1.008-2.377 1.656-3.78 1.944l0.144 13.212c2.27-0.036 3.78-0.576 5.076-1.224 1.26-0.756 1.98-1.8 2.304-3.132-0.18-5.05-0.39-10.09-0.61-15.166z"
          i:knockout="Off"
      />
      <path
          style="fill:#BBBDA7"
          d="m10.312 72.428c-1.189-6.444-1.802-6.912-2.81-11.808-0.973-5.04-3.168-12.492-2.988-17.64 0.289-5.292 1.98-9.504 4.393-13.032 2.52-3.348 5.471-5.544 10.225-7.416 4.895-2.088 12.635-4.176 18.215-4.608 5.545-0.468 10.98 0.252 14.652 2.016 3.779 1.728 6.984 3.816 7.379 8.604 0.396 4.716-1.043 8.784-5.004 19.836-3.924 11.052-13.176 30.42-18.035 45.9-4.645 15.3-7.813 29.448-9.791 45.648-1.873 16.2-1.873 36-1.801 50.796 0.145 14.652 1.152 26.929 2.592 36.685 1.656 9.576 4.068 13.717 6.408 21.023 2.305 7.272 5.904 16.309 7.199 22.248 1.332 5.796 1.152 8.46 0.828 12.42-0.18 3.854-1.439 7.813-2.412 10.62-1.008 2.664-1.404 4.248-3.42 5.58-1.871 1.332-4.535 2.088-7.992 2.412-3.42 0.145-8.855 0-12.42-1.008-3.492-1.08-6.947-2.232-8.424-5.004-1.295-2.772-0.324-1.514 0.396-11.629 0.791-10.439 3.313-34.271 4.213-49.681 1.078-15.407 1.008-28.476 1.584-42.264 0.574-13.896 1.439-25.092 1.619-40.68 0.396-15.804 0.721-39.384 0-52.668-0.754-13.296-3.312-19.992-4.606-26.364z"
          i:knockout="Off"
      />
      <path
          style="fill:#E8E4D4"
          d="m34.539 39.56c-2.664 0.396-4.5-0.036-5.795-1.008-1.26-1.044-2.34-3.744-1.584-5.184 1.008-1.656 3.924-3.384 6.805-3.816 2.879-0.396 7.596 0.612 10.402 1.62 2.916 0.756 5.904-0.108 6.625 3.78 0.791 3.816 0.756 9.252-2.197 19.656-2.918 10.404-11.125 28.116-15.444 42.444-4.211 14.256-7.668 24.3-9.828 42.48-2.016 18.107-2.736 46.26-2.592 65.556 0.289 19.224 2.088 33.84 3.996 49.104 2.016 15.119 4.572 28.619 7.813 41.075-2.771-2.124-5.473-3.6-8.389-4.823-2.809-1.188-5.832-2.341-8.641-2.195-2.734 0.144-6.191 1.26-7.596 2.808-1.295 1.478-1.367 3.313-0.215 5.796-2.34-1.8-3.924-4.318-4.609-7.416-0.646-3.274-0.322-1.619 0.396-11.411 0.865-9.937 2.988-33.084 4.033-47.089 1.008-14.004 1.619-25.884 1.979-36.468 0.504-10.62 0.828-18.216 0.828-27.071 0.072-9.107-0.324-18.433-0.611-26.46-0.18-8.064-0.107-13.5-0.611-21.024-0.434-7.596-1.045-11.16-1.98-23.904-0.828-12.922-1.837-30.094-3.025-52.486 2.268 5.112 5.004 8.676 8.207 10.836 3.275 2.16 6.119 2.808 11.016 1.8 5.113-1.224 14.76-5.328 18.648-8.424 3.852-3.204 4.213-7.632 3.996-10.224-0.18-2.664-2.771-4.104-5.004-5.004-2.195-0.972-5.904-0.828-7.813-0.396-1.836 0.396-2.771 1.584-2.809 2.592 0.072 0.792 2.629 1.8 3.205 2.628 0.722 0.792 0.938 1.584 0.794 2.232z"
          i:knockout="Off"
      />
      <path
          style="fill:#E8E4D4"
          d="m34.358 42.728c-0.756 0.972-1.764 0.9-3.42 0.18-1.619-0.756-3.492-2.556-6.012-5.004-0.539 3.384-0.828 6.264-1.008 9.036-0.107 2.664-0.035 5.112 0.217 7.2 2.699-0.684 4.859-1.368 6.623-2.196 1.801-0.828 3.133-1.692 3.996-2.592-0.107-2.196-0.252-4.392-0.396-6.624z"
          i:knockout="Off"
      />
      <path
          style="fill:#BBBDA7"
          d="m312.06 295.84c-1.08-0.937-2.916-1.8-5.112-2.735-2.158-0.937-4.428-1.943-8.352-2.881-3.996-1.079-10.296-2.23-15.156-3.455-4.68-1.477-9.072-2.987-13.176-4.536-4.141-1.584-7.848-3.456-10.98-4.645-2.916-1.368-4.932-2.34-6.876-2.916-1.836-0.611-3.132-0.864-4.464-0.359-1.224 0.396-2.771 1.477-3.274 3.385-0.36 1.8 0.252 5.363 0.288 8.063 0.034 2.664-0.108 5.438-0.288 8.172 5.724-0.646 11.986-1.15 19.079-1.367 7.164-0.252 15.191-0.828 23.257-0.181 8.17 0.57 16.34 1.72 25.05 3.48z"
          i:knockout="Off"
      />
      <path
          style="fill:#E8E4D4"
          d="m244.6 293.94c1.368-0.396 2.52-1.188 3.6-2.376 1.116-1.26 1.908-2.916 2.664-4.968-0.936 0.685-1.62 0.864-2.195 0.54-0.539-0.432-1.079-1.656-1.079-2.556 0.288-1.044 1.114-2.593 1.8-2.7 0.646-0.108 1.26 0.504 1.836 1.979 0.359-1.691 0.576-3.239 0.252-4.645-0.216-1.477-0.792-2.809-1.729-3.996 1.549 1.512 5.075 3.168 10.439 5.364 5.544 2.159 14.652 5.22 21.888 7.38 7.416 1.943 16.021 3.24 21.35 4.716 5.256 1.512 8.566 2.736 10.08 4.068-2.054-0.54-5.4-1.044-9.9-1.368-4.5-0.433-11.376-0.973-17.172-0.792-5.688 0.071-11.988 1.403-16.956 1.908-4.896 0.468-7.884 1.512-12.168 1.188-4.17-0.39-8.27-1.68-12.7-3.73z"
          i:knockout="Off"
      />
      <path
          style="fill:#BBBDA7"
          d="m323.69 295.3c0.072-2.952-0.036-5.688-0.468-8.352-0.324-2.628-1.225-5.186-2.017-7.524-0.721-2.483-2.053-4.68-2.881-6.731-0.827-2.053-1.548-3.456-2.016-5.473-0.288-2.159-0.108-6.119-0.432-6.876-0.324-0.756-0.974 0.288-1.656 2.16-0.576 1.692-1.512 5.868-1.98 8.353-0.396 2.412-0.504 3.563-0.468 6.372 0.146 2.699 1.044 6.805 1.188 10.079 0.216 3.204 0.396 6.266 0.252 9.182-0.9-0.469-1.872-1.009-3.062-1.478-1.151-0.575-2.376-1.115-3.814-1.62 2.159-0.862 3.384-2.23 3.814-3.814 0.396-1.656-0.504-4.141-1.188-6.084-0.54-2.018-1.908-3.96-2.018-5.978 0.108-2.194 1.729-4.787 2.089-6.659 0.287-1.979-0.359-3.204 0-4.788 0.647-1.584 1.655-3.061 3.023-4.716 1.439-1.872 3.996-5.292 4.896-5.545 0.937-0.18 0.359 2.27 0.647 4.429 0.324 2.053 0.828 5.076 1.512 7.813 1.009 2.628 2.521 5.473 3.564 7.992 1.044 2.448 1.908 3.6 2.447 6.804 0.576 3.133 0.828 7.236 0.899 12.168-0.74 0.09-1.53 0.2-2.32 0.3z"
          i:knockout="Off"
      />
      <path
          style="fill:#BBBDA7"
          d="m238.15 277.52c-0.18 1.478-0.684 3.133-1.115 4.969-0.396 1.801-1.115 4.284-1.729 5.903-0.468 1.404-0.647 2.305-1.8 3.097-1.08 0.685-2.736 1.261-5.256 1.439-2.447 0.145-6.839-0.144-9.72-0.432-2.771-0.396-5.076-0.9-6.912-1.656 6.049-0.036 10.693-0.504 14.076-1.548 3.349-1.116 4.321-2.628 6.266-4.536 2.12-2.01 4.13-4.42 6.18-7.23z"
          i:knockout="Off"
      />
      <path
          style="fill:#BBBDA7"
          d="m112.95 294.04l4.537-1.836c-1.801-1.477-2.664-3.097-2.988-5.004-0.18-2.018 2.088-5.004 1.547-6.444-0.395-1.439-3.42-0.899-4.355-2.268-0.828-1.585-0.432-3.854-0.9-6.806-0.504-3.06-1.043-8.604-1.908-11.088-0.791-2.52-1.367-2.628-2.555-4.066-1.08-1.585-3.277-5.616-3.816-5.005-0.396 0.575 1.619 5.797 1.188 8.46-0.324 2.557-2.592 4.536-3.348 7.057-0.648 2.376 0.504 3.096-0.828 7.992-1.332 5.04-3.564 12.022-6.984 21.636l3.637-0.107c1.188-3.601 2.195-7.164 3.168-11.269 0.936-4.141 1.619-9.36 2.629-12.889 1.15-3.563 3.131-7.561 3.994-8.243 1.01-0.721 1.369 1.224 1.621 3.888 0.396 2.628-0.217 8.604 0.107 11.557 0.432 2.771 1.26 2.88 2.088 5.327 0.89 2.41 1.9 5.4 3.16 9.1z"
          i:knockout="Off"
      />
      <path
          style="fill:#BBBDA7"
          d="m107.37 2.264c0.072 1.548 0.109 3.132-0.035 4.752 0.072 1.584 0 3.924-0.504 4.68-0.541 0.684-1.621 0.792-2.844-0.648-1.189-1.656-2.377-4.5-3.996-8.82-0.793 0.036-1.549 0.108-2.268 0.216-0.648 0.036-1.262 0.18-1.836 0.288 1.691 1.62 3.131 3.456 4.318 5.364 1.26 1.908 1.729 4.5 2.953 6.12 1.332 1.548 3.744 3.168 4.607 2.916 0.9-0.468 0.432-3.564 0.684-5.256 0.469-1.729 1.441-3.24 1.549-4.824 0.145-1.692-0.072-3.168-0.793-4.824-0.62 0-1.23 0-1.84 0.036z"
          i:knockout="Off"
      />
      <path
          style="fill:#BBBDA7"
          d="m200.35 14.36c0.252 2.052 0.684 3.852 0.9 5.544 0.396 1.692 0.576 2.988 0.936 4.284 1.404-1.152 2.484-2.088 3.637-3.348 1.188-1.188 2.195-2.52 3.023-3.852 0.9-1.512 1.549-3.276 1.943-4.464 0.434-1.26 0.721-2.124 0.721-2.736 0.973-0.252 2.088 0.108 3.492 1.08 1.584 0.936 3.385 2.952 4.824 4.536 1.367 1.476 1.943 3.06 3.275 4.212 1.584 0.972 3.348 1.872 5.148 1.872 1.8-0.108 3.564-2.196 5.148-2.376 1.656-0.18 4.248 0.36 4.572 0.792 0.288 0.18-0.973 0.684-2.232 0.972-1.044 0.252-2.664 0.288-4.176 0.792-1.368 0.504-3.096 1.656-4.608 2.052-1.439 0.324-2.627 0.504-4.391-0.576-1.656-1.296-3.924-5.868-5.689-7.056-1.584-1.296-2.844-1.26-4.211-0.468-1.26 0.684-2.305 3.132-3.816 4.824-1.547 1.584-3.635 3.708-5.148 4.86-1.367 1.044-2.52 1.476-3.311 1.44-0.289-2.304-0.396-4.464-0.721-6.48-0.287-2.124-0.396-4.104-0.721-5.94 0.48 0 0.95 0 1.41 0.036z"
          i:knockout="Off"
      />
      <path
          style="fill:#E8E4D4"
          d="m279.41 2.696c0.36 0.324-0.792 0.684-1.079 1.476-0.145 0.54-0.396 1.332-0.359 2.52-0.072 1.152 0.288 2.7 0.252 4.5 0.036 1.728 0.252 3.996 0.252 5.688 0.107 1.62 1.044 2.736 0.576 3.744-0.396 0.864-1.008 0.036-2.664 1.692-1.44 1.656 0.144 8.388-6.518 8.136-6.694-0.36-25.884-8.856-33.406-10.08-7.38-1.368-7.452 3.744-11.052 2.304-3.6-1.62-7.523-9.252-10.26-11.232-2.629-1.908-4.357-0.36-5.328-0.36-0.973-0.072 0.576 0.072-0.361 0-0.863-0.144-4.211-0.108-4.752-0.864-0.467-0.864 0.506-2.844 1.945-3.996 1.584-1.152 4.248-2.772 7.164-2.916 3.023-0.18 6.912 1.044 10.26 1.584 3.383 0.432 5.724 0.972 9.936 1.08 4.392-0.036 10.332-0.36 15.731-0.828 5.579-0.576 11.916-1.764 16.487-2.196 4.5-0.432 8.244-0.54 10.404-0.468 2.23-0.072 2.55-0.144 2.77 0.216z"
          i:knockout="Off"
      />
      <path
          style="fill:#E8E4D4"
          d="m281.79 6.476c-0.035-0.18-0.936 0.144-1.438 0-0.324-0.324-0.468-1.548-0.72-1.584-0.146-0.072-0.722 0.972-0.612 1.476 0.144 0.432 0.828 1.296 1.224 1.332 0.47-0.036 1.58-1.044 1.55-1.224z"
          i:knockout="Off"
      />
      <path
          style="fill:#BBBDA7"
          d="m286.79 13.568c-0.612 0.72-1.08 1.368-1.55 2.232-0.396 0.648-0.72 1.296-1.114 2.52-0.396 1.188-0.792 3.492-1.045 5.112-0.181 1.512-0.107 2.988 0.071 4.284-0.646-0.72-1.403-1.836-1.979-2.952-0.54-1.152-1.188-3.024-1.656-4.248-0.468-1.368-0.648-1.98-0.937-3.924-0.252-2.016-0.071-6.84-0.287-7.956 0-1.188-0.218-0.576-0.252 1.008-0.182 1.584-0.182 5.76-0.288 8.208 0.07 2.304-0.396 3.492 0.684 5.652 1.152 2.088 5.292 6.156 6.192 6.66 0.936 0.288-0.648-3.168-0.288-4.14 0.54-0.9 2.844-0.936 3.022-1.512 0.108-0.792-1.619-1.728-1.979-2.952-0.108-1.368 0.504-3.24 0.863-4.5 0.469-1.26 0.827-2.34 1.477-3.096-0.26-0.108-0.59-0.252-0.91-0.396z"
          i:knockout="Off"
      />
      <path
          style="stroke-linejoin:round;stroke:#000000;stroke-width:.036;stroke-miterlimit:10;stroke-linecap:round"
          d="m363.04 10.976c1.225 0.9 3.023 2.628 5.544 5.184 2.629 2.484 5.867 6.12 9.575 10.08 3.816 3.852 8.966 9.108 12.673 13.428 3.853 4.212 7.416 9.18 9.721 12.42 2.304 3.24 2.592 5.112 3.924 6.876 1.404 1.62 2.7 2.052 4.32 2.952 1.872 0.936 5.544 1.764 6.012 2.34 0.36 0.432-1.44 0.828-3.313 0.36-1.728-0.612-4.896-1.8-6.876-3.564-1.871-1.908-2.376-4.284-4.428-7.128-1.908-2.88-4.464-6.3-7.38-9.72s-4.572-5.76-9.828-11.052c-5.076-5.436-11.916-12.492-20.664-21.312 0.22-0.288 0.48-0.576 0.73-0.864z"
          i:knockout="Off"
      />
      <path
          style="stroke-linejoin:round;stroke:#000000;stroke-width:.036;stroke-miterlimit:10;stroke-linecap:round"
          d="m420.96 69.152c-1.226 0.576-2.412 1.404-3.564 2.484-1.116 1.008-2.231 1.8-3.204 3.924-0.863 2.124-1.728 4.356-2.304 8.496-0.433 4.068-0.864 8.676-0.864 15.624 0.072 6.768 0.721 17.532 0.973 25.2 0.252 7.632 0.54 13.464 0.721 20.556 0.288 6.912 0.54 13.86 0.756 21.24 0.288 7.38 0.684 14.904 0.612 22.968 0 8.064-0.108 15.984-0.864 24.877-0.612 8.783-1.26 18.937-3.061 27.396-1.801 8.244-4.859 15.516-7.381 22.392-2.34 6.841-5.146 13.5-6.768 18.433-1.477 4.824-2.124 7.2-2.34 10.332-0.072 2.845 0.468 5.437 1.332 7.633 0.862 2.195 2.699 4.5 3.708 5.796 1.079 1.26 1.979 1.836 2.699 1.729l-3.061 0.107c-1.584-1.368-2.952-2.88-3.96-4.681-0.972-1.907-1.836-3.815-2.196-6.155-0.288-2.376-0.72-3.564 0.252-7.74 1.226-4.319 3.925-11.844 6.014-17.567 2.124-5.832 4.176-11.771 6.012-16.991 1.908-5.257 3.563-7.921 4.824-14.257 1.332-6.588 2.411-15.119 2.952-24.048 0.539-8.893 0.791-19.08 0.61-28.765 0-9.828-0.432-20.628-0.756-29.052-0.252-8.496-0.54-13.752-0.864-21.168-0.287-7.596-0.396-15.66-0.72-23.364-0.288-7.848-0.684-16.56-0.756-22.392 0.18-5.76 0.468-8.496 1.26-11.664 0.792-3.24 2.124-5.472 3.168-7.38 1.116-1.98 1.872-3.636 2.952-4.428 1.188-0.9 2.809-1.044 3.456-0.864 0.69 0.096 0.76 0.492 0.36 1.32z"
          i:knockout="Off"
      />
      <path
          style="stroke-linejoin:round;stroke:#000000;stroke-width:.036;stroke-miterlimit:10;stroke-linecap:round"
          d="m414.66 65.912c-0.287 0.18-1.08 0.576-2.521 0.792-1.332 0.252-3.42 0.936-5.832 0.792-2.412-0.18-6.012-0.864-8.424-2.052-2.196-1.332-3.744-3.204-5.328-5.904-1.512-2.916-2.34-7.632-4.284-10.944-1.872-3.276-4.607-5.976-7.092-8.784-2.412-3.024-5.185-5.868-7.632-8.532-2.448-2.736-4.788-5.724-6.876-7.164-1.944-1.44-3.528-1.116-4.896-1.548-1.296-0.576-2.16-0.756-3.132-1.656-0.864-1.08-1.368-3.204-2.34-4.284-0.972-1.152-2.16-1.584-3.132-2.268-0.828-0.72-1.478-1.368-1.944-1.944-1.26-0.432-2.196-0.54-2.412-0.468-0.216 0.144 0.396 0.432 0.864 1.008 0.576 0.324 1.404 0.648 2.34 1.404 1.008 0.756 2.628 1.656 3.492 2.988 0.972 1.26 1.188 3.204 2.052 4.284 1.008 0.864 2.018 1.008 3.42 1.548 1.404 0.54 2.916 0.54 4.682 1.8 1.872 1.296 3.42 2.916 6.012 5.688 2.735 2.7 7.092 7.272 9.576 10.224 2.446 2.736 3.743 4.5 5.004 6.696 1.332 2.16 2.376 4.104 3.132 6.264 0.972 2.124 1.368 4.248 2.16 6.084 0.828 1.584 1.188 2.736 2.734 4.032 1.692 1.404 4.43 2.844 6.948 3.744 2.592 0.576 5.688 0.684 8.172 0.468 2.628-0.252 6.12-1.368 7.021-1.692 0.91-0.432 0.37-0.576-1.76-0.576z"
          i:knockout="Off"
      />
      <path
          style="stroke-linejoin:round;stroke:#000000;stroke-width:.036;stroke-miterlimit:10;stroke-linecap:round"
          d="m414.09 231.15c0.432 0.359 0.396 11.195-0.504 17.783-0.9 6.48-3.638 15.013-5.148 21.168-1.404 6.12-2.7 11.27-3.492 15.156-0.646 3.636-1.08 4.645-0.898 7.057 0.18 2.447 0.72 5.761 1.764 7.597 1.116 1.655 4.824 2.447 4.752 2.808 0.072 0.216-3.456 0.576-4.752-0.863-1.296-1.655-2.376-4.681-2.809-7.956-0.181-3.239 0.181-6.12 1.225-11.269 1.116-5.364 3.636-13.752 4.932-19.764 1.296-6.014 1.908-10.368 2.664-15.696 0.84-5.48 2.1-16.28 2.28-16.03z"
          i:knockout="Off"
      />
      <path
          style="stroke-linejoin:round;stroke:#000000;stroke-width:.036;stroke-miterlimit:10;stroke-linecap:round"
          d="m409.88 298.51c-0.758-1.979-1.188-3.528-0.9-4.932 0.252-1.478 0.972-2.736 2.304-3.35 1.478-0.684 3.098-1.367 5.978-0.54 2.986 0.828 8.892 3.492 11.304 4.934 2.484 1.188 3.492 2.159 3.168 2.628l-0.72-2.988c-2.196-1.512-4.536-2.7-7.021-3.708-2.52-1.044-5.004-2.124-7.596-2.268-2.484-0.252-5.437 0.252-7.057 1.224-1.367 1.008-1.619 3.096-1.584 4.752 0.07 1.52 0.83 2.89 2.13 4.26z"
          i:knockout="Off"
      />
      <path
          style="stroke-linejoin:round;stroke:#000000;stroke-width:.036;stroke-miterlimit:10;stroke-linecap:round"
          d="m250.79 276.3c3.888 1.979 8.314 3.924 13.57 5.977 5.328 1.979 11.27 4.319 17.82 6.191 6.66 1.729 13.752 3.348 21.672 4.572-5.328-1.478-10.368-2.845-15.516-4.248-5.148-1.368-10.332-2.772-14.978-4.212-4.464-1.692-8.278-3.78-11.987-5.292-3.527-1.656-7.309-3.385-9.539-4.068-2.124-0.72-2.846-0.576-3.708 0-0.722 0.504-1.297 1.729-1.584 2.844-0.36 1.009-0.434 2.053-0.36 3.528 0.396 1.512 0.936 3.996 1.764 5.112 0.864 0.863 2.736 1.15 2.846 0.863 0.18-0.359-1.55-1.368-2.124-2.483-0.54-1.225-1.262-3.168-1.044-4.572 0.33-1.48 1.48-2.88 3.17-4.21z"
          i:knockout="Off"
      />
      <path
          style="stroke-linejoin:round;stroke:#000000;stroke-width:.036;stroke-miterlimit:10;stroke-linecap:round"
          d="m35.619 299.84c2.232-2.412 3.781-5.832 4.645-10.116 0.936-4.464 1.621-9.72 0.684-15.768-0.936-6.049-3.959-13.608-6.156-20.16-2.123-6.588-4.5-11.88-6.299-19.188-1.656-7.523-2.844-16.849-3.564-25.057-0.504-8.352-0.359-17.136-0.396-23.976-0.072-6.876-0.252-9.612-0.143-16.813 0.252-7.38 0.611-18.468 1.367-26.604 0.721-8.172 1.764-14.076 3.275-21.888 1.693-7.884 4.033-17.388 6.445-25.02 2.447-7.668 5.471-14.472 7.955-20.808 2.629-6.444 4.824-12.096 6.984-17.532 2.268-5.544 4.283-10.944 5.76-15.084 1.439-4.176 2.305-7.272 2.592-9.828 0.432-2.628 0.252-4.176-0.396-5.76-0.611-1.656-1.439-3.024-3.311-4.104-1.836-1.368-4.537-2.196-7.668-2.88-3.025-0.684-5.293-1.188-10.152-0.684-4.717 0.468-10.691 1.656-18.072 3.564l6.301-3.564c5.074-1.44 9.646-2.268 13.715-2.484 4.104-0.36 7.236-0.18 10.801 1.116 3.672 1.404 9.504 2.952 10.979 6.984 1.549 3.888 0.037 9.648-1.764 16.308-1.656 6.552-5.471 15.624-8.387 22.752-2.844 6.984-5.58 10.836-8.641 19.044-2.988 8.064-6.732 19.728-9.145 29.448-2.303 9.684-3.635 18.756-4.824 28.476-1.043 9.648-1.727 19.188-2.051 29.052-0.289 9.757-0.289 20.27 0 29.053 0.432 8.496 0.971 15.013 2.051 22.319 1.262 7.345 2.773 14.292 4.682 21.24 1.943 6.804 4.967 14.04 6.551 19.476 1.621 5.364 2.629 8.173 3.168 12.602 0.793 4.248 1.439 9 0.828 13.14-0.648 4.104-1.98 7.849-4.393 11.376-1.118 0.43-2.269 0.9-3.421 1.37z"
          i:knockout="Off"
      />
      <path
          style="stroke-linejoin:round;stroke:#000000;stroke-width:.036;stroke-miterlimit:10;stroke-linecap:round"
          d="m10.67 299.41c-1.297-1.439-2.16-2.809-2.447-4.104-0.182-1.368-0.182-2.7 0.684-3.708 0.863-1.116 2.771-2.268 4.355-2.628 1.729-0.396 3.6-0.396 5.615 0.145 2.053 0.359 4.105 1.368 6.445 2.483 2.412 1.08 4.932 2.448 7.703 4.104-1.547-6.12-2.916-13.104-4.391-21.24-1.441-8.172-2.809-17.856-4.105-27.252-1.152-9.54-2.34-25.704-2.879-29.053-0.396-3.239-0.252 5.04 0 9.433 0.252 4.284 0.611 8.244 1.475 16.452 1.045 8.208 2.916 23.976 4.248 32.328 1.369 8.136 2.557 13.716 3.709 16.739-3.6-2.735-7.02-4.429-10.549-5.221-3.383-0.756-7.955-0.432-10.26 0.54-2.303 0.864-3.168 2.521-3.564 4.393-0.287 1.801 0.254 3.708 1.621 6.155 0.756 0.14 1.547 0.28 2.34 0.43z"
          i:knockout="Off"
      />
      <path
          style="stroke-linejoin:round;stroke:#000000;stroke-width:.036;stroke-miterlimit:10;stroke-linecap:round"
          d="m3.291 42.296c2.988 3.96 5.725 7.02 8.209 9.18 2.52 2.124 3.455 3.492 6.84 3.708 3.6 0.108 9.828-1.08 13.969-2.736 4.283-1.764 8.639-4.464 10.836-6.984 2.23-2.628 2.268-5.976 2.051-7.956-0.252-2.052-1.475-3.096-3.275-3.96-1.619-0.972-6.264-1.296-6.732-1.512-0.396-0.288 2.557-0.432 4.141-0.144 1.764 0.108 4.32 0.288 5.725 1.512 1.402 1.188 2.699 3.384 2.34 5.904-0.396 2.448-2.125 6.48-4.5 9.036-2.305 2.484-5.328 4.212-9.217 5.868-3.779 1.548-9.828 3.204-13.824 3.456-3.924 0.072-6.984-0.756-9.864-2.628-2.844-2.016-5.076-4.896-6.984-9.036 0.07-1.224 0.177-2.448 0.285-3.708z"
          i:knockout="Off"
      />
    </g
    >
  </g
  >
  <metadata
    >
    <rdf:RDF
      >
      <cc:Work
        >
        <dc:format
          >image/svg+xml</dc:format
        >
        <dc:type
            rdf:resource="http://purl.org/dc/dcmitype/StillImage"
        />
        <cc:license
            rdf:resource="http://creativecommons.org/licenses/publicdomain/"
        />
        <dc:publisher
          >
          <cc:Agent
              rdf:about="http://openclipart.org/"
            >
            <dc:title
              >Openclipart</dc:title
            >
          </cc:Agent
          >
        </dc:publisher
        >
        <dc:title
          >Parchment Background or Border</dc:title
        >
        <dc:date
          >2007-11-22T23:33:58</dc:date
        >
        <dc:description
        />
        <dc:source
          >https://openclipart.org/detail/8874/parchment-background-or-border-by-gerald_g-8874</dc:source
        >
        <dc:creator
          >
          <cc:Agent
            >
            <dc:title
              >Gerald_G</dc:title
            >
          </cc:Agent
          >
        </dc:creator
        >
        <dc:subject
          >
          <rdf:Bag
            >
            <rdf:li
              >background</rdf:li
            >
            <rdf:li
              >border</rdf:li
            >
            <rdf:li
              >paper</rdf:li
            >
            <rdf:li
              >parchment</rdf:li
            >
            <rdf:li
              >scroll</rdf:li
            >
          </rdf:Bag
          >
        </dc:subject
        >
      </cc:Work
      >
      <cc:License
          rdf:about="http://creativecommons.org/licenses/publicdomain/"
        >
        <cc:permits
            rdf:resource="http://creativecommons.org/ns#Reproduction"
        />
        <cc:permits
            rdf:resource="http://creativecommons.org/ns#Distribution"
        />
        <cc:permits
            rdf:resource="http://creativecommons.org/ns#DerivativeWorks"
        />
      </cc:License
      >
    </rdf:RDF
    >
  </metadata
  >
</svg
>
