{
  "b": 250,
  "disableInputWhenNotFocused": true,
  "mangledName": "Fase5",
  "name": "Fase5",
  "oglFOV": 90,
  "oglZFar": 500,
  "oglZNear": 1,
  "r": 201,
  "standardSortMethod": true,
  "stopSoundsOnStartup": true,
  "title": "",
  "v": 250,
  "uiSettings": {
    "grid": true,
    "gridB": 255,
    "gridG": 180,
    "gridHeight": 32,
    "gridOffsetX": 0,
    "gridOffsetY": 0,
    "gridR": 158,
    "gridWidth": 32,
    "snap": true,
    "windowMask": false,
    "zoomFactor": 0.568
  },
  "objectsGroups": [
    {
      "name": "GEnemys",
      "objects": [
        {
          "name": "enemy1"
        }
      ]
    }
  ],
  "variables": [
    {
      "name": "limite_fase",
      "value": "6000"
    },
    {
      "name": "limite_fase_y",
      "value": "900"
    }
  ],
  "instances": [
    {
      "angle": 0,
      "customSize": true,
      "height": 128,
      "layer": "",
      "locked": false,
      "name": "player",
      "width": 64,
      "x": 96,
      "y": 672,
      "zOrder": 2,
      "numberProperties": [],
      "stringProperties": [],
      "initialVariables": []
    },
    {
      "angle": 0,
      "customSize": false,
      "height": 0,
      "layer": "",
      "locked": false,
      "name": "dino",
      "width": 0,
      "x": 96,
      "y": 640,
      "zOrder": 999,
      "numberProperties": [
        {
          "name": "animation",
          "value": 0
        }
      ],
      "stringProperties": [],
      "initialVariables": []
    },
    {
      "angle": 0,
      "customSize": true,
      "height": 736,
      "layer": "Background",
      "locked": true,
      "name": "bg1",
      "width": 6816,
      "x": -512,
      "y": 0,
      "zOrder": 4,
      "numberProperties": [],
      "stringProperties": [],
      "initialVariables": []
    },
    {
      "angle": 0,
      "customSize": true,
      "height": 192,
      "layer": "",
      "locked": false,
      "name": "box",
      "width": 384,
      "x": 1184,
      "y": 576,
      "zOrder": 5,
      "numberProperties": [],
      "stringProperties": [],
      "initialVariables": []
    },
    {
      "angle": 0,
      "customSize": true,
      "height": 960,
      "layer": "",
      "locked": false,
      "name": "box",
      "width": 256,
      "x": -256,
      "y": -192,
      "zOrder": 5,
      "numberProperties": [],
      "stringProperties": [],
      "initialVariables": []
    },
    {
      "angle": 0,
      "customSize": false,
      "height": 84,
      "layer": "",
      "locked": false,
      "name": "placa",
      "width": 73,
      "x": 224,
      "y": 608,
      "zOrder": 6,
      "numberProperties": [],
      "stringProperties": [],
      "initialVariables": []
    },
    {
      "angle": 0,
      "customSize": false,
      "height": 0,
      "layer": "UI",
      "locked": false,
      "name": "lblFase",
      "width": 0,
      "x": 871,
      "y": 8,
      "zOrder": 100,
      "numberProperties": [],
      "stringProperties": [],
      "initialVariables": []
    },
    {
      "angle": 0,
      "customSize": true,
      "height": 512,
      "layer": "",
      "locked": false,
      "name": "three",
      "width": 384,
      "x": 4832,
      "y": -32,
      "zOrder": 1,
      "numberProperties": [],
      "stringProperties": [],
      "initialVariables": []
    },
    {
      "angle": 0,
      "customSize": true,
      "height": 640,
      "layer": "",
      "locked": false,
      "name": "three",
      "width": 480,
      "x": 3296,
      "y": 64,
      "zOrder": 2,
      "numberProperties": [],
      "stringProperties": [],
      "initialVariables": []
    },
    {
      "angle": 0,
      "customSize": true,
      "height": 192,
      "layer": "",
      "locked": false,
      "name": "box",
      "width": 64,
      "x": 2688,
      "y": 416,
      "zOrder": 10,
      "numberProperties": [],
      "stringProperties": [],
      "initialVariables": []
    },
    {
      "angle": 0,
      "customSize": true,
      "height": 192,
      "layer": "",
      "locked": false,
      "name": "box",
      "width": 320,
      "x": 5536,
      "y": 576,
      "zOrder": 105,
      "numberProperties": [],
      "stringProperties": [],
      "initialVariables": []
    },
    {
      "angle": 0,
      "customSize": true,
      "height": 384,
      "layer": "",
      "locked": false,
      "name": "box",
      "width": 64,
      "x": 1056,
      "y": 384,
      "zOrder": 10,
      "numberProperties": [],
      "stringProperties": [],
      "initialVariables": []
    },
    {
      "angle": 0,
      "customSize": false,
      "height": 0,
      "layer": "",
      "locked": false,
      "name": "enemy1",
      "width": 0,
      "x": 4960,
      "y": 480,
      "zOrder": 106,
      "numberProperties": [],
      "stringProperties": [],
      "initialVariables": [
        {
          "name": "move",
          "value": "-40"
        }
      ]
    },
    {
      "angle": 0,
      "customSize": false,
      "height": 0,
      "layer": "",
      "locked": false,
      "name": "flipEnemy",
      "width": 0,
      "x": 5184,
      "y": 416,
      "zOrder": 30,
      "numberProperties": [],
      "stringProperties": [],
      "initialVariables": []
    },
    {
      "angle": 0,
      "customSize": false,
      "height": 0,
      "layer": "",
      "locked": false,
      "name": "flipEnemy",
      "width": 0,
      "x": 4672,
      "y": 416,
      "zOrder": 100,
      "numberProperties": [],
      "stringProperties": [],
      "initialVariables": []
    },
    {
      "angle": 0,
      "customSize": true,
      "height": 96,
      "layer": "",
      "locked": false,
      "name": "bigGround",
      "width": 576,
      "x": 0,
      "y": 672,
      "zOrder": 109,
      "numberProperties": [],
      "stringProperties": [],
      "initialVariables": []
    },
    {
      "angle": 0,
      "customSize": false,
      "height": 0,
      "layer": "",
      "locked": false,
      "name": "flipEnemy",
      "width": 0,
      "x": 576,
      "y": 640,
      "zOrder": 12,
      "numberProperties": [],
      "stringProperties": [],
      "initialVariables": []
    },
    {
      "angle": 0,
      "customSize": false,
      "height": 0,
      "layer": "",
      "locked": false,
      "name": "enemy1",
      "width": 0,
      "x": 1792,
      "y": 608,
      "zOrder": 106,
      "numberProperties": [],
      "stringProperties": [],
      "initialVariables": [
        {
          "name": "move",
          "value": "-60"
        }
      ]
    },
    {
      "angle": 0,
      "customSize": false,
      "height": 0,
      "layer": "",
      "locked": false,
      "name": "flipEnemy",
      "width": 0,
      "x": 1568,
      "y": 544,
      "zOrder": 100,
      "numberProperties": [],
      "stringProperties": [],
      "initialVariables": []
    },
    {
      "angle": 0,
      "customSize": false,
      "height": 0,
      "layer": "",
      "locked": false,
      "name": "box",
      "width": 0,
      "x": 3936,
      "y": 608,
      "zOrder": 10,
      "numberProperties": [],
      "stringProperties": [],
      "initialVariables": []
    },
    {
      "angle": 0,
      "customSize": true,
      "height": 64,
      "layer": "",
      "locked": false,
      "name": "box",
      "width": 64,
      "x": 3744,
      "y": 448,
      "zOrder": 111,
      "numberProperties": [],
      "stringProperties": [],
      "initialVariables": []
    },
    {
      "angle": 0,
      "customSize": true,
      "height": 320,
      "layer": "",
      "locked": false,
      "name": "box",
      "width": 64,
      "x": 1120,
      "y": 448,
      "zOrder": 10,
      "numberProperties": [],
      "stringProperties": [],
      "initialVariables": []
    },
    {
      "angle": 0,
      "customSize": true,
      "height": 128,
      "layer": "",
      "locked": false,
      "name": "box",
      "width": 64,
      "x": 5472,
      "y": 640,
      "zOrder": 111,
      "numberProperties": [],
      "stringProperties": [],
      "initialVariables": []
    },
    {
      "angle": 0,
      "customSize": true,
      "height": 608,
      "layer": "",
      "locked": false,
      "name": "bigGround",
      "width": 416,
      "x": 2752,
      "y": 224,
      "zOrder": 112,
      "numberProperties": [],
      "stringProperties": [],
      "initialVariables": []
    },
    {
      "angle": 0,
      "customSize": false,
      "height": 0,
      "layer": "",
      "locked": false,
      "name": "end",
      "width": 0,
      "x": 5728,
      "y": 512,
      "zOrder": 113,
      "numberProperties": [],
      "stringProperties": [],
      "initialVariables": []
    },
    {
      "angle": 0,
      "customSize": true,
      "height": 768,
      "layer": "",
      "locked": false,
      "name": "box",
      "width": 448,
      "x": 5856,
      "y": 0,
      "zOrder": 114,
      "numberProperties": [],
      "stringProperties": [],
      "initialVariables": []
    },
    {
      "angle": 0,
      "customSize": false,
      "height": 0,
      "layer": "",
      "locked": false,
      "name": "enemy1",
      "width": 0,
      "x": 2272,
      "y": 640,
      "zOrder": 115,
      "numberProperties": [],
      "stringProperties": [],
      "initialVariables": [
        {
          "name": "move",
          "value": "-60"
        }
      ]
    },
    {
      "angle": 0,
      "customSize": false,
      "height": 0,
      "layer": "",
      "locked": false,
      "name": "flipEnemy",
      "width": 0,
      "x": 2304,
      "y": 608,
      "zOrder": 116,
      "numberProperties": [],
      "stringProperties": [],
      "initialVariables": []
    },
    {
      "angle": 0,
      "customSize": false,
      "height": 0,
      "layer": "",
      "locked": false,
      "name": "flipEnemy",
      "width": 0,
      "x": 2016,
      "y": 608,
      "zOrder": 117,
      "numberProperties": [],
      "stringProperties": [],
      "initialVariables": []
    },
    {
      "angle": 0,
      "customSize": true,
      "height": 384,
      "layer": "",
      "locked": false,
      "name": "box",
      "width": 448,
      "x": 4736,
      "y": 480,
      "zOrder": 5,
      "numberProperties": [],
      "stringProperties": [],
      "initialVariables": []
    },
    {
      "angle": 0,
      "customSize": false,
      "height": 0,
      "layer": "",
      "locked": false,
      "name": "enemy1",
      "width": 0,
      "x": 1312,
      "y": 576,
      "zOrder": 106,
      "numberProperties": [],
      "stringProperties": [],
      "initialVariables": [
        {
          "name": "move",
          "value": "-45"
        }
      ]
    },
    {
      "angle": 0,
      "customSize": false,
      "height": 0,
      "layer": "",
      "locked": false,
      "name": "enemy1",
      "width": 0,
      "x": 3104,
      "y": 224,
      "zOrder": 106,
      "numberProperties": [],
      "stringProperties": [],
      "initialVariables": [
        {
          "name": "move",
          "value": "-90"
        }
      ]
    },
    {
      "angle": 0,
      "customSize": false,
      "height": 0,
      "layer": "",
      "locked": false,
      "name": "enemy1",
      "width": 0,
      "x": 480,
      "y": 672,
      "zOrder": 106,
      "numberProperties": [],
      "stringProperties": [],
      "initialVariables": [
        {
          "name": "move",
          "value": "-30"
        }
      ]
    },
    {
      "angle": 0,
      "customSize": true,
      "height": 32,
      "layer": "",
      "locked": false,
      "name": "plataforma1",
      "width": 128,
      "x": 640,
      "y": 576,
      "zOrder": 110,
      "numberProperties": [],
      "stringProperties": [],
      "initialVariables": []
    },
    {
      "angle": 0,
      "customSize": true,
      "height": 32,
      "layer": "",
      "locked": false,
      "name": "plataforma1",
      "width": 224,
      "x": 2080,
      "y": 640,
      "zOrder": 110,
      "numberProperties": [],
      "stringProperties": [],
      "initialVariables": []
    },
    {
      "angle": 0,
      "customSize": true,
      "height": 32,
      "layer": "",
      "locked": false,
      "name": "plataforma1",
      "width": 224,
      "x": 1696,
      "y": 608,
      "zOrder": 110,
      "numberProperties": [],
      "stringProperties": [],
      "initialVariables": []
    },
    {
      "angle": 0,
      "customSize": true,
      "height": 64,
      "layer": "",
      "locked": false,
      "name": "box",
      "width": 128,
      "x": 3680,
      "y": 512,
      "zOrder": 111,
      "numberProperties": [],
      "stringProperties": [],
      "initialVariables": []
    },
    {
      "angle": 0,
      "customSize": true,
      "height": 64,
      "layer": "",
      "locked": false,
      "name": "box",
      "width": 64,
      "x": 4672,
      "y": 544,
      "zOrder": 1,
      "numberProperties": [],
      "stringProperties": [],
      "initialVariables": []
    },
    {
      "angle": 0,
      "customSize": false,
      "height": 0,
      "layer": "",
      "locked": false,
      "name": "flipEnemy",
      "width": 0,
      "x": 1120,
      "y": 544,
      "zOrder": 12,
      "numberProperties": [],
      "stringProperties": [],
      "initialVariables": []
    },
    {
      "angle": 0,
      "customSize": false,
      "height": 0,
      "layer": "",
      "locked": false,
      "name": "flipEnemy",
      "width": 0,
      "x": 2688,
      "y": 192,
      "zOrder": 12,
      "numberProperties": [],
      "stringProperties": [],
      "initialVariables": []
    },
    {
      "angle": 0,
      "customSize": false,
      "height": 0,
      "layer": "",
      "locked": false,
      "name": "flipEnemy",
      "width": 0,
      "x": 3168,
      "y": 192,
      "zOrder": 12,
      "numberProperties": [],
      "stringProperties": [],
      "initialVariables": []
    },
    {
      "angle": 0,
      "customSize": true,
      "height": 32,
      "layer": "",
      "locked": false,
      "name": "plataforma1",
      "width": 224,
      "x": 3680,
      "y": 576,
      "zOrder": 110,
      "numberProperties": [],
      "stringProperties": [],
      "initialVariables": []
    },
    {
      "angle": 0,
      "customSize": true,
      "height": 32,
      "layer": "",
      "locked": false,
      "name": "plataforma1",
      "width": 256,
      "x": 4064,
      "y": 576,
      "zOrder": 110,
      "numberProperties": [],
      "stringProperties": [],
      "initialVariables": []
    },
    {
      "angle": 0,
      "customSize": true,
      "height": 64,
      "layer": "",
      "locked": false,
      "name": "box",
      "width": 64,
      "x": 2624,
      "y": 544,
      "zOrder": 111,
      "numberProperties": [],
      "stringProperties": [],
      "initialVariables": []
    },
    {
      "angle": 0,
      "customSize": false,
      "height": 0,
      "layer": "",
      "locked": false,
      "name": "flipEnemy",
      "width": 0,
      "x": 3232,
      "y": 640,
      "zOrder": 1111,
      "numberProperties": [],
      "stringProperties": [],
      "initialVariables": []
    },
    {
      "angle": 0,
      "customSize": false,
      "height": 0,
      "layer": "",
      "locked": false,
      "name": "enemy1",
      "width": 0,
      "x": 3392,
      "y": 672,
      "zOrder": 106,
      "numberProperties": [],
      "stringProperties": [],
      "initialVariables": [
        {
          "name": "move",
          "value": "-50"
        }
      ]
    },
    {
      "angle": 0,
      "customSize": false,
      "height": 0,
      "layer": "",
      "locked": false,
      "name": "enemy1",
      "width": 0,
      "x": 3744,
      "y": 672,
      "zOrder": 106,
      "numberProperties": [],
      "stringProperties": [],
      "initialVariables": [
        {
          "name": "move",
          "value": "-60"
        }
      ]
    },
    {
      "angle": 0,
      "customSize": false,
      "height": 0,
      "layer": "",
      "locked": false,
      "name": "flipEnemy",
      "width": 0,
      "x": 3936,
      "y": 608,
      "zOrder": 100,
      "numberProperties": [],
      "stringProperties": [],
      "initialVariables": []
    },
    {
      "angle": 0,
      "customSize": false,
      "height": 0,
      "layer": "",
      "locked": false,
      "name": "flipEnemy",
      "width": 0,
      "x": -64,
      "y": 640,
      "zOrder": 30,
      "numberProperties": [],
      "stringProperties": [],
      "initialVariables": []
    },
    {
      "angle": 0,
      "customSize": true,
      "height": 832,
      "layer": "UI",
      "locked": false,
      "name": "fade_fase",
      "width": 1056,
      "x": 0,
      "y": 0,
      "zOrder": 1000,
      "numberProperties": [],
      "stringProperties": [],
      "initialVariables": []
    },
    {
      "angle": 0,
      "customSize": true,
      "height": 96,
      "layer": "",
      "locked": false,
      "name": "water",
      "width": 7136,
      "x": -576,
      "y": 672,
      "zOrder": 1,
      "numberProperties": [],
      "stringProperties": [],
      "initialVariables": []
    },
    {
      "angle": 0,
      "customSize": false,
      "height": 0,
      "layer": "",
      "locked": false,
      "name": "enemy1",
      "width": 0,
      "x": 352,
      "y": 672,
      "zOrder": 106,
      "numberProperties": [],
      "stringProperties": [],
      "initialVariables": [
        {
          "name": "move",
          "value": "-30"
        }
      ]
    },
    {
      "angle": 0,
      "customSize": true,
      "height": 32,
      "layer": "",
      "locked": false,
      "name": "plataforma1",
      "width": 256,
      "x": 2496,
      "y": 608,
      "zOrder": 110,
      "numberProperties": [],
      "stringProperties": [],
      "initialVariables": []
    },
    {
      "angle": 0,
      "customSize": true,
      "height": 32,
      "layer": "",
      "locked": false,
      "name": "plataforma1",
      "width": 128,
      "x": 864,
      "y": 512,
      "zOrder": 110,
      "numberProperties": [],
      "stringProperties": [],
      "initialVariables": []
    },
    {
      "angle": 0,
      "customSize": true,
      "height": 224,
      "layer": "",
      "locked": false,
      "name": "bigGround",
      "width": 704,
      "x": 3296,
      "y": 672,
      "zOrder": 112,
      "numberProperties": [],
      "stringProperties": [],
      "initialVariables": []
    },
    {
      "angle": 0,
      "customSize": true,
      "height": 288,
      "layer": "",
      "locked": false,
      "name": "bigGround",
      "width": 256,
      "x": 4480,
      "y": 608,
      "zOrder": 112,
      "numberProperties": [],
      "stringProperties": [],
      "initialVariables": []
    },
    {
      "angle": 0,
      "customSize": false,
      "height": 0,
      "layer": "",
      "locked": false,
      "name": "flipEnemy",
      "width": 0,
      "x": 1632,
      "y": 576,
      "zOrder": 100,
      "numberProperties": [],
      "stringProperties": [],
      "initialVariables": []
    },
    {
      "angle": 0,
      "customSize": false,
      "height": 0,
      "layer": "",
      "locked": false,
      "name": "flipEnemy",
      "width": 0,
      "x": 1920,
      "y": 576,
      "zOrder": 100,
      "numberProperties": [],
      "stringProperties": [],
      "initialVariables": []
    }
  ],
  "objects": [
    {
      "height": 750,
      "name": "bg1",
      "tags": "",
      "texture": "BG\\BG.png",
      "type": "TiledSpriteObject::TiledSprite",
      "width": 1000,
      "variables": [],
      "behaviors": []
    },
    {
      "height": 64,
      "name": "box",
      "tags": "",
      "texture": "Object\\Crate.png",
      "type": "TiledSpriteObject::TiledSprite",
      "width": 64,
      "variables": [],
      "behaviors": [
        {
          "name": "Platform",
          "type": "PlatformBehavior::PlatformBehavior",
          "canBeGrabbed": true,
          "platformType": "NormalPlatform",
          "yGrabOffset": 0
        }
      ]
    },
    {
      "name": "placa",
      "tags": "",
      "type": "Sprite",
      "updateIfNotVisible": false,
      "variables": [],
      "behaviors": [],
      "animations": [
        {
          "name": "",
          "useMultipleDirections": false,
          "directions": [
            {
              "looping": false,
              "timeBetweenFrames": 0.08,
              "sprites": [
                {
                  "hasCustomCollisionMask": false,
                  "image": "Object\\Sign_2.png",
                  "points": [],
                  "originPoint": {
                    "name": "origine",
                    "x": 0,
                    "y": 0
                  },
                  "centerPoint": {
                    "automatic": true,
                    "name": "centre",
                    "x": 0,
                    "y": 0
                  },
                  "customCollisionMask": []
                }
              ]
            }
          ]
        }
      ]
    },
    {
      "name": "three",
      "tags": "",
      "type": "Sprite",
      "updateIfNotVisible": false,
      "variables": [],
      "behaviors": [],
      "animations": [
        {
          "name": "",
          "useMultipleDirections": false,
          "directions": [
            {
              "looping": false,
              "timeBetweenFrames": 0.08,
              "sprites": [
                {
                  "hasCustomCollisionMask": false,
                  "image": "Object\\Tree_2.png",
                  "points": [],
                  "originPoint": {
                    "name": "origine",
                    "x": 0,
                    "y": 0
                  },
                  "centerPoint": {
                    "automatic": true,
                    "name": "centre",
                    "x": 0,
                    "y": 0
                  },
                  "customCollisionMask": []
                }
              ]
            }
          ]
        },
        {
          "name": "",
          "useMultipleDirections": false,
          "directions": [
            {
              "looping": false,
              "timeBetweenFrames": 0.08,
              "sprites": [
                {
                  "hasCustomCollisionMask": false,
                  "image": "Object\\Tree_3.png",
                  "points": [],
                  "originPoint": {
                    "name": "origine",
                    "x": 0,
                    "y": 0
                  },
                  "centerPoint": {
                    "automatic": true,
                    "name": "centre",
                    "x": 0,
                    "y": 0
                  },
                  "customCollisionMask": []
                }
              ]
            }
          ]
        }
      ]
    },
    {
      "name": "enemy1",
      "tags": "",
      "type": "Sprite",
      "updateIfNotVisible": false,
      "variables": [
        {
          "name": "move",
          "value": "-15"
        },
        {
          "name": "die",
          "value": "0"
        }
      ],
      "behaviors": [
        {
          "name": "Tween",
          "type": "Tween::TweenBehavior"
        }
      ],
      "animations": [
        {
          "name": "",
          "useMultipleDirections": false,
          "directions": [
            {
              "looping": true,
              "timeBetweenFrames": 0.25,
              "sprites": [
                {
                  "hasCustomCollisionMask": true,
                  "image": "enemys\\slime.png",
                  "points": [],
                  "originPoint": {
                    "name": "origine",
                    "x": 25,
                    "y": 30
                  },
                  "centerPoint": {
                    "automatic": true,
                    "name": "centre",
                    "x": 0,
                    "y": 0
                  },
                  "customCollisionMask": [
                    [
                      {
                        "x": 5,
                        "y": 10
                      },
                      {
                        "x": 45,
                        "y": 10
                      },
                      {
                        "x": 45,
                        "y": 30
                      },
                      {
                        "x": 5,
                        "y": 30
                      }
                    ]
                  ]
                },
                {
                  "hasCustomCollisionMask": true,
                  "image": "enemys\\slime_walk.png",
                  "points": [],
                  "originPoint": {
                    "name": "origine",
                    "x": 25,
                    "y": 30
                  },
                  "centerPoint": {
                    "automatic": true,
                    "name": "centre",
                    "x": 0,
                    "y": 0
                  },
                  "customCollisionMask": [
                    [
                      {
                        "x": 5,
                        "y": 10
                      },
                      {
                        "x": 45,
                        "y": 10
                      },
                      {
                        "x": 45,
                        "y": 30
                      },
                      {
                        "x": 5,
                        "y": 30
                      }
                    ]
                  ]
                }
              ]
            }
          ]
        },
        {
          "name": "",
          "useMultipleDirections": false,
          "directions": [
            {
              "looping": false,
              "timeBetweenFrames": 0.08,
              "sprites": [
                {
                  "hasCustomCollisionMask": false,
                  "image": "enemys\\slime_squashed.png",
                  "points": [],
                  "originPoint": {
                    "name": "origine",
                    "x": 28,
                    "y": 12
                  },
                  "centerPoint": {
                    "automatic": true,
                    "name": "centre",
                    "x": 0,
                    "y": 0
                  },
                  "customCollisionMask": []
                }
              ]
            }
          ]
        }
      ]
    },
    {
      "name": "flipEnemy",
      "tags": "",
      "type": "Sprite",
      "updateIfNotVisible": false,
      "variables": [],
      "behaviors": [],
      "animations": [
        {
          "name": "flipEnemy",
          "useMultipleDirections": false,
          "directions": [
            {
              "looping": false,
              "timeBetweenFrames": 0.08,
              "sprites": [
                {
                  "hasCustomCollisionMask": false,
                  "image": "flipEnemy-1.png",
                  "points": [],
                  "originPoint": {
                    "name": "origine",
                    "x": 0,
                    "y": 0
                  },
                  "centerPoint": {
                    "automatic": true,
                    "name": "centre",
                    "x": 0,
                    "y": 0
                  },
                  "customCollisionMask": []
                }
              ]
            }
          ]
        }
      ]
    },
    {
      "name": "ground1bordas",
      "tags": "",
      "type": "Sprite",
      "updateIfNotVisible": false,
      "variables": [],
      "behaviors": [],
      "animations": [
        {
          "name": "",
          "useMultipleDirections": false,
          "directions": [
            {
              "looping": false,
              "timeBetweenFrames": 0.08,
              "sprites": [
                {
                  "hasCustomCollisionMask": false,
                  "image": "Tiles\\1.png",
                  "points": [],
                  "originPoint": {
                    "name": "origine",
                    "x": 0,
                    "y": 0
                  },
                  "centerPoint": {
                    "automatic": true,
                    "name": "centre",
                    "x": 0,
                    "y": 0
                  },
                  "customCollisionMask": []
                }
              ]
            }
          ]
        },
        {
          "name": "",
          "useMultipleDirections": false,
          "directions": [
            {
              "looping": false,
              "timeBetweenFrames": 0.08,
              "sprites": [
                {
                  "hasCustomCollisionMask": false,
                  "image": "Tiles\\3.png",
                  "points": [],
                  "originPoint": {
                    "name": "origine",
                    "x": 0,
                    "y": 0
                  },
                  "centerPoint": {
                    "automatic": true,
                    "name": "centre",
                    "x": 0,
                    "y": 0
                  },
                  "customCollisionMask": []
                }
              ]
            }
          ]
        }
      ]
    },
    {
      "bottomMargin": 64,
      "height": 192,
      "leftMargin": 64,
      "name": "bigGround",
      "rightMargin": 64,
      "tags": "",
      "texture": "Tiles\\big_plataform.png",
      "tiled": true,
      "topMargin": 64,
      "type": "PanelSpriteObject::PanelSprite",
      "width": 192,
      "variables": [],
      "behaviors": [
        {
          "name": "Platform",
          "type": "PlatformBehavior::PlatformBehavior",
          "canBeGrabbed": true,
          "platformType": "NormalPlatform",
          "yGrabOffset": 0
        }
      ]
    },
    {
      "bottomMargin": 0,
      "height": 47,
      "leftMargin": 64,
      "name": "plataforma1",
      "rightMargin": 64,
      "tags": "",
      "texture": "Tiles\\plataform1.png",
      "tiled": true,
      "topMargin": 0,
      "type": "PanelSpriteObject::PanelSprite",
      "width": 192,
      "variables": [],
      "behaviors": [
        {
          "name": "Platform",
          "type": "PlatformBehavior::PlatformBehavior",
          "canBeGrabbed": true,
          "platformType": "NormalPlatform",
          "yGrabOffset": 0
        }
      ]
    },
    {
      "name": "end",
      "tags": "",
      "type": "Sprite",
      "updateIfNotVisible": false,
      "variables": [],
      "behaviors": [],
      "animations": [
        {
          "name": "",
          "useMultipleDirections": false,
          "directions": [
            {
              "looping": false,
              "timeBetweenFrames": 0.08,
              "sprites": [
                {
                  "hasCustomCollisionMask": false,
                  "image": "Object\\Sign_F.png",
                  "points": [],
                  "originPoint": {
                    "name": "origine",
                    "x": 0,
                    "y": 0
                  },
                  "centerPoint": {
                    "automatic": true,
                    "name": "centre",
                    "x": 0,
                    "y": 0
                  },
                  "customCollisionMask": []
                }
              ]
            }
          ]
        }
      ]
    }
  ],
  "events": [
    {
      "disabled": false,
      "folded": false,
      "type": "BuiltinCommonInstructions::Link",
      "include": {
        "includeConfig": 0
      },
      "target": "FaseEvents"
    },
    {
      "disabled": false,
      "folded": false,
      "type": "BuiltinCommonInstructions::Link",
      "include": {
        "includeConfig": 0
      },
      "target": "PlayerEvents"
    },
    {
      "disabled": false,
      "folded": false,
      "type": "BuiltinCommonInstructions::Link",
      "include": {
        "includeConfig": 0
      },
      "target": "Enemy1Events"
    }
  ],
  "layers": [
    {
      "name": "Background",
      "visibility": true,
      "cameras": [],
      "effects": []
    },
    {
      "name": "",
      "visibility": true,
      "cameras": [
        {
          "defaultSize": true,
          "defaultViewport": true,
          "height": 0,
          "viewportBottom": 1,
          "viewportLeft": 0,
          "viewportRight": 1,
          "viewportTop": 0,
          "width": 0
        }
      ],
      "effects": []
    },
    {
      "name": "UI",
      "visibility": false,
      "cameras": [],
      "effects": []
    }
  ],
  "behaviorsSharedData": [
    {
      "name": "Platform",
      "type": "PlatformBehavior::PlatformBehavior"
    },
    {
      "name": "PlatformerObject",
      "type": "PlatformBehavior::PlatformerObjectBehavior"
    },
    {
      "name": "Tween",
      "type": "Tween::TweenBehavior"
    }
  ]
}